{
    "type": "project",
    "cards": {},
    "label": "Automation Project",
    "parent": "",
    "outcomes": [
      {
        "id": "36eece74-b55b-4afa-ba5c-61b1c93bc1f6",
        "type": "outcome",
        "color": "#8FBCFF",
        "label": "HITL",
        "reasons": [],
        "percentage": 33,
        "description": "Human in the Loop",
        "outcomeType": "Project",
        "outcomeValue": "Neutral"
      },
      {
        "id": "0b618a6b-f6fe-45f3-afcc-fe4f87052147",
        "type": "outcome",
        "color": "#FFBFCB",
        "label": "Abandon",
        "reasons": [],
        "percentage": 33,
        "description": "User exits system without completion point.",
        "outcomeType": "Project",
        "outcomeValue": "Negative"
      },
      {
        "id": "e47820be-d01f-40bc-bc77-a84eabc6a3d9",
        "type": "outcome",
        "color": "#FFED8F",
        "label": "Contained",
        "reasons": [],
        "percentage": 33,
        "description": "User completes task without Human Assistance, Golden Call.",
        "outcomeType": "Project",
        "outcomeValue": "Positive"
      },
      {
        "id": "escalate",
        "type": "outcome",
        "color": "#8FBCFF",
        "label": "Escalate",
        "description": "User is moved to Global Agent Transfer pattern, passing along flow and context.",
        "outcomeType": "Global",
        "outcomeValue": "Neutral",
        "destinationPattern": ""
      },
      {
        "id": "fallback",
        "type": "outcome",
        "color": "#EBBFFF",
        "label": "Fallback",
        "description": "If user is stuck in n or more repairs on the voice channel. Offer alternate channel if available, or switch to easier input.",
        "outcomeType": "Global",
        "outcomeValue": "Neutral",
        "destinationPattern": ""
      }
    ],
    "parentId": "",
    "patterns": [
      {
        "label": "TestPattern EntityEditor",
        "id": "114e7225-c076-46c9-99b4-c937de00186f",
        "parent": "Test Automation Project",
        "parentId": "96a19446-25e4-42da-ba73-6990e30ed9c6",
        "patternType": "Inbound",
        "nodeType": "pattern",
        "type": "pattern",
        "channels": [
          {
            "id": "IVR",
            "label": "IVR",
            "description": "Voice over the phone",
            "type": "channel"
          },
          {
            "id": "RWC",
            "label": "RWC",
            "description": "Rich webchat UI",
            "type": "channel"
          },
          {
            "id": "SMS",
            "label": "SMS",
            "description": "Text messaging",
            "type": "channel"
          },
          {
            "id": "App",
            "label": "App",
            "description": "Mobile app",
            "type": "channel"
          },
          {
            "id": "VoIP",
            "label": "VoIP",
            "description": "Voice over Internet Protocol in browser",
            "type": "channel"
          }
        ],
				"flowData": [
					{
						"id": "d19257ab-641a-4b00-809f-feb1e751ac6c",
						"flow": [
							{
								"id": "94fca4e5-a0ca-403c-b08f-e775319f19ed",
								"type": "flowCondition",
								"label": "default",
								"order": 1,
								"toNode": "Subflow",
								"description": "",
								"gotoNodeType": "normal"
							}
						],
						"type": "node",
						"label": "Start",
						"parent": "TestAutomationProject/TestPatternEntityEditor",
						"nodeType": "startPoint",
						"parentId": "96a19446-25e4-42da-ba73-6990e30ed9c6/114e7225-c076-46c9-99b4-c937de00186f",
						"description": "Pattern Flow Start",
						"applyInputsToFlow": false,
						"nodeDisplayOption": "description"
					},
					{
						"id": "0eaedfa8-3fd1-4707-907a-eeb5632506a1",
						"flow": [
							{
								"label": "default",
								"order": 1,
								"linkType": "down",
								"id": "bebbd88e-fddd-48b7-bdfe-4f7002dbda7e",
								"toNode": "addPoint",
								"type": "flowCondition"
							}
						],
						"type": "node",
						"label": "Subflow",
						"nodeType": "subFlow",
						"subflowId": "a80760f4-4837-42bc-bc4d-f0d4a5b3d869",
						"containsPii": false,
						"description": "",
						"nodeDisplayOption": "description",
						"parent": "TestAutomationProject/TestPatternEntityEditor",
						"parentId": "96a19446-25e4-42da-ba73-6990e30ed9c6/114e7225-c076-46c9-99b4-c937de00186f",
						"applyInputsToFlow": false
					}
				],
        "entities": [
          {
            "id":"fbd7f683-9fe6-4b56-8a36-7339fadffb4b",
            "type":"entity","label":"EntityToEdit",
            "project":"50d6ae0b-e6a6-4912-a1e3-7e30ae518c92",
            "writable":true,
            "mockValue":"",
            "valueType":"string",
            "formatType":"Formal Name",
            "containsPii":true,
            "description":"",
            "entityGroupID":"defaultEntityGroup"
          },
          {
            "id":"fbd7f683-9fe6-4b56-8a36-7339fadf0b3b",
            "type":"entity",
            "label":"EntityToDelete",
            "project":"50d6ae0b-e6a6-4912-a1e3-7e30ae518c92",
            "writable":true,
            "mockValue":"",
            "valueType":"string",
            "formatType":"Formal Name",
            "containsPii":true,
            "description":"",
            "entityGroupID":"defaultEntityGroup"
          },
          {
            "id":"fbd7f683-9fe6-4b22-8a36-7339fadf0b3b",
            "type":"entity",
            "label":"entityValidation",
            "project":"50d6ae0b-e6a6-4912-a1e3-7e30ae518c92",
            "writable":true,
            "mockValue":"",
            "valueType":"string",
            "formatType":"Formal Name",
            "containsPii":true,
            "description":"",
            "entityGroupID":"defaultEntityGroup"
          },
          {
            "id":"fbd7f683-9fe6-4b56-8a51-7339fadf0b3b",
            "type":"entity","label":"EntityForEntityGroup",
            "project":"50d6ae0b-e6a6-4912-a1e3-7e30ae518c92",
            "writable":true,
            "mockValue":"",
            "valueType":"string",
            "formatType":"Formal Name",
            "containsPii":true,
            "description":"",
            "entityGroupID":"defaultEntityGroup"
          },
          {
            "id":"50d6ae0b-e6a6-4912-a1e3-7e30ae519c9d",
            "type":"entity","label":"EntityUpdForEntityGroup",
            "project":"50d6ae0b-e6a6-4912-a1e3-7e30ae518c99",
            "writable":true,
            "mockValue":"",
            "valueType":"string",
            "formatType":"Formal Name",
            "containsPii":true,
            "description":"",
            "entityGroupID":"defaultEntityGroup"
          }
          
        ],
        "entityGroups": [
          {
            "id": "06cb9489-429b-485a-a7ca-8b58c1837b43",
            "type": "entityGroup",
            "label": "defaultEntityGroup",
            "description": "defaultEntityGroup",
            "primaryKey": "default",
            "dependsOn": [],
            "sharedEndPoint": false
          },
          {
            "id": "06cb9489-429b-485a-a7ca-8b58c1837b13",
            "type": "entityGroup",
            "label": "EntityGroupToEdit",
            "description": "EntityGroupToEdit",
            "primaryKey": "default",
            "dependsOn": [],
            "sharedEndPoint": true
          },
          {
            "id": "06cb9489-429b-485a-a8ca-8b58c1837b13",
            "type": "entityGroup",
            "label": "EntityGroupToDelete",
            "description": "EntityGroupToEdit",
            "primaryKey": "default",
            "dependsOn": [],
            "sharedEndPoint": false
          }
        ],
        "outcomes": [
          {
            "id": "36eece74-b55b-4afa-ba5c-61b1c93bc1f6",
            "type": "outcome",
            "color": "#8FBCFF",
            "label": "HITL",
            "reasons": [],
            "percentage": 33,
            "description": "Human in the Loop",
            "outcomeType": "Project",
            "outcomeValue": "Neutral"
          },
          {
            "id": "0b618a6b-f6fe-45f3-afcc-fe4f87052147",
            "type": "outcome",
            "color": "#FFBFCB",
            "label": "Abandon",
            "reasons": [],
            "percentage": 33,
            "description": "User exits system without completion point.",
            "outcomeType": "Project",
            "outcomeValue": "Negative"
          },
          {
            "id": "e47820be-d01f-40bc-bc77-a84eabc6a3d9",
            "type": "outcome",
            "color": "#FFED8F",
            "label": "Contained",
            "reasons": [],
            "percentage": 33,
            "description": "User completes task without Human Assistance, Golden Call.",
            "outcomeType": "Project",
            "outcomeValue": "Positive"
          },
          {
            "id": "escalate",
            "type": "outcome",
            "color": "#8FBCFF",
            "label": "Escalate",
            "description": "User is moved to Global Agent Transfer pattern, passing along flow and context.",
            "outcomeType": "Global",
            "outcomeValue": "Neutral",
            "destinationPattern": ""
          },
          {
            "id": "fallback",
            "type": "outcome",
            "color": "#EBBFFF",
            "label": "Fallback",
            "description": "If user is stuck in n or more repairs on the voice channel. Offer alternate channel if available, or switch to easier input.",
            "outcomeType": "Global",
            "outcomeValue": "Neutral",
            "destinationPattern": ""
          }
        ],
        "subflows": [],
        "mapper": [],
        "description": ""
      },
      {
        "label": "Pattern to Delete",
        "id": "114e7225-c076-46c9-99b4-c938de00186f",
        "parent": "Test Automation Project",
        "parentId": "96a19446-25e4-42da-ba73-6990e30ed9c6",
        "patternType": "Inbound",
        "nodeType": "pattern",
        "type": "pattern",
        "channels": [
          {
            "id": "IVR",
            "label": "IVR",
            "description": "Voice over the phone",
            "type": "channel"
          },
          {
            "id": "RWC",
            "label": "RWC",
            "description": "Rich webchat UI",
            "type": "channel"
          }      
        ],
        "flowData": [
          {
            "type": "node",
            "id": "4d24cb84-a94c-402d-aa9d-7f7209dd6ab9",
            "label": "Start",
            "nodeType": "startPoint",
            "description": "Pattern Flow Start",
            "flow": [
              {
                "id": "7333ffe3-5168-4e30-a8cb-ba23d69f329f",
                "label": "default",
                "order": 1,
                "description": "Start Experience",
                "toNode": "addPoint",
                "type": "flowCondition"
              }
            ],
            "parent": "Test Automation Project/TestPattern",
            "parentId": "96a19446-25e4-42da-ba73-6990e30ed9c6/114e7225-c076-46c9-99b4-c937de00186f",
            "nodeDisplayOption": "description",
            "applyInputsToFlow": false
          }
        ],
        "entities": [],
        "entityGroups": [
          {
            "id": "06cb9489-429b-485a-a7ca-8b58c1837b43",
            "type": "entityGroup",
            "label": "defaultEntityGroup",
            "description": "defaultEntityGroup",
            "primaryKey": "default",
            "dependsOn": [],
            "sharedEndPoint": false
          }
        ],
        "outcomes": [
          {
            "id": "36eece74-b55b-4afa-ba5c-61b1c93bc1f6",
            "type": "outcome",
            "color": "#8FBCFF",
            "label": "HITL",
            "reasons": [],
            "percentage": 33,
            "description": "Human in the Loop",
            "outcomeType": "Project",
            "outcomeValue": "Neutral"
          },
          {
            "id": "0b618a6b-f6fe-45f3-afcc-fe4f87052147",
            "type": "outcome",
            "color": "#FFBFCB",
            "label": "Abandon",
            "reasons": [],
            "percentage": 33,
            "description": "User exits system without completion point.",
            "outcomeType": "Project",
            "outcomeValue": "Negative"
          }
        ],
        "subflows": [],
        "mapper": [],
        "description": ""
      },
      {
        "label": "TestUniquePattern",
        "id": "114e7225-c076-46c9-99b4-c111de00186f",
        "parent": "Test Automation Project",
        "parentId": "96a19446-25e4-42da-ba73-6990e30ed9c6",
        "patternType": "Inbound",
        "nodeType": "pattern",
        "type": "pattern",
        "channels": [
          {
            "id": "IVR",
            "label": "IVR",
            "description": "Voice over the phone",
            "type": "channel"
          },
          {
            "id": "RWC",
            "label": "RWC",
            "description": "Rich webchat UI",
            "type": "channel"
          }      
        ],
        "flowData": [
          {
            "type": "node",
            "id": "4d24cb84-a94c-402d-aa9d-7f7209dd6ab9",
            "label": "Start",
            "nodeType": "startPoint",
            "description": "Pattern Flow Start",
            "flow": [
              {
                "id": "7333ffe3-5168-4e30-a8cb-ba23d69f329f",
                "label": "default",
                "order": 1,
                "description": "Start Experience",
                "toNode": "addPoint",
                "type": "flowCondition"
              }
            ],
            "parent": "Test Automation Project/TestPattern",
            "parentId": "96a19446-25e4-42da-ba73-6990e30ed9c6/114e7225-c076-46c9-99b4-c937de00186f",
            "nodeDisplayOption": "description",
            "applyInputsToFlow": false
          }
        ],
        "entities": [],
        "entityGroups": [
          {
            "id": "06cb9489-429b-485a-a7ca-8b58c1837b43",
            "type": "entityGroup",
            "label": "defaultEntityGroup",
            "description": "defaultEntityGroup",
            "primaryKey": "default",
            "dependsOn": [],
            "sharedEndPoint": false
          }
        ],
        "outcomes": [
          {
            "id": "36eece74-b55b-4afa-ba5c-61b1c93bc1f6",
            "type": "outcome",
            "color": "#8FBCFF",
            "label": "HITL",
            "reasons": [],
            "percentage": 33,
            "description": "Human in the Loop",
            "outcomeType": "Project",
            "outcomeValue": "Neutral"
          },
          {
            "id": "0b618a6b-f6fe-45f3-afcc-fe4f87052147",
            "type": "outcome",
            "color": "#FFBFCB",
            "label": "Abandon",
            "reasons": [],
            "percentage": 33,
            "description": "User exits system without completion point.",
            "outcomeType": "Project",
            "outcomeValue": "Negative"
          }
        ],
        "subflows": [],
        "mapper": [],
        "description": ""
      }
    ],
    "templates": {
      "YesNoTemplateId": {
        "id": "YesNoTemplateId",
        "label": "YesNoQuestion",
        "hasPre": true,
        "hasPost": true,
        "hasRepair": true,
        "description": "This is the default ClosedQuestion template",
        "templateType": "closedQuestion",
        "channelConditions": [
          {
            "flow": [],
            "input": {
              "models": [
                {
                  "id": "d5dd7b43-f75a-4012-b264-1d300bbb6bb2",
                  "type": "inputCondition",
                  "label": "Yes",
                  "parser": "yes, yeah, yah",
                  "inputType": "Matcher",
                  "containsPii": false,
                  "description": "positive user response"
                },
                {
                  "id": "2a3dc036-f431-400a-a644-63046080bd8a",
                  "type": "inputCondition",
                  "label": "No",
                  "parser": "no, nope, nah",
                  "inputType": "Matcher",
                  "containsPii": false,
                  "description": "negative user response"
                }
              ]
            },
            "output": [],
            "channelId": "IVR"
          },
          {
            "flow": [],
            "input": {
              "models": [
                {
                  "id": "3793b994-f4de-4d24-b42f-6bb712ee73a8",
                  "type": "inputCondition",
                  "label": "Yes",
                  "parser": "yes, yeah, yah",
                  "inputType": "Matcher",
                  "containsPii": false,
                  "description": "positive user response"
                },
                {
                  "id": "d1acb3b9-a027-44c9-b86e-c0875e986e76",
                  "type": "inputCondition",
                  "label": "No",
                  "parser": "no, nope, nah",
                  "inputType": "Matcher",
                  "containsPii": false,
                  "description": "negative user response"
                }
              ]
            },
            "output": [],
            "channelId": "RWC"
          },
          {
            "flow": [],
            "input": {
              "models": [
                {
                  "id": "0a6ce375-3025-444d-8185-6d82cc91d900",
                  "type": "inputCondition",
                  "label": "Yes",
                  "parser": "yes, yeah, yah",
                  "inputType": "Matcher",
                  "containsPii": false,
                  "description": "positive user response"
                },
                {
                  "id": "f7b6b163-5f9f-49bb-a2d9-9c4cad95c89a",
                  "type": "inputCondition",
                  "label": "No",
                  "parser": "no, nope, nah",
                  "inputType": "Matcher",
                  "containsPii": false,
                  "description": "negative user response"
                }
              ]
            },
            "output": [],
            "channelId": "SMS"
          },
          {
            "flow": [],
            "input": {
              "models": []
            },
            "output": [],
            "channelId": "App"
          },
          {
            "flow": [],
            "input": {
              "models": [
                {
                  "id": "61b3d91c-82e0-470e-8630-edf230daac13",
                  "type": "inputCondition",
                  "label": "Yes",
                  "parser": "yes, yeah, yah",
                  "inputType": "Matcher",
                  "containsPii": false,
                  "description": "positive user response"
                },
                {
                  "id": "2d5a1a6c-9999-48ea-a7e3-d8ce45caacca",
                  "type": "inputCondition",
                  "label": "No",
                  "parser": "no, nope, nah",
                  "inputType": "Matcher",
                  "containsPii": false,
                  "description": "negative user response"
                }
              ]
            },
            "output": [],
            "channelId": "rSMS"
          },
          {
            "flow": [],
            "input": {
              "models": [
                {
                  "id": "3e5742e6-c602-478c-b9d4-e1456f384904",
                  "type": "inputCondition",
                  "label": "Yes",
                  "parser": "yes, yeah, yah",
                  "inputType": "Matcher",
                  "containsPii": false,
                  "description": "positive user response"
                },
                {
                  "id": "3e813fbf-b041-464d-892e-fcaad01c1692",
                  "type": "inputCondition",
                  "label": "No",
                  "parser": "no, nope, nah",
                  "inputType": "Matcher",
                  "containsPii": false,
                  "description": "negative user response"
                }
              ]
            },
            "output": [],
            "channelId": "VoIP"
          }
        ]
      },
      "defaultOpenTemplate": {
        "id": "defaultOpenTemplate",
        "label": "DefaultOpenTemplate",
        "hasPre": true,
        "hasPost": true,
        "hasRepair": true,
        "description": "This is the default open template.",
        "templateType": "openQuestion",
        "channelConditions": [
          {
            "flow": [],
            "input": {
              "models": []
            },
            "output": [],
            "channelId": "IVR"
          },
          {
            "flow": [],
            "input": {
              "models": []
            },
            "output": [],
            "channelId": "RWC"
          },
          {
            "flow": [],
            "input": {
              "models": []
            },
            "output": [],
            "channelId": "SMS"
          },
          {
            "flow": [],
            "input": {
              "models": []
            },
            "output": [],
            "channelId": "App"
          },
          {
            "flow": [],
            "input": {
              "models": []
            },
            "output": [],
            "channelId": "rSMS"
          },
          {
            "flow": [],
            "input": {
              "models": []
            },
            "output": [],
            "channelId": "VoIP"
          }
        ]
      },
      "defaultClosedTemplate": {
        "id": "defaultClosedTemplate",
        "label": "DefaultClosedTemplate",
        "hasPre": true,
        "hasPost": true,
        "hasRepair": true,
        "description": "This is the default closed template.",
        "templateType": "closedQuestion",
        "channelConditions": [
          {
            "flow": [],
            "input": {
              "models": []
            },
            "output": [],
            "channelId": "IVR"
          },
          {
            "flow": [],
            "input": {
              "models": []
            },
            "output": [],
            "channelId": "RWC"
          },
          {
            "flow": [],
            "input": {
              "models": []
            },
            "output": [],
            "channelId": "SMS"
          },
          {
            "flow": [],
            "input": {
              "models": []
            },
            "output": [],
            "channelId": "App"
          },
          {
            "flow": [],
            "input": {
              "models": []
            },
            "output": [],
            "channelId": "rSMS"
          },
          {
            "flow": [],
            "input": {
              "models": []
            },
            "output": [],
            "channelId": "VoIP"
          }
        ]
      },
      "defaultPromptTemplate": {
        "id": "defaultPromptTemplate",
        "label": "DefaultPromptTemplate",
        "hasPre": true,
        "hasPost": true,
        "hasRepair": true,
        "description": "This is the default prompt template.",
        "templateType": "prompt",
        "channelConditions": [
          {
            "flow": [],
            "input": {
              "models": []
            },
            "output": [],
            "channelId": "IVR"
          },
          {
            "flow": [],
            "input": {
              "models": []
            },
            "output": [],
            "channelId": "RWC"
          },
          {
            "flow": [],
            "input": {
              "models": []
            },
            "output": [],
            "channelId": "SMS"
          },
          {
            "flow": [],
            "input": {
              "models": []
            },
            "output": [],
            "channelId": "App"
          },
          {
            "flow": [],
            "input": {
              "models": []
            },
            "output": [],
            "channelId": "rSMS"
          },
          {
            "flow": [],
            "input": {
              "models": []
            },
            "output": [],
            "channelId": "VoIP"
          }
        ]
      }
    },
    "description": "Project Entity Testing",
    "projectType": "None",
    "destinationPdes": [],
    "outcomesBaseline": [],
    "globalRepairRules": [
      {
        "id": "OOCRule",
        "label": "Out of Context",
        "outcome": "fallback",
        "repairType": "outOfContext",
        "description": "Out of context response are when the NLU is unable to classify the user's input. The user is asked to repeat.",
        "numberOfAttempts": 2
      },
      {
        "id": "NRRule",
        "label": "No Response",
        "outcome": "fallback",
        "repairType": "noResponse",
        "description": "No response is when the user does not provide any input. The system will reprompt the user to provide a response",
        "numberOfAttempts": 2
      },
      {
        "id": "ARRule",
        "label": "Agent Request",
        "outcome": "escalate",
        "repairType": "agentRequest",
        "description": "User requests Agent Transfer will trigger an Escalate flow",
        "numberOfAttempts": 1
      },
      {
        "id": "MRBFrule",
        "label": "Maximum Repair before Fallback",
        "outcome": "fallback",
        "repairType": "maximum",
        "description": "Total number of repairs before triggering a fallback action. Fallback should be offering another channel or escalating to an agent",
        "numberOfAttempts": 3
      }
    ],
    "projectObjectVersion": 1
  }
