{
  "type": "project",
  "label": "10106",
  "outcomes": [
    {
      "id": "b56af94b-8223-4a07-934f-42010fb3fc9b",
      "type": "outcome",
      "color": "#FFBFCB",
      "label": "Abandon",
      "reasons": [],
      "percentage": 33,
      "description": "User exits system without completion point.",
      "outcomeType": "Project",
      "outcomeValue": "Negative"
    },
    {
      "id": "b75f7a9d-c832-4bfc-b646-fdbc55172901",
      "type": "outcome",
      "color": "#8FBCFF",
      "label": "HITL",
      "reasons": [],
      "percentage": 33,
      "description": "Human in the Loop",
      "outcomeType": "Project",
      "outcomeValue": "Neutral"
    },
    {
      "id": "ef13066d-9a77-47d2-8354-81dd28204c43",
      "type": "outcome",
      "color": "#FFED8F",
      "label": "Contained",
      "reasons": [],
      "percentage": 33,
      "description": "User completes task without Human Assistance, Golden Call.",
      "outcomeType": "Project",
      "outcomeValue": "Positive"
    },
    {
      "id": "escalate",
      "label": "Escalate",
      "description": "User is moved to Global Agent Transfer pattern, passing along flow and context.",
      "destinationPattern": "",
      "outcomeType": "Global",
      "outcomeValue": "Neutral",
      "type": "outcome",
      "color": "#8FBCFF"
    },
    {
      "id": "fallback",
      "label": "Fallback",
      "description": "If user is stuck in n or more repairs on the voice channel. Offer alternate channel if available, or switch to easier input.",
      "destinationPattern": "",
      "outcomeType": "Global",
      "outcomeValue": "Neutral",
      "type": "outcome",
      "color": "#EBBFFF"
    }
  ],
  "patterns": [
    {
      "label": "10106",
      "id": "57dd2512-57ce-4eb8-8405-b4049d8d4ab1",
      "parent": "10106",
      "parentId": "d077287f-da02-468e-a598-404425175f92",
      "patternType": "Inbound",
      "nodeType": "pattern",
      "type": "pattern",
      "channels": [
        {
          "id": "IVR",
          "type": "channel",
          "label": "IVR",
          "description": "Voice over the phone"
        },
        {
          "id": "RWC",
          "type": "channel",
          "label": "RWC",
          "description": "Rich webchat UI"
        },
        {
          "id": "SMS",
          "type": "channel",
          "label": "SMS",
          "description": "Text messaging"
        },
        {
          "id": "VoIP",
          "type": "channel",
          "label": "VoIP",
          "description": "Voice over Internet Protocol in browser"
        }
      ],
      "flowData": [
        {
          "id": "d40516b1-11f6-4dad-bf37-96f162bfa16e",
          "flow": [
            {
              "id": "cebae3f3-717c-49de-9d2f-9321cb00df4b",
              "type": "flowCondition",
              "label": "default",
              "order": 1,
              "toNode": "addPoint",
              "description": "Start Experience"
            }
          ],
          "type": "node",
          "label": "Start",
          "parent": "10106/10106",
          "nodeType": "startPoint",
          "parentId": "d077287f-da02-468e-a598-404425175f92/57dd2512-57ce-4eb8-8405-b4049d8d4ab1",
          "description": "Pattern Flow Start",
          "applyInputsToFlow": false,
          "nodeDisplayOption": "description"
        }
      ],
      "entities": [],
      "entityGroups": [
        {
          "id": "76afaa34-1d00-4541-851f-3da357ad1241",
          "type": "entityGroup",
          "label": "defaultEntityGroup",
          "dependsOn": [],
          "primaryKey": "default",
          "description": "defaultEntityGroup",
          "sharedEndPoint": false
        }
      ],
      "outcomes": [
        {
          "id": "b56af94b-8223-4a07-934f-42010fb3fc9b",
          "type": "outcome",
          "color": "#FFBFCB",
          "label": "Abandon",
          "reasons": [],
          "percentage": 33,
          "description": "User exits system without completion point.",
          "outcomeType": "Project",
          "outcomeValue": "Negative"
        },
        {
          "id": "b75f7a9d-c832-4bfc-b646-fdbc55172901",
          "type": "outcome",
          "color": "#8FBCFF",
          "label": "HITL",
          "reasons": [],
          "percentage": 33,
          "description": "Human in the Loop",
          "outcomeType": "Project",
          "outcomeValue": "Neutral"
        },
        {
          "id": "ef13066d-9a77-47d2-8354-81dd28204c43",
          "type": "outcome",
          "color": "#FFED8F",
          "label": "Contained",
          "reasons": [],
          "percentage": 33,
          "description": "User completes task without Human Assistance, Golden Call.",
          "outcomeType": "Project",
          "outcomeValue": "Positive"
        }
      ],
      "subflows": [],
      "mapper": [],
      "description": ""
    }
  ],
  "templates": {
    "defaultOpenTemplate": {
      "id": "defaultOpenTemplate",
      "label": "DefaultOpenTemplate",
      "hasPre": true,
      "hasPost": true,
      "hasRepair": true,
      "description": "This is the default open template.",
      "templateType": "openQuestion",
      "channelConditions": [
        {
          "flow": [],
          "input": {
            "models": []
          },
          "output": [],
          "channelId": "IVR"
        },
        {
          "flow": [],
          "input": {
            "models": []
          },
          "output": [],
          "channelId": "RWC"
        },
        {
          "flow": [],
          "input": {
            "models": []
          },
          "output": [],
          "channelId": "SMS"
        },
        {
          "flow": [],
          "input": {
            "models": []
          },
          "output": [],
          "channelId": "App"
        },
        {
          "flow": [],
          "input": {
            "models": []
          },
          "output": [],
          "channelId": "rSMS"
        },
        {
          "flow": [],
          "input": {
            "models": []
          },
          "output": [],
          "channelId": "VoIP"
        }
      ]
    },
    "defaultClosedTemplate": {
      "id": "defaultClosedTemplate",
      "label": "DefaultClosedTemplate",
      "hasPre": true,
      "hasPost": true,
      "hasRepair": true,
      "description": "This is the default closed template.",
      "templateType": "closedQuestion",
      "channelConditions": [
        {
          "flow": [],
          "input": {
            "models": []
          },
          "output": [],
          "channelId": "IVR"
        },
        {
          "flow": [],
          "input": {
            "models": []
          },
          "output": [],
          "channelId": "RWC"
        },
        {
          "flow": [],
          "input": {
            "models": []
          },
          "output": [],
          "channelId": "SMS"
        },
        {
          "flow": [],
          "input": {
            "models": []
          },
          "output": [],
          "channelId": "App"
        },
        {
          "flow": [],
          "input": {
            "models": []
          },
          "output": [],
          "channelId": "rSMS"
        },
        {
          "flow": [],
          "input": {
            "models": []
          },
          "output": [],
          "channelId": "VoIP"
        }
      ]
    },
    "defaultPromptTemplate": {
      "id": "defaultPromptTemplate",
      "label": "DefaultPromptTemplate",
      "hasPre": true,
      "hasPost": true,
      "hasRepair": true,
      "description": "This is the default prompt template.",
      "templateType": "prompt",
      "channelConditions": [
        {
          "flow": [],
          "input": {
            "models": []
          },
          "output": [],
          "channelId": "IVR"
        },
        {
          "flow": [],
          "input": {
            "models": []
          },
          "output": [],
          "channelId": "RWC"
        },
        {
          "flow": [],
          "input": {
            "models": []
          },
          "output": [],
          "channelId": "SMS"
        },
        {
          "flow": [],
          "input": {
            "models": []
          },
          "output": [],
          "channelId": "App"
        },
        {
          "flow": [],
          "input": {
            "models": []
          },
          "output": [],
          "channelId": "rSMS"
        },
        {
          "flow": [],
          "input": {
            "models": []
          },
          "output": [],
          "channelId": "VoIP"
        }
      ]
    },
    "YesNoTemplateId": {
      "label": "YesNoQuestion",
      "description": "This is the default ClosedQuestion template",
      "templateType": "closedQuestion",
      "id": "YesNoTemplateId",
      "channelConditions": [
        {
          "channelId": "IVR",
          "output": [],
          "input": {
            "models": [
              {
                "label": "Yes",
                "type": "inputCondition",
                "containsPii": false,
                "id": "760af136-7de6-4dc3-97f5-fe7b8ab53c12",
                "description": "positive user response",
                "inputType": "Matcher",
                "parser": "yes, yeah, yah"
              },
              {
                "label": "No",
                "type": "inputCondition",
                "containsPii": false,
                "id": "cf2a766a-453e-45d1-a68d-45881d8b89e2",
                "description": "negative user response",
                "inputType": "Matcher",
                "parser": "no, nope, nah"
              }
            ]
          },
          "flow": []
        },
        {
          "channelId": "RWC",
          "output": [],
          "input": {
            "models": [
              {
                "label": "Yes",
                "type": "inputCondition",
                "containsPii": false,
                "id": "3b502740-7855-4926-b214-71feae77015e",
                "description": "positive user response",
                "inputType": "Matcher",
                "parser": "yes, yeah, yah"
              },
              {
                "label": "No",
                "type": "inputCondition",
                "containsPii": false,
                "id": "0f97dc98-4a64-4a32-937a-5c0d20aa8956",
                "description": "negative user response",
                "inputType": "Matcher",
                "parser": "no, nope, nah"
              }
            ]
          },
          "flow": []
        },
        {
          "channelId": "SMS",
          "output": [],
          "input": {
            "models": [
              {
                "label": "Yes",
                "type": "inputCondition",
                "containsPii": false,
                "id": "88b56898-7315-4937-a157-abe5d9950765",
                "description": "positive user response",
                "inputType": "Matcher",
                "parser": "yes, yeah, yah"
              },
              {
                "label": "No",
                "type": "inputCondition",
                "containsPii": false,
                "id": "b23cc8af-efbf-492f-870a-460230801c23",
                "description": "negative user response",
                "inputType": "Matcher",
                "parser": "no, nope, nah"
              }
            ]
          },
          "flow": []
        },
        {
          "channelId": "App",
          "output": [],
          "input": {
            "models": []
          },
          "flow": []
        },
        {
          "channelId": "rSMS",
          "output": [],
          "input": {
            "models": [
              {
                "label": "Yes",
                "type": "inputCondition",
                "containsPii": false,
                "id": "6284a87d-aa53-4373-8807-2b838a683e6e",
                "description": "positive user response",
                "inputType": "Matcher",
                "parser": "yes, yeah, yah"
              },
              {
                "label": "No",
                "type": "inputCondition",
                "containsPii": false,
                "id": "066dceb7-1211-4d40-b3b5-fc82e07c9da5",
                "description": "negative user response",
                "inputType": "Matcher",
                "parser": "no, nope, nah"
              }
            ]
          },
          "flow": []
        },
        {
          "channelId": "VoIP",
          "output": [],
          "input": {
            "models": [
              {
                "label": "Yes",
                "type": "inputCondition",
                "containsPii": false,
                "id": "a18dea3d-fd00-47e2-9125-2325fc44c3f5",
                "description": "positive user response",
                "inputType": "Matcher",
                "parser": "yes, yeah, yah"
              },
              {
                "label": "No",
                "type": "inputCondition",
                "containsPii": false,
                "id": "41ad617e-a684-44b2-b77c-7890aad8fe7c",
                "description": "negative user response",
                "inputType": "Matcher",
                "parser": "no, nope, nah"
              }
            ]
          },
          "flow": []
        }
      ]
    }
  },
  "description": "",
  "projectType": "None",
  "outcomesBaseline": [],
  "projectObjectVersion": 1,
  "parent": "",
  "parentId": "",
  "destinationPdes": [],
  "cards": {},
  "globalRepairRules": [
    {
      "label": "Out of Context",
      "description": "Out of context response are when the NLU is unable to classify the user's input. The user is asked to repeat.",
      "id": "OOCRule",
      "repairType": "outOfContext",
      "numberOfAttempts": 2,
      "outcome": "fallback"
    },
    {
      "label": "No Response",
      "description": "No response is when the user does not provide any input. The system will reprompt the user to provide a response",
      "id": "NRRule",
      "repairType": "noResponse",
      "numberOfAttempts": 2,
      "outcome": "fallback"
    },
    {
      "label": "Agent Request",
      "id": "ARRule",
      "description": "User requests Agent Transfer will trigger an Escalate flow",
      "repairType": "agentRequest",
      "numberOfAttempts": 1,
      "outcome": "escalate"
    },
    {
      "label": "Maximum Repair before Fallback",
      "id": "MRBFrule",
      "description": "Total number of repairs before triggering a fallback action. Fallback should be offering another channel or escalating to an agent",
      "repairType": "maximum",
      "numberOfAttempts": 3,
      "outcome": "fallback"
    }
  ]
}
