{
  "type": "project",
  "label": "10690",
  "outcomes": [
    {
      "id": "43cf80cc-bb8f-4bad-8192-9fc5b014d5ae",
      "type": "outcome",
      "color": "#FFBFCB",
      "label": "Abandon",
      "reasons": [],
      "percentage": 33,
      "description": "User exits system without completion point.",
      "outcomeType": "Project",
      "outcomeValue": "Negative"
    },
    {
      "id": "bcf9dba2-e9eb-4cfe-be14-f44f01a4e5ce",
      "type": "outcome",
      "color": "#FFED8F",
      "label": "Contained",
      "reasons": [],
      "percentage": 33,
      "description": "User completes task without Human Assistance, Golden Call.",
      "outcomeType": "Project",
      "outcomeValue": "Positive"
    },
    {
      "id": "edd1d3f5-b23c-4223-97c4-89f182b2946c",
      "type": "outcome",
      "color": "#8FBCFF",
      "label": "HITL",
      "reasons": [],
      "percentage": 33,
      "description": "Human in the Loop",
      "outcomeType": "Project",
      "outcomeValue": "Neutral"
    },
    {
      "id": "escalate",
      "label": "Escalate",
      "description": "User is moved to Global Agent Transfer pattern, passing along flow and context.",
      "destinationPattern": "",
      "outcomeType": "Global",
      "outcomeValue": "Neutral",
      "type": "outcome",
      "color": "#8FBCFF"
    },
    {
      "id": "fallback",
      "label": "Fallback",
      "description": "If user is stuck in n or more repairs on the voice channel. Offer alternate channel if available, or switch to easier input.",
      "destinationPattern": "",
      "outcomeType": "Global",
      "outcomeValue": "Neutral",
      "type": "outcome",
      "color": "#EBBFFF"
    }
  ],
  "patterns": [
    {
      "label": "10690",
      "id": "46c2ec01-38b2-4189-bba2-04e2d7a6e521",
      "parent": "10690",
      "parentId": "e9d487ec-54be-456a-9fc4-7e8cad3824db",
      "patternType": "Inbound",
      "nodeType": "pattern",
      "type": "pattern",
      "channels": [
        {
          "id": "IVR",
          "type": "channel",
          "label": "IVR",
          "description": "Voice over the phone"
        },
        {
          "id": "RWC",
          "type": "channel",
          "label": "RWC",
          "description": "Rich webchat UI"
        },
        {
          "id": "SMS",
          "type": "channel",
          "label": "SMS",
          "description": "Text messaging"
        }
      ],
      "flowData": [
        {
          "id": "4ebc4093-f4e7-4bc4-a192-dc5ed3332ea4",
          "flow": [
            {
              "id": "40e8dac7-7f67-4511-9e42-a6f1c2dc2cfa",
              "type": "flowCondition",
              "label": "subflow1",
              "order": 1,
              "toNode": "SubFlow1",
              "description": "This is first SubFlow link description",
              "gotoNodeType": "normal"
            }
          ],
          "type": "node",
          "label": "Start",
          "parent": "10690/10690",
          "nodeType": "startPoint",
          "parentId": "e9d487ec-54be-456a-9fc4-7e8cad3824db/46c2ec01-38b2-4189-bba2-04e2d7a6e521",
          "description": "Pattern Flow Start",
          "applyInputsToFlow": false,
          "nodeDisplayOption": "description"
        },
        {
          "id": "485cde3c-7e1a-488d-87db-77f0cc7c53d3",
          "flow": [
            {
              "id": "0d1ec46a-45f8-46da-8d71-275452707124",
              "type": "flowCondition",
              "label": "default",
              "order": 1,
              "toNode": "addPoint",
              "linkType": "down"
            }
          ],
          "type": "node",
          "label": "SubFlow1",
          "parent": "10690/10690",
          "nodeType": "subFlow",
          "parentId": "e9d487ec-54be-456a-9fc4-7e8cad3824db/46c2ec01-38b2-4189-bba2-04e2d7a6e521",
          "subflowId": "1e45d2f8-e8a9-476f-b82a-42fd204c8ef1",
          "containsPii": false,
          "description": "This is first SubFlow description",
          "applyInputsToFlow": false,
          "nodeDisplayOption": "description"
        }
      ],
      "entities": [],
      "entityGroups": [
        {
          "id": "dd450303-2153-4f44-964c-0522975dbf2d",
          "type": "entityGroup",
          "label": "defaultEntityGroup",
          "dependsOn": [],
          "primaryKey": "default",
          "description": "defaultEntityGroup",
          "sharedEndPoint": false
        }
      ],
      "outcomes": [
        {
          "id": "43cf80cc-bb8f-4bad-8192-9fc5b014d5ae",
          "type": "outcome",
          "color": "#FFBFCB",
          "label": "Abandon",
          "reasons": [],
          "percentage": 33,
          "description": "User exits system without completion point.",
          "outcomeType": "Project",
          "outcomeValue": "Negative"
        },
        {
          "id": "bcf9dba2-e9eb-4cfe-be14-f44f01a4e5ce",
          "type": "outcome",
          "color": "#FFED8F",
          "label": "Contained",
          "reasons": [],
          "percentage": 33,
          "description": "User completes task without Human Assistance, Golden Call.",
          "outcomeType": "Project",
          "outcomeValue": "Positive"
        },
        {
          "id": "edd1d3f5-b23c-4223-97c4-89f182b2946c",
          "type": "outcome",
          "color": "#8FBCFF",
          "label": "HITL",
          "reasons": [],
          "percentage": 33,
          "description": "Human in the Loop",
          "outcomeType": "Project",
          "outcomeValue": "Neutral"
        }
      ],
      "subflows": [
        {
          "id": "1e45d2f8-e8a9-476f-b82a-42fd204c8ef1",
          "flowDataSet": [
            {
              "channel": {
                "id": "IVR",
                "type": "channel",
                "label": "IVR",
                "description": "Voice over the phone"
              },
              "flowData": [
                {
                  "id": "49538c95-04eb-41b7-bf8f-1e8c05f89a55",
                  "flow": [
                    {
                      "id": "9e485dc6-83c0-4ddc-b880-12c412ec6a5f",
                      "type": "flowCondition",
                      "label": "prompt1",
                      "order": 1,
                      "toNode": "Prompt1",
                      "description": "This is first Prompt link description",
                      "gotoNodeType": "normal"
                    }
                  ],
                  "type": "node",
                  "label": "Start",
                  "parent": "10690/10690/SubFlow1",
                  "nodeType": "startPoint",
                  "parentId": "e9d487ec-54be-456a-9fc4-7e8cad3824db/46c2ec01-38b2-4189-bba2-04e2d7a6e521/1e45d2f8-e8a9-476f-b82a-42fd204c8ef1",
                  "description": "Pattern Flow Start",
                  "applyInputsToFlow": false,
                  "nodeDisplayOption": "description"
                },
                {
                  "id": "04887a09-fc1b-4380-80bf-9917d6f1b876",
                  "flow": [
                    {
                      "label": "openquestion1",
                      "order": 2,
                      "toNode": "OpenQuestion1",
                      "linkType": "down",
                      "description": "This is first OpenQuestion link description",
                      "gotoNodeType": "normal",
                      "id": "196aea19-89f7-46ba-b464-cc9abb64e6c8",
                      "type": "flowCondition"
                    },
                    {
                      "label": "closedquestion1",
                      "order": 2,
                      "toNode": "ClosedQuestion1",
                      "linkType": "down",
                      "description": "This is first ClosedQuestion link description",
                      "gotoNodeType": "normal",
                      "id": "489ec7a6-1a0d-46c9-bdee-c537f8e60a63",
                      "type": "flowCondition"
                    },
                    {
                      "label": "subflow1",
                      "order": 3,
                      "toNode": "Subflow1",
                      "linkType": "down",
                      "description": "This is first Subflow link description",
                      "gotoNodeType": "normal",
                      "id": "95cf99ca-524d-405f-8019-c44c0b8f14a4",
                      "type": "flowCondition"
                    }
                  ],
                  "type": "node",
                  "label": "Prompt1",
                  "output": [
                    {
                      "id": "8e3a5e4a-0466-42fe-8702-dac23515f025",
                      "type": "outputCondition",
                      "label": "Default",
                      "edited": true,
                      "content": [
                        {
                          "id": "48187fc6-6bad-4fcf-8a54-1d0358665778",
                          "value": "text",
                          "channel": "IVR",
                          "dynamic": false,
                          "contentType": "Prompt"
                        }
                      ],
                      "template": false,
                      "conditionType": "primary"
                    }
                  ],
                  "parent": "10690/10690/SubFlow1",
                  "nodeType": "prompt",
                  "parentId": "e9d487ec-54be-456a-9fc4-7e8cad3824db/46c2ec01-38b2-4189-bba2-04e2d7a6e521/1e45d2f8-e8a9-476f-b82a-42fd204c8ef1",
                  "templateId": "defaultPromptTemplate",
                  "containsPii": false,
                  "description": "This is first Prompt description",
                  "nodeDisplayOption": "description",
                  "applyInputsToFlow": false,
                  "input": [],
                  "nodeRules": {
                    "id": "aec0feb8-df43-4e12-bd96-36a14904d9f2",
                    "useGlobalEscalate": true,
                    "useGlobalFallback": true,
                    "useGlobalRepairs": true,
                    "repairRules": []
                  }
                },
                {
                  "id": "cfea806e-c2cd-49ab-ada4-3e6983109146",
                  "flow": [
                    {
                      "label": "default",
                      "order": 1,
                      "linkType": "down",
                      "id": "3da57c5a-cf81-44fb-9263-ea8d4f2bc526",
                      "toNode": "addPoint",
                      "type": "flowCondition"
                    },
                    {
                      "label": "Repair",
                      "order": 2,
                      "toNode": "OpenQuestion1",
                      "linkType": "loop",
                      "id": "9073db74-6ab6-4ea6-baac-5d64964f64a2",
                      "type": "flowCondition"
                    }
                  ],
                  "type": "node",
                  "label": "OpenQuestion1",
                  "output": [
                    {
                      "id": "6c03b5c2-e54f-4f62-93f6-2f8e50aafa2f",
                      "type": "outputCondition",
                      "label": "Default",
                      "edited": true,
                      "content": [
                        {
                          "id": "1a172c30-7801-4cc5-8b22-7bfe8372e99f",
                          "value": "prompt",
                          "channel": "IVR",
                          "dynamic": false,
                          "contentType": "Prompt"
                        }
                      ],
                      "template": false,
                      "conditionType": "primary"
                    }
                  ],
                  "parent": "10690/10690/SubFlow1",
                  "nodeType": "openQuestion",
                  "parentId": "e9d487ec-54be-456a-9fc4-7e8cad3824db/46c2ec01-38b2-4189-bba2-04e2d7a6e521/1e45d2f8-e8a9-476f-b82a-42fd204c8ef1",
                  "nodeRules": {
                    "repairRules": [],
                    "useGlobalRepairs": true,
                    "useGlobalEscalate": true,
                    "useGlobalFallback": true
                  },
                  "templateId": "defaultOpenTemplate",
                  "description": "This is first OpenQuestion description",
                  "channelSettings": {
                    "ttsEngine": "",
                    "acceptDTMF": true,
                    "talkingSpeed": 10
                  },
                  "nodeDisplayOption": "description",
                  "applyInputsToFlow": false,
                  "input": [],
                  "containsPii": false
                },
                {
                  "id": "790653eb-d23c-4443-a8f3-481fc3440bb4",
                  "flow": [
                    {
                      "label": "Repair",
                      "order": 2,
                      "toNode": "ClosedQuestion1",
                      "linkType": "loop",
                      "id": "e60e1115-4075-405e-8063-f69780709759",
                      "type": "flowCondition"
                    }
                  ],
                  "type": "node",
                  "input": [
                    {
                      "id": "e6d639dc-580b-4841-a898-cd7296e5b2e5",
                      "type": "inputCondition",
                      "label": "OfferParser",
                      "order": 1,
                      "parser": "HelloModel",
                      "inputType": "NLUModel"
                    }
                  ],
                  "label": "ClosedQuestion1",
                  "output": [
                    {
                      "id": "19ce67c1-eb5d-4c13-9215-492b322c35d2",
                      "type": "outputCondition",
                      "label": "Default",
                      "edited": true,
                      "content": [
                        {
                          "id": "2c19d775-a299-4ec1-9ec0-2a9ac4d1697d",
                          "value": "text",
                          "channel": "IVR",
                          "dynamic": false,
                          "contentType": "Prompt"
                        }
                      ],
                      "template": false,
                      "conditionType": "primary"
                    }
                  ],
                  "parent": "10690/10690/SubFlow1",
                  "nodeType": "closedQuestion",
                  "parentId": "e9d487ec-54be-456a-9fc4-7e8cad3824db/46c2ec01-38b2-4189-bba2-04e2d7a6e521/1e45d2f8-e8a9-476f-b82a-42fd204c8ef1",
                  "nodeRules": {
                    "repairRules": [],
                    "useGlobalRepairs": true,
                    "useGlobalEscalate": true,
                    "useGlobalFallback": true
                  },
                  "templateId": "defaultClosedTemplate",
                  "containsPii": false,
                  "description": "This is first ClosedQuestion description",
                  "channelSettings": {
                    "ttsEngine": "",
                    "acceptDTMF": true,
                    "talkingSpeed": 10
                  },
                  "nodeDisplayOption": "description",
                  "applyInputsToFlow": false
                },
                {
                  "id": "03582cee-5af0-4e42-be3a-f0b8f255aaeb",
                  "flow": [
                    {
                      "label": "openquestion2",
                      "order": 1,
                      "toNode": "OpenQuestion2",
                      "linkType": "down",
                      "description": "This is second OpenQuestion link description",
                      "gotoNodeType": "normal",
                      "id": "84a6f742-bafe-4fc3-a86d-6a1b43be96bd",
                      "type": "flowCondition"
                    }
                  ],
                  "type": "node",
                  "label": "Subflow1",
                  "nodeType": "subFlow",
                  "subflowId": "dfbc2cc0-8da8-4c90-bf91-0869409643b2",
                  "containsPii": false,
                  "description": "This is first Subflow description",
                  "nodeDisplayOption": "description",
                  "parent": "10690/10690/SubFlow1",
                  "parentId": "e9d487ec-54be-456a-9fc4-7e8cad3824db/46c2ec01-38b2-4189-bba2-04e2d7a6e521/1e45d2f8-e8a9-476f-b82a-42fd204c8ef1",
                  "applyInputsToFlow": false
                },
                {
                  "id": "27adbea5-81e1-47ad-9a47-97a5dba5047e",
                  "flow": [
                    {
                      "label": "default",
                      "order": 1,
                      "linkType": "down",
                      "id": "b65486aa-2a67-4b14-b0e4-ac1ced2c2710",
                      "toNode": "addPoint",
                      "type": "flowCondition"
                    },
                    {
                      "label": "Repair",
                      "order": 2,
                      "toNode": "OpenQuestion2",
                      "linkType": "loop",
                      "id": "4f78298f-3939-4016-81f7-5649bb790183",
                      "type": "flowCondition"
                    }
                  ],
                  "type": "node",
                  "label": "OpenQuestion2",
                  "output": [
                    {
                      "id": "76bef230-4d7d-4554-b7a3-4a4f8aa12150",
                      "type": "outputCondition",
                      "label": "Default",
                      "edited": true,
                      "content": [
                        {
                          "id": "1a94ef10-5ac1-4194-98a0-311075ef97d3",
                          "value": "prompt",
                          "channel": "IVR",
                          "dynamic": false,
                          "contentType": "Prompt"
                        }
                      ],
                      "template": false,
                      "conditionType": "primary"
                    }
                  ],
                  "parent": "10690/10690/SubFlow1",
                  "nodeType": "openQuestion",
                  "parentId": "e9d487ec-54be-456a-9fc4-7e8cad3824db/46c2ec01-38b2-4189-bba2-04e2d7a6e521/1e45d2f8-e8a9-476f-b82a-42fd204c8ef1",
                  "nodeRules": {
                    "repairRules": [],
                    "useGlobalRepairs": true,
                    "useGlobalEscalate": true,
                    "useGlobalFallback": true
                  },
                  "templateId": "defaultOpenTemplate",
                  "description": "This is second OpenQuestion description",
                  "channelSettings": {
                    "ttsEngine": "",
                    "acceptDTMF": true,
                    "talkingSpeed": 10
                  },
                  "nodeDisplayOption": "description",
                  "applyInputsToFlow": false,
                  "input": [],
                  "containsPii": false
                }
              ]
            },
            {
              "channel": {
                "id": "RWC",
                "type": "channel",
                "label": "RWC",
                "description": "Rich webchat UI"
              },
              "flowData": [
                {
                  "id": "0df65bd3-4dd5-48b5-a9bd-243d47837326",
                  "flow": [
                    {
                      "id": "77bc5672-3100-4c32-9ce6-708515897da0",
                      "type": "flowCondition",
                      "label": "default",
                      "order": 1,
                      "toNode": "addPoint",
                      "description": "Start Experience"
                    }
                  ],
                  "type": "node",
                  "label": "Start",
                  "parent": "10690/10690/SubFlow1",
                  "nodeType": "startPoint",
                  "parentId": "e9d487ec-54be-456a-9fc4-7e8cad3824db/46c2ec01-38b2-4189-bba2-04e2d7a6e521/1e45d2f8-e8a9-476f-b82a-42fd204c8ef1",
                  "description": "Pattern Flow Start",
                  "applyInputsToFlow": false,
                  "nodeDisplayOption": "description"
                }
              ]
            },
            {
              "channel": {
                "id": "SMS",
                "type": "channel",
                "label": "SMS",
                "description": "Text messaging"
              },
              "flowData": [
                {
                  "id": "8e30d702-8cc2-4851-a48f-683d1db364cb",
                  "flow": [
                    {
                      "id": "cef356b2-4367-46e0-bb0c-fbd03f581f44",
                      "type": "flowCondition",
                      "label": "default",
                      "order": 1,
                      "toNode": "addPoint",
                      "description": "Start Experience"
                    }
                  ],
                  "type": "node",
                  "label": "Start",
                  "parent": "10690/10690/SubFlow1",
                  "nodeType": "startPoint",
                  "parentId": "e9d487ec-54be-456a-9fc4-7e8cad3824db/46c2ec01-38b2-4189-bba2-04e2d7a6e521/1e45d2f8-e8a9-476f-b82a-42fd204c8ef1",
                  "description": "Pattern Flow Start",
                  "applyInputsToFlow": false,
                  "nodeDisplayOption": "description"
                }
              ]
            }
          ],
          "label": "SubFlow1",
          "description": "This is first SubFlow description",
          "parent": "10690/10690",
          "parentId": "e9d487ec-54be-456a-9fc4-7e8cad3824db/46c2ec01-38b2-4189-bba2-04e2d7a6e521",
          "subflows": [
            {
              "id": "dfbc2cc0-8da8-4c90-bf91-0869409643b2",
              "flowDataSet": [
                {
                  "channel": {
                    "id": "IVR",
                    "type": "channel",
                    "label": "IVR",
                    "description": "Voice over the phone"
                  },
                  "flowData": [
                    {
                      "id": "942503e9-8ce2-4f0a-8596-01545d7d9798",
                      "flow": [
                        {
                          "id": "3f645524-ce65-43b6-be84-fdfc5461f1e0",
                          "label": "default",
                          "order": 1,
                          "toNode": "addPoint",
                          "description": "Start Experience",
                          "type": "flowCondition"
                        }
                      ],
                      "type": "node",
                      "label": "Start",
                      "nodeType": "startPoint",
                      "description": "Pattern Flow Start",
                      "parent": "10690/10690/SubFlow1/Subflow1",
                      "parentId": "e9d487ec-54be-456a-9fc4-7e8cad3824db/46c2ec01-38b2-4189-bba2-04e2d7a6e521/1e45d2f8-e8a9-476f-b82a-42fd204c8ef1/dfbc2cc0-8da8-4c90-bf91-0869409643b2",
                      "nodeDisplayOption": "description",
                      "applyInputsToFlow": false
                    }
                  ]
                },
                {
                  "channel": {
                    "id": "RWC",
                    "type": "channel",
                    "label": "RWC",
                    "description": "Rich webchat UI"
                  },
                  "flowData": [
                    {
                      "id": "6501824e-ac97-4753-95dd-61e342f49939",
                      "flow": [
                        {
                          "id": "3a119bc1-b9a4-40a2-a725-59d62ae67c9a",
                          "label": "default",
                          "order": 1,
                          "toNode": "addPoint",
                          "description": "Start Experience",
                          "type": "flowCondition"
                        }
                      ],
                      "type": "node",
                      "label": "Start",
                      "nodeType": "startPoint",
                      "description": "Pattern Flow Start",
                      "parent": "10690/10690/SubFlow1/Subflow1",
                      "parentId": "e9d487ec-54be-456a-9fc4-7e8cad3824db/46c2ec01-38b2-4189-bba2-04e2d7a6e521/1e45d2f8-e8a9-476f-b82a-42fd204c8ef1/dfbc2cc0-8da8-4c90-bf91-0869409643b2",
                      "nodeDisplayOption": "description",
                      "applyInputsToFlow": false
                    }
                  ]
                },
                {
                  "channel": {
                    "id": "SMS",
                    "type": "channel",
                    "label": "SMS",
                    "description": "Text messaging"
                  },
                  "flowData": [
                    {
                      "id": "55cfe1f8-2ab6-4d15-a875-4ba29b2d8413",
                      "flow": [
                        {
                          "id": "523522b3-0991-4075-9e7b-b73104c596e1",
                          "label": "default",
                          "order": 1,
                          "toNode": "addPoint",
                          "description": "Start Experience",
                          "type": "flowCondition"
                        }
                      ],
                      "type": "node",
                      "label": "Start",
                      "nodeType": "startPoint",
                      "description": "Pattern Flow Start",
                      "parent": "10690/10690/SubFlow1/Subflow1",
                      "parentId": "e9d487ec-54be-456a-9fc4-7e8cad3824db/46c2ec01-38b2-4189-bba2-04e2d7a6e521/1e45d2f8-e8a9-476f-b82a-42fd204c8ef1/dfbc2cc0-8da8-4c90-bf91-0869409643b2",
                      "nodeDisplayOption": "description",
                      "applyInputsToFlow": false
                    }
                  ]
                }
              ],
              "label": "Subflow1",
              "description": "This is first Subflow description",
              "parent": "10690/10690/SubFlow1",
              "parentId": "e9d487ec-54be-456a-9fc4-7e8cad3824db/46c2ec01-38b2-4189-bba2-04e2d7a6e521/1e45d2f8-e8a9-476f-b82a-42fd204c8ef1",
              "subflows": [],
              "type": "subFlow"
            }
          ],
          "type": "subFlow"
        }
      ],
      "mapper": [],
      "description": ""
    }
  ],
  "templates": {
    "defaultOpenTemplate": {
      "id": "defaultOpenTemplate",
      "label": "DefaultOpenTemplate",
      "hasPre": true,
      "hasPost": true,
      "hasRepair": true,
      "description": "This is the default open template.",
      "templateType": "openQuestion",
      "channelConditions": [
        {
          "flow": [],
          "input": {
            "models": []
          },
          "output": [],
          "channelId": "IVR"
        },
        {
          "flow": [],
          "input": {
            "models": []
          },
          "output": [],
          "channelId": "RWC"
        },
        {
          "flow": [],
          "input": {
            "models": []
          },
          "output": [],
          "channelId": "SMS"
        },
        {
          "flow": [],
          "input": {
            "models": []
          },
          "output": [],
          "channelId": "App"
        },
        {
          "flow": [],
          "input": {
            "models": []
          },
          "output": [],
          "channelId": "rSMS"
        },
        {
          "flow": [],
          "input": {
            "models": []
          },
          "output": [],
          "channelId": "VoIP"
        }
      ]
    },
    "defaultClosedTemplate": {
      "id": "defaultClosedTemplate",
      "label": "DefaultClosedTemplate",
      "hasPre": true,
      "hasPost": true,
      "hasRepair": true,
      "description": "This is the default closed template.",
      "templateType": "closedQuestion",
      "channelConditions": [
        {
          "flow": [],
          "input": {
            "models": []
          },
          "output": [],
          "channelId": "IVR"
        },
        {
          "flow": [],
          "input": {
            "models": []
          },
          "output": [],
          "channelId": "RWC"
        },
        {
          "flow": [],
          "input": {
            "models": []
          },
          "output": [],
          "channelId": "SMS"
        },
        {
          "flow": [],
          "input": {
            "models": []
          },
          "output": [],
          "channelId": "App"
        },
        {
          "flow": [],
          "input": {
            "models": []
          },
          "output": [],
          "channelId": "rSMS"
        },
        {
          "flow": [],
          "input": {
            "models": []
          },
          "output": [],
          "channelId": "VoIP"
        }
      ]
    },
    "defaultPromptTemplate": {
      "id": "defaultPromptTemplate",
      "label": "DefaultPromptTemplate",
      "hasPre": true,
      "hasPost": true,
      "hasRepair": true,
      "description": "This is the default prompt template.",
      "templateType": "prompt",
      "channelConditions": [
        {
          "flow": [],
          "input": {
            "models": []
          },
          "output": [],
          "channelId": "IVR"
        },
        {
          "flow": [],
          "input": {
            "models": []
          },
          "output": [],
          "channelId": "RWC"
        },
        {
          "flow": [],
          "input": {
            "models": []
          },
          "output": [],
          "channelId": "SMS"
        },
        {
          "flow": [],
          "input": {
            "models": []
          },
          "output": [],
          "channelId": "App"
        },
        {
          "flow": [],
          "input": {
            "models": []
          },
          "output": [],
          "channelId": "rSMS"
        },
        {
          "flow": [],
          "input": {
            "models": []
          },
          "output": [],
          "channelId": "VoIP"
        }
      ]
    },
    "YesNoTemplateId": {
      "label": "YesNoQuestion",
      "description": "This is the default ClosedQuestion template",
      "templateType": "closedQuestion",
      "id": "YesNoTemplateId",
      "channelConditions": [
        {
          "channelId": "IVR",
          "output": [],
          "input": {
            "models": [
              {
                "label": "Yes",
                "type": "inputCondition",
                "containsPii": false,
                "id": "a9d0b1c4-d9df-4239-8a58-c9baf2b671d3",
                "description": "positive user response",
                "inputType": "Matcher",
                "parser": "yes, yeah, yah"
              },
              {
                "label": "No",
                "type": "inputCondition",
                "containsPii": false,
                "id": "9c20bb6c-c822-487d-850d-3f667a73eb15",
                "description": "negative user response",
                "inputType": "Matcher",
                "parser": "no, nope, nah"
              }
            ]
          },
          "flow": []
        },
        {
          "channelId": "RWC",
          "output": [],
          "input": {
            "models": [
              {
                "label": "Yes",
                "type": "inputCondition",
                "containsPii": false,
                "id": "7d59c770-994e-448e-9c55-5202722f7f2c",
                "description": "positive user response",
                "inputType": "Matcher",
                "parser": "yes, yeah, yah"
              },
              {
                "label": "No",
                "type": "inputCondition",
                "containsPii": false,
                "id": "0e5f8e08-98c6-41c8-919c-df54a21e1639",
                "description": "negative user response",
                "inputType": "Matcher",
                "parser": "no, nope, nah"
              }
            ]
          },
          "flow": []
        },
        {
          "channelId": "SMS",
          "output": [],
          "input": {
            "models": [
              {
                "label": "Yes",
                "type": "inputCondition",
                "containsPii": false,
                "id": "2b82554e-26ce-47dc-8152-81d55ccad6ed",
                "description": "positive user response",
                "inputType": "Matcher",
                "parser": "yes, yeah, yah"
              },
              {
                "label": "No",
                "type": "inputCondition",
                "containsPii": false,
                "id": "9da227c7-5349-477a-883e-fc4d86548ed4",
                "description": "negative user response",
                "inputType": "Matcher",
                "parser": "no, nope, nah"
              }
            ]
          },
          "flow": []
        },
        {
          "channelId": "App",
          "output": [],
          "input": {
            "models": []
          },
          "flow": []
        },
        {
          "channelId": "rSMS",
          "output": [],
          "input": {
            "models": [
              {
                "label": "Yes",
                "type": "inputCondition",
                "containsPii": false,
                "id": "95ad129a-d67d-411d-95ac-cd38d3545394",
                "description": "positive user response",
                "inputType": "Matcher",
                "parser": "yes, yeah, yah"
              },
              {
                "label": "No",
                "type": "inputCondition",
                "containsPii": false,
                "id": "b6ed43bb-4711-4c8b-8c74-9851f04b322e",
                "description": "negative user response",
                "inputType": "Matcher",
                "parser": "no, nope, nah"
              }
            ]
          },
          "flow": []
        },
        {
          "channelId": "VoIP",
          "output": [],
          "input": {
            "models": [
              {
                "label": "Yes",
                "type": "inputCondition",
                "containsPii": false,
                "id": "583646be-fa6a-468d-ba0c-2bb6fff3471e",
                "description": "positive user response",
                "inputType": "Matcher",
                "parser": "yes, yeah, yah"
              },
              {
                "label": "No",
                "type": "inputCondition",
                "containsPii": false,
                "id": "0cbce3bd-c667-4319-bd57-944b4c4635ec",
                "description": "negative user response",
                "inputType": "Matcher",
                "parser": "no, nope, nah"
              }
            ]
          },
          "flow": []
        }
      ]
    }
  },
  "description": "",
  "projectType": "None",
  "outcomesBaseline": [],
  "projectObjectVersion": 1,
  "parent": "",
  "parentId": "",
  "destinationPdes": [],
  "cards": {},
  "globalRepairRules": [
    {
      "label": "Out of Context",
      "description": "Out of context response are when the NLU is unable to classify the user's input. The user is asked to repeat.",
      "id": "OOCRule",
      "repairType": "outOfContext",
      "numberOfAttempts": 2,
      "outcome": "fallback"
    },
    {
      "label": "No Response",
      "description": "No response is when the user does not provide any input. The system will reprompt the user to provide a response",
      "id": "NRRule",
      "repairType": "noResponse",
      "numberOfAttempts": 2,
      "outcome": "fallback"
    },
    {
      "label": "Agent Request",
      "id": "ARRule",
      "description": "User requests Agent Transfer will trigger an Escalate flow",
      "repairType": "agentRequest",
      "numberOfAttempts": 1,
      "outcome": "escalate"
    },
    {
      "label": "Maximum Repair before Fallback",
      "id": "MRBFrule",
      "description": "Total number of repairs before triggering a fallback action. Fallback should be offering another channel or escalating to an agent",
      "repairType": "maximum",
      "numberOfAttempts": 3,
      "outcome": "fallback"
    }
  ]
}
