{
  "type": "project",
  "label": "11079",
  "outcomes": [
    {
      "id": "61f9862c-57f5-43a1-aad0-61a045cf0dcc",
      "type": "outcome",
      "color": "#8FBCFF",
      "label": "HITL",
      "reasons": [],
      "percentage": 33,
      "description": "Human in the Loop",
      "outcomeType": "Project",
      "outcomeValue": "Neutral"
    },
    {
      "id": "670ee6c0-efe3-470d-b14c-68de34ce312c",
      "type": "outcome",
      "color": "#FFBFCB",
      "label": "Abandon",
      "reasons": [],
      "percentage": 33,
      "description": "User exits system without completion point.",
      "outcomeType": "Project",
      "outcomeValue": "Negative"
    },
    {
      "id": "726aebcc-f9e3-48a6-943f-e7302fefd6ac",
      "type": "outcome",
      "color": "#FFED8F",
      "label": "Contained",
      "reasons": [],
      "percentage": 33,
      "description": "User completes task without Human Assistance, Golden Call.",
      "outcomeType": "Project",
      "outcomeValue": "Positive"
    },
    {
      "id": "escalate",
      "label": "Escalate",
      "description": "User is moved to Global Agent Transfer pattern, passing along flow and context.",
      "destinationPattern": "",
      "outcomeType": "Global",
      "outcomeValue": "Neutral",
      "type": "outcome",
      "color": "#8FBCFF"
    },
    {
      "id": "fallback",
      "label": "Fallback",
      "description": "If user is stuck in n or more repairs on the voice channel. Offer alternate channel if available, or switch to easier input.",
      "destinationPattern": "",
      "outcomeType": "Global",
      "outcomeValue": "Neutral",
      "type": "outcome",
      "color": "#EBBFFF"
    }
  ],
  "patterns": [
    {
      "label": "11079",
      "id": "8e5a2c97-d1b5-495b-8676-0d6494073e06",
      "parent": "11079",
      "parentId": "0a574812-40ee-42f2-88d9-d20d2dd28b5f",
      "patternType": "Inbound",
      "nodeType": "pattern",
      "type": "pattern",
      "channels": [
        {
          "id": "IVR",
          "type": "channel",
          "label": "IVR",
          "description": "Voice over the phone"
        },
        {
          "id": "RWC",
          "type": "channel",
          "label": "RWC",
          "description": "Rich webchat UI"
        },
        {
          "id": "SMS",
          "type": "channel",
          "label": "SMS",
          "description": "Text messaging"
        }
      ],
      "flowData": [
        {
          "id": "bc0a0800-db04-4e23-a168-9f2548e5c778",
          "flow": [
            {
              "id": "bd9c205a-e77a-454b-b6d6-11805e0f2512",
              "type": "flowCondition",
              "label": "subflow1",
              "order": 1,
              "toNode": "SubFlow1",
              "description": "This is first SubFlow link description",
              "gotoNodeType": "normal"
            }
          ],
          "type": "node",
          "label": "Start",
          "parent": "11079/11079",
          "nodeType": "startPoint",
          "parentId": "0a574812-40ee-42f2-88d9-d20d2dd28b5f/8e5a2c97-d1b5-495b-8676-0d6494073e06",
          "description": "Pattern Flow Start",
          "applyInputsToFlow": false,
          "nodeDisplayOption": "description"
        },
        {
          "id": "87161b75-c902-4666-a2b7-c56b0e45c599",
          "flow": [
            {
              "label": "default",
              "order": 1,
              "linkType": "down",
              "id": "cc82e3c8-c707-4034-a97f-75b933ad4757",
              "toNode": "addPoint",
              "type": "flowCondition"
            },
            {
              "label": "routermenu1",
              "order": 2,
              "toNode": "RouterMenu1",
              "linkType": "down",
              "description": "This is first RouterMenu link description",
              "gotoNodeType": "normal",
              "id": "1bfccb0a-6fb0-42b2-8cf2-1d4e7b7871b6",
              "type": "flowCondition"
            },
            {
              "label": "routermenu2",
              "order": 3,
              "toNode": "RouterMenu2",
              "linkType": "down",
              "description": "This is second RouterMenu link description",
              "gotoNodeType": "normal",
              "id": "c917ab75-e4b7-40b5-97c1-3b553005df4e",
              "type": "flowCondition"
            }
          ],
          "type": "node",
          "label": "SubFlow1",
          "nodeType": "subFlow",
          "subflowId": "88bda5e1-a754-4cd8-86ac-084b76f482e3",
          "containsPii": false,
          "description": "This is first SubFlow description",
          "nodeDisplayOption": "description",
          "parent": "11079/11079",
          "parentId": "0a574812-40ee-42f2-88d9-d20d2dd28b5f/8e5a2c97-d1b5-495b-8676-0d6494073e06",
          "applyInputsToFlow": false
        },
        {
          "id": "8747b802-bf9a-4558-a991-b172d3565b87",
          "flow": [
            {
              "label": "default",
              "order": 1,
              "linkType": "down",
              "id": "3a2cbbc3-55b5-49fd-a1c9-da586283e520",
              "toNode": "addPoint",
              "type": "flowCondition"
            }
          ],
          "type": "node",
          "label": "RouterMenu1",
          "output": [
            {
              "id": "dee19ecc-90a6-42f6-a5bb-036bd6b03d39",
              "type": "outputCondition",
              "label": "default",
              "content": [
                {
                  "id": "467accea-9289-40be-8d50-a319820ca1dd",
                  "value": "What can I do for you today?"
                }
              ],
              "description": "",
              "conditionType": "primary"
            }
          ],
          "parent": "11079/11079",
          "skills": [],
          "channels": [],
          "nodeType": "routerMenu",
          "parentId": "0a574812-40ee-42f2-88d9-d20d2dd28b5f/8e5a2c97-d1b5-495b-8676-0d6494073e06",
          "description": "This is first RouterMenu description",
          "nodeDisplayOption": "description",
          "applyInputsToFlow": false
        },
        {
          "id": "2092fa4f-ff99-4d68-8e02-e50dae55784a",
          "flow": [
            {
              "label": "gotolink",
              "order": 1,
              "toNode": "SubFlow1",
              "linkType": "down",
              "description": "",
              "gotoNodeType": "gotoLink",
              "id": "c125c59b-964f-4837-947f-ced065babe73",
              "type": "flowCondition"
            }
          ],
          "type": "node",
          "label": "RouterMenu2",
          "output": [
            {
              "id": "af462db0-d1dc-4c34-846f-f2f11dbd0f0d",
              "type": "outputCondition",
              "label": "default",
              "content": [
                {
                  "id": "c59c73ad-d6b6-43b5-b75c-40dd446c646d",
                  "value": "What can I do for you today?"
                }
              ],
              "description": "",
              "conditionType": "primary"
            }
          ],
          "parent": "11079/11079",
          "skills": [],
          "channels": [],
          "nodeType": "routerMenu",
          "parentId": "0a574812-40ee-42f2-88d9-d20d2dd28b5f/8e5a2c97-d1b5-495b-8676-0d6494073e06",
          "description": "This is second RouterMenu description",
          "nodeDisplayOption": "description",
          "applyInputsToFlow": false
        }
      ],
      "entities": [],
      "entityGroups": [
        {
          "id": "51eb4693-99e4-4cf3-959c-fd2570974b7c",
          "type": "entityGroup",
          "label": "defaultEntityGroup",
          "dependsOn": [],
          "primaryKey": "default",
          "description": "defaultEntityGroup",
          "sharedEndPoint": false
        }
      ],
      "outcomes": [
        {
          "id": "61f9862c-57f5-43a1-aad0-61a045cf0dcc",
          "type": "outcome",
          "color": "#8FBCFF",
          "label": "HITL",
          "reasons": [],
          "percentage": 33,
          "description": "Human in the Loop",
          "outcomeType": "Project",
          "outcomeValue": "Neutral"
        },
        {
          "id": "670ee6c0-efe3-470d-b14c-68de34ce312c",
          "type": "outcome",
          "color": "#FFBFCB",
          "label": "Abandon",
          "reasons": [],
          "percentage": 33,
          "description": "User exits system without completion point.",
          "outcomeType": "Project",
          "outcomeValue": "Negative"
        },
        {
          "id": "726aebcc-f9e3-48a6-943f-e7302fefd6ac",
          "type": "outcome",
          "color": "#FFED8F",
          "label": "Contained",
          "reasons": [],
          "percentage": 33,
          "description": "User completes task without Human Assistance, Golden Call.",
          "outcomeType": "Project",
          "outcomeValue": "Positive"
        }
      ],
      "subflows": [
        {
          "id": "88bda5e1-a754-4cd8-86ac-084b76f482e3",
          "flowDataSet": [
            {
              "channel": {
                "id": "IVR",
                "type": "channel",
                "label": "IVR",
                "description": "Voice over the phone"
              },
              "flowData": [
                {
                  "id": "54813006-656e-4a2b-ab93-2d327ce6a404",
                  "flow": [
                    {
                      "id": "eb403159-d346-4667-bbd3-538958525283",
                      "label": "default",
                      "order": 1,
                      "toNode": "addPoint",
                      "description": "Start Experience",
                      "type": "flowCondition"
                    }
                  ],
                  "type": "node",
                  "label": "Start",
                  "nodeType": "startPoint",
                  "description": "Pattern Flow Start",
                  "parent": "11079/11079/SubFlow1",
                  "parentId": "0a574812-40ee-42f2-88d9-d20d2dd28b5f/8e5a2c97-d1b5-495b-8676-0d6494073e06/88bda5e1-a754-4cd8-86ac-084b76f482e3",
                  "nodeDisplayOption": "description",
                  "applyInputsToFlow": false
                }
              ]
            },
            {
              "channel": {
                "id": "RWC",
                "type": "channel",
                "label": "RWC",
                "description": "Rich webchat UI"
              },
              "flowData": [
                {
                  "id": "ea3078a5-1c43-4dce-8ed8-d6044f2d88ee",
                  "flow": [
                    {
                      "id": "d2f7d2bd-497b-4e31-8d58-4c19f01396c1",
                      "label": "default",
                      "order": 1,
                      "toNode": "addPoint",
                      "description": "Start Experience",
                      "type": "flowCondition"
                    }
                  ],
                  "type": "node",
                  "label": "Start",
                  "nodeType": "startPoint",
                  "description": "Pattern Flow Start",
                  "parent": "11079/11079/SubFlow1",
                  "parentId": "0a574812-40ee-42f2-88d9-d20d2dd28b5f/8e5a2c97-d1b5-495b-8676-0d6494073e06/88bda5e1-a754-4cd8-86ac-084b76f482e3",
                  "nodeDisplayOption": "description",
                  "applyInputsToFlow": false
                }
              ]
            },
            {
              "channel": {
                "id": "SMS",
                "type": "channel",
                "label": "SMS",
                "description": "Text messaging"
              },
              "flowData": [
                {
                  "id": "6240978c-a028-4af9-b3e7-394598542275",
                  "flow": [
                    {
                      "id": "8b44905e-e5ab-4901-ad4f-6b1d79fb1bbb",
                      "label": "default",
                      "order": 1,
                      "toNode": "addPoint",
                      "description": "Start Experience",
                      "type": "flowCondition"
                    }
                  ],
                  "type": "node",
                  "label": "Start",
                  "nodeType": "startPoint",
                  "description": "Pattern Flow Start",
                  "parent": "11079/11079/SubFlow1",
                  "parentId": "0a574812-40ee-42f2-88d9-d20d2dd28b5f/8e5a2c97-d1b5-495b-8676-0d6494073e06/88bda5e1-a754-4cd8-86ac-084b76f482e3",
                  "nodeDisplayOption": "description",
                  "applyInputsToFlow": false
                }
              ]
            }
          ],
          "label": "SubFlow1",
          "description": "This is first SubFlow description",
          "parent": "11079/11079",
          "parentId": "0a574812-40ee-42f2-88d9-d20d2dd28b5f/8e5a2c97-d1b5-495b-8676-0d6494073e06",
          "subflows": [],
          "type": "subFlow"
        }
      ],
      "mapper": [],
      "description": ""
    }
  ],
  "templates": {
    "defaultOpenTemplate": {
      "id": "defaultOpenTemplate",
      "label": "DefaultOpenTemplate",
      "hasPre": true,
      "hasPost": true,
      "hasRepair": true,
      "description": "This is the default open template.",
      "templateType": "openQuestion",
      "channelConditions": [
        {
          "flow": [],
          "input": {
            "models": []
          },
          "output": [],
          "channelId": "IVR"
        },
        {
          "flow": [],
          "input": {
            "models": []
          },
          "output": [],
          "channelId": "RWC"
        },
        {
          "flow": [],
          "input": {
            "models": []
          },
          "output": [],
          "channelId": "SMS"
        },
        {
          "flow": [],
          "input": {
            "models": []
          },
          "output": [],
          "channelId": "App"
        },
        {
          "flow": [],
          "input": {
            "models": []
          },
          "output": [],
          "channelId": "rSMS"
        },
        {
          "flow": [],
          "input": {
            "models": []
          },
          "output": [],
          "channelId": "VoIP"
        }
      ]
    },
    "defaultClosedTemplate": {
      "id": "defaultClosedTemplate",
      "label": "DefaultClosedTemplate",
      "hasPre": true,
      "hasPost": true,
      "hasRepair": true,
      "description": "This is the default closed template.",
      "templateType": "closedQuestion",
      "channelConditions": [
        {
          "flow": [],
          "input": {
            "models": []
          },
          "output": [],
          "channelId": "IVR"
        },
        {
          "flow": [],
          "input": {
            "models": []
          },
          "output": [],
          "channelId": "RWC"
        },
        {
          "flow": [],
          "input": {
            "models": []
          },
          "output": [],
          "channelId": "SMS"
        },
        {
          "flow": [],
          "input": {
            "models": []
          },
          "output": [],
          "channelId": "App"
        },
        {
          "flow": [],
          "input": {
            "models": []
          },
          "output": [],
          "channelId": "rSMS"
        },
        {
          "flow": [],
          "input": {
            "models": []
          },
          "output": [],
          "channelId": "VoIP"
        }
      ]
    },
    "defaultPromptTemplate": {
      "id": "defaultPromptTemplate",
      "label": "DefaultPromptTemplate",
      "hasPre": true,
      "hasPost": true,
      "hasRepair": true,
      "description": "This is the default prompt template.",
      "templateType": "prompt",
      "channelConditions": [
        {
          "flow": [],
          "input": {
            "models": []
          },
          "output": [],
          "channelId": "IVR"
        },
        {
          "flow": [],
          "input": {
            "models": []
          },
          "output": [],
          "channelId": "RWC"
        },
        {
          "flow": [],
          "input": {
            "models": []
          },
          "output": [],
          "channelId": "SMS"
        },
        {
          "flow": [],
          "input": {
            "models": []
          },
          "output": [],
          "channelId": "App"
        },
        {
          "flow": [],
          "input": {
            "models": []
          },
          "output": [],
          "channelId": "rSMS"
        },
        {
          "flow": [],
          "input": {
            "models": []
          },
          "output": [],
          "channelId": "VoIP"
        }
      ]
    },
    "YesNoTemplateId": {
      "label": "YesNoQuestion",
      "description": "This is the default ClosedQuestion template",
      "templateType": "closedQuestion",
      "id": "YesNoTemplateId",
      "channelConditions": [
        {
          "channelId": "IVR",
          "output": [],
          "input": {
            "models": [
              {
                "label": "Yes",
                "type": "inputCondition",
                "containsPii": false,
                "id": "082a24ad-67bb-492a-bf89-82fdb6626ce9",
                "description": "positive user response",
                "inputType": "Matcher",
                "parser": "yes, yeah, yah"
              },
              {
                "label": "No",
                "type": "inputCondition",
                "containsPii": false,
                "id": "26ffb463-f034-44a0-aeaa-415bdff17ad4",
                "description": "negative user response",
                "inputType": "Matcher",
                "parser": "no, nope, nah"
              }
            ]
          },
          "flow": []
        },
        {
          "channelId": "RWC",
          "output": [],
          "input": {
            "models": [
              {
                "label": "Yes",
                "type": "inputCondition",
                "containsPii": false,
                "id": "47636cec-2660-4ec9-b37d-95085ff1ac66",
                "description": "positive user response",
                "inputType": "Matcher",
                "parser": "yes, yeah, yah"
              },
              {
                "label": "No",
                "type": "inputCondition",
                "containsPii": false,
                "id": "6637eb4a-65b1-4005-8368-a5e326cc05ca",
                "description": "negative user response",
                "inputType": "Matcher",
                "parser": "no, nope, nah"
              }
            ]
          },
          "flow": []
        },
        {
          "channelId": "SMS",
          "output": [],
          "input": {
            "models": [
              {
                "label": "Yes",
                "type": "inputCondition",
                "containsPii": false,
                "id": "aebb0e52-3bd8-4c1c-b56b-fd08a31f6710",
                "description": "positive user response",
                "inputType": "Matcher",
                "parser": "yes, yeah, yah"
              },
              {
                "label": "No",
                "type": "inputCondition",
                "containsPii": false,
                "id": "47fdd55a-154b-472f-b734-89cd8330a300",
                "description": "negative user response",
                "inputType": "Matcher",
                "parser": "no, nope, nah"
              }
            ]
          },
          "flow": []
        },
        {
          "channelId": "App",
          "output": [],
          "input": {
            "models": []
          },
          "flow": []
        },
        {
          "channelId": "rSMS",
          "output": [],
          "input": {
            "models": [
              {
                "label": "Yes",
                "type": "inputCondition",
                "containsPii": false,
                "id": "1813303a-ff8d-44d7-ba7c-fb7357c9a4d5",
                "description": "positive user response",
                "inputType": "Matcher",
                "parser": "yes, yeah, yah"
              },
              {
                "label": "No",
                "type": "inputCondition",
                "containsPii": false,
                "id": "22551de3-5eb5-4fe2-860f-6b5e559fc2bb",
                "description": "negative user response",
                "inputType": "Matcher",
                "parser": "no, nope, nah"
              }
            ]
          },
          "flow": []
        },
        {
          "channelId": "VoIP",
          "output": [],
          "input": {
            "models": [
              {
                "label": "Yes",
                "type": "inputCondition",
                "containsPii": false,
                "id": "6d3aac9d-e0da-422e-807a-18a833b32a56",
                "description": "positive user response",
                "inputType": "Matcher",
                "parser": "yes, yeah, yah"
              },
              {
                "label": "No",
                "type": "inputCondition",
                "containsPii": false,
                "id": "b29a4f31-8be8-419f-b891-5d08371564ef",
                "description": "negative user response",
                "inputType": "Matcher",
                "parser": "no, nope, nah"
              }
            ]
          },
          "flow": []
        }
      ]
    }
  },
  "description": "",
  "projectType": "None",
  "outcomesBaseline": [],
  "projectObjectVersion": 1,
  "parent": "",
  "parentId": "",
  "destinationPdes": [],
  "cards": {},
  "globalRepairRules": [
    {
      "label": "Out of Context",
      "description": "Out of context response are when the NLU is unable to classify the user's input. The user is asked to repeat.",
      "id": "OOCRule",
      "repairType": "outOfContext",
      "numberOfAttempts": 2,
      "outcome": "fallback"
    },
    {
      "label": "No Response",
      "description": "No response is when the user does not provide any input. The system will reprompt the user to provide a response",
      "id": "NRRule",
      "repairType": "noResponse",
      "numberOfAttempts": 2,
      "outcome": "fallback"
    },
    {
      "label": "Agent Request",
      "id": "ARRule",
      "description": "User requests Agent Transfer will trigger an Escalate flow",
      "repairType": "agentRequest",
      "numberOfAttempts": 1,
      "outcome": "escalate"
    },
    {
      "label": "Maximum Repair before Fallback",
      "id": "MRBFrule",
      "description": "Total number of repairs before triggering a fallback action. Fallback should be offering another channel or escalating to an agent",
      "repairType": "maximum",
      "numberOfAttempts": 3,
      "outcome": "fallback"
    }
  ]
}
