{
  "type": "project",
  "cards": {},
  "label": "13879",
  "parent": "",
  "outcomes": [
    {
      "id": "escalate",
      "type": "outcome",
      "color": "#8FBCFF",
      "label": "Escalate",
      "description": "User is moved to Global Agent Transfer pattern, passing along flow and context.",
      "outcomeType": "Global",
      "outcomeValue": "Neutral",
      "destinationPattern": ""
    },
    {
      "id": "fallback",
      "type": "outcome",
      "color": "#EBBFFF",
      "label": "Fallback",
      "description": "If user is stuck in n or more repairs on the voice channel. Offer alternate channel if available, or switch to easier input.",
      "outcomeType": "Global",
      "outcomeValue": "Neutral",
      "destinationPattern": ""
    },
    {
      "id": "7af128ac-f9cb-4482-acbd-c92bc51fcb1a",
      "type": "outcome",
      "color": "#8FBCFF",
      "label": "HITL",
      "reasons": [],
      "percentage": 33,
      "description": "Human in the Loop",
      "outcomeType": "Project",
      "outcomeValue": "Neutral"
    },
    {
      "id": "a49a994a-ed94-421d-9dca-f8529508fb10",
      "type": "outcome",
      "color": "#FFBFCB",
      "label": "Abandon",
      "reasons": [],
      "percentage": 33,
      "description": "User exits system without completion point.",
      "outcomeType": "Project",
      "outcomeValue": "Negative"
    },
    {
      "id": "ad2c9df2-733a-436f-a5cf-5319f60cd205",
      "type": "outcome",
      "color": "#FFED8F",
      "label": "Contained",
      "reasons": [],
      "percentage": 33,
      "description": "User completes task without Human Assistance, Golden Call.",
      "outcomeType": "Project",
      "outcomeValue": "Positive"
    }
  ],
  "parentId": "",
  "patterns": [
    {
      "id": "28d5d7cd-a68b-4efa-af90-0a822f137af6",
      "type": "pattern",
      "label": "13879",
      "mapper": [],
      "parent": "13879",
      "channels": [
        {
          "id": "IVR",
          "type": "channel",
          "label": "IVR",
          "description": "Voice over the phone"
        }
      ],
      "entities": [],
      "flowData": [
        {
          "id": "c637c4b0-46e2-4f11-94d2-953b3e090530",
          "flow": [
            {
              "id": "94d3ee8c-a13e-4d54-b64e-32a0a11f2427",
              "type": "flowCondition",
              "label": "subflow1",
              "order": 1,
              "toNode": "SubFlow1",
              "description": "This is first SubFlow link description",
              "gotoNodeType": "normal"
            }
          ],
          "type": "node",
          "label": "Start",
          "parent": "13879/13879",
          "nodeType": "startPoint",
          "parentId": "12d7587b-49bf-4571-86af-54bdd1bd6019/ba430085-f7c0-4cb8-9325-34fbbd601ef5",
          "description": "Pattern Flow Start",
          "applyInputsToFlow": false,
          "nodeDisplayOption": "description"
        },
        {
          "id": "09715322-d553-47f3-9b8c-eb72e2008b0f",
          "flow": [
            {
              "id": "aab2256a-9f3a-4837-a027-46ca3017bddf",
              "type": "flowCondition",
              "label": "Flow10",
              "toNode": "Escalate",
              "linkType": true,
              "description": "",
              "gotoNodeType": "outcomePoint"
            },
            {
              "id": "f3117af8-c19b-41ec-a91b-5b300f30481d",
              "type": "flowCondition",
              "label": "Flow11",
              "toNode": "Escalate",
              "linkType": true,
              "description": "",
              "gotoNodeType": "outcomePoint"
            }
          ],
          "type": "node",
          "label": "SubFlow1",
          "parent": "13879/13879",
          "nodeType": "subFlow",
          "parentId": "12d7587b-49bf-4571-86af-54bdd1bd6019/28d5d7cd-a68b-4efa-af90-0a822f137af6",
          "subflowId": "9c8879b2-4d4d-4115-8919-a466e98f22b1",
          "containsPii": false,
          "description": "This is first SubFlow description",
          "applyInputsToFlow": false,
          "nodeDisplayOption": "description"
        }
      ],
      "nodeType": "pattern",
      "outcomes": [
        {
          "id": "ad2c9df2-733a-436f-a5cf-5319f60cd205",
          "type": "outcome",
          "color": "#FFED8F",
          "label": "Contained",
          "reasons": [],
          "percentage": 33,
          "description": "User completes task without Human Assistance, Golden Call.",
          "outcomeType": "Project",
          "outcomeValue": "Positive"
        }
      ],
      "parentId": "12d7587b-49bf-4571-86af-54bdd1bd6019",
      "subflows": [
        {
          "id": "6aa17d7e-0637-470e-843f-7d1abc00d016",
          "type": "subFlow",
          "label": "Subflow1",
          "parent": "13879/13879",
          "parentId": "12d7587b-49bf-4571-86af-54bdd1bd6019/ba430085-f7c0-4cb8-9325-34fbbd601ef5",
          "subflows": [],
          "description": "This is first Subflow description",
          "flowDataSet": [
            {
              "channel": {
                "id": "IVR",
                "type": "channel",
                "label": "IVR",
                "description": "Voice over the phone"
              },
              "flowData": [
                {
                  "id": "c155e1de-1a8a-418c-877c-c2f9275ad7c9",
                  "flow": [
                    {
                      "id": "82ff6aa8-9336-4e99-b2d6-15cd3ca4fe48",
                      "type": "flowCondition",
                      "label": "default",
                      "order": 1,
                      "toNode": "addPoint",
                      "description": "Start Experience"
                    }
                  ],
                  "type": "node",
                  "label": "Start",
                  "parent": "13879/13879/Subflow1",
                  "nodeType": "startPoint",
                  "parentId": "12d7587b-49bf-4571-86af-54bdd1bd6019/ba430085-f7c0-4cb8-9325-34fbbd601ef5/6aa17d7e-0637-470e-843f-7d1abc00d016",
                  "description": "Pattern Flow Start",
                  "applyInputsToFlow": false,
                  "nodeDisplayOption": "description"
                }
              ]
            }
          ]
        },
        {
          "id": "9c8879b2-4d4d-4115-8919-a466e98f22b1",
          "flowDataSet": [
            {
              "channel": {
                "id": "IVR",
                "type": "channel",
                "label": "IVR",
                "description": "Voice over the phone"
              },
              "flowData": [
                {
                  "id": "3b75000b-23f7-462b-932b-486615835f16",
                  "flow": [
                    {
                      "id": "bd2b20b3-3c27-4f6b-b5a2-04891a80e021",
                      "type": "flowCondition",
                      "label": "default",
                      "order": 1,
                      "toNode": "addPoint",
                      "description": "Start Experience"
                    }
                  ],
                  "type": "node",
                  "label": "Start",
                  "parent": "13879/13879/SubFlow1",
                  "nodeType": "startPoint",
                  "parentId": "12d7587b-49bf-4571-86af-54bdd1bd6019/28d5d7cd-a68b-4efa-af90-0a822f137af6/9c8879b2-4d4d-4115-8919-a466e98f22b1",
                  "description": "Pattern Flow Start",
                  "applyInputsToFlow": false,
                  "nodeDisplayOption": "description"
                }
              ]
            }
          ],
          "label": "SubFlow1",
          "description": "This is first SubFlow description",
          "parent": "13879/13879",
          "parentId": "12d7587b-49bf-4571-86af-54bdd1bd6019/28d5d7cd-a68b-4efa-af90-0a822f137af6",
          "subflows": [],
          "type": "subFlow"
        }
      ],
      "description": "",
      "patternType": "Inbound",
      "entityGroups": [
        {
          "id": "e3acd7ca-63f8-4a6c-b924-d7e45f3d9341",
          "type": "entityGroup",
          "label": "defaultEntityGroup",
          "dependsOn": [],
          "primaryKey": "default",
          "description": "defaultEntityGroup",
          "sharedEndPoint": false
        }
      ]
    }
  ],
  "templates": {
    "YesNoTemplateId": {
      "id": "YesNoTemplateId",
      "label": "YesNoQuestion",
      "description": "This is the default ClosedQuestion template",
      "templateType": "closedQuestion",
      "channelConditions": [
        {
          "flow": [],
          "input": {
            "models": [
              {
                "id": "a1e1f4ef-0927-41ae-845a-a4c1a302399a",
                "type": "inputCondition",
                "label": "Yes",
                "parser": "yes, yeah, yah",
                "inputType": "Matcher",
                "containsPii": false,
                "description": "positive user response"
              },
              {
                "id": "3d3e3364-cddd-4a5b-b768-79c9b93bad94",
                "type": "inputCondition",
                "label": "No",
                "parser": "no, nope, nah",
                "inputType": "Matcher",
                "containsPii": false,
                "description": "negative user response"
              }
            ]
          },
          "output": [],
          "channelId": "IVR"
        },
        {
          "flow": [],
          "input": {
            "models": [
              {
                "id": "5617be60-ffb3-4741-a109-aa53171e67ae",
                "type": "inputCondition",
                "label": "Yes",
                "parser": "yes, yeah, yah",
                "inputType": "Matcher",
                "containsPii": false,
                "description": "positive user response"
              },
              {
                "id": "3c77bd3a-9171-4149-b1bb-5936ce12589e",
                "type": "inputCondition",
                "label": "No",
                "parser": "no, nope, nah",
                "inputType": "Matcher",
                "containsPii": false,
                "description": "negative user response"
              }
            ]
          },
          "output": [],
          "channelId": "RWC"
        },
        {
          "flow": [],
          "input": {
            "models": [
              {
                "id": "f9156e00-3e62-49d7-b18f-bc872b0edde4",
                "type": "inputCondition",
                "label": "Yes",
                "parser": "yes, yeah, yah",
                "inputType": "Matcher",
                "containsPii": false,
                "description": "positive user response"
              },
              {
                "id": "6be785e0-54c7-40a2-868b-f05583d14107",
                "type": "inputCondition",
                "label": "No",
                "parser": "no, nope, nah",
                "inputType": "Matcher",
                "containsPii": false,
                "description": "negative user response"
              }
            ]
          },
          "output": [],
          "channelId": "SMS"
        },
        {
          "flow": [],
          "input": {
            "models": []
          },
          "output": [],
          "channelId": "App"
        },
        {
          "flow": [],
          "input": {
            "models": [
              {
                "id": "c9e7c9f3-8eb6-482c-88e4-ca7a3951fe90",
                "type": "inputCondition",
                "label": "Yes",
                "parser": "yes, yeah, yah",
                "inputType": "Matcher",
                "containsPii": false,
                "description": "positive user response"
              },
              {
                "id": "23c0262e-4c31-4185-a630-9033468802b0",
                "type": "inputCondition",
                "label": "No",
                "parser": "no, nope, nah",
                "inputType": "Matcher",
                "containsPii": false,
                "description": "negative user response"
              }
            ]
          },
          "output": [],
          "channelId": "rSMS"
        },
        {
          "flow": [],
          "input": {
            "models": [
              {
                "id": "b6a6331c-26d0-40f0-826d-15e02c208679",
                "type": "inputCondition",
                "label": "Yes",
                "parser": "yes, yeah, yah",
                "inputType": "Matcher",
                "containsPii": false,
                "description": "positive user response"
              },
              {
                "id": "5b36e5d0-7cf2-4a19-8f33-6e2fd5e5f73c",
                "type": "inputCondition",
                "label": "No",
                "parser": "no, nope, nah",
                "inputType": "Matcher",
                "containsPii": false,
                "description": "negative user response"
              }
            ]
          },
          "output": [],
          "channelId": "VoIP"
        }
      ],
      "hasPre": true,
      "hasPost": true,
      "hasRepair": true
    },
    "defaultOpenTemplate": {
      "id": "defaultOpenTemplate",
      "label": "DefaultOpenTemplate",
      "hasPre": true,
      "hasPost": true,
      "hasRepair": true,
      "description": "This is the default open template.",
      "templateType": "openQuestion",
      "channelConditions": [
        {
          "flow": [],
          "input": {
            "models": []
          },
          "output": [],
          "channelId": "IVR"
        },
        {
          "flow": [],
          "input": {
            "models": []
          },
          "output": [],
          "channelId": "RWC"
        },
        {
          "flow": [],
          "input": {
            "models": []
          },
          "output": [],
          "channelId": "SMS"
        },
        {
          "flow": [],
          "input": {
            "models": []
          },
          "output": [],
          "channelId": "App"
        },
        {
          "flow": [],
          "input": {
            "models": []
          },
          "output": [],
          "channelId": "rSMS"
        },
        {
          "flow": [],
          "input": {
            "models": []
          },
          "output": [],
          "channelId": "VoIP"
        }
      ]
    },
    "defaultClosedTemplate": {
      "id": "defaultClosedTemplate",
      "label": "DefaultClosedTemplate",
      "hasPre": true,
      "hasPost": true,
      "hasRepair": true,
      "description": "This is the default closed template.",
      "templateType": "closedQuestion",
      "channelConditions": [
        {
          "flow": [],
          "input": {
            "models": []
          },
          "output": [],
          "channelId": "IVR"
        },
        {
          "flow": [],
          "input": {
            "models": []
          },
          "output": [],
          "channelId": "RWC"
        },
        {
          "flow": [],
          "input": {
            "models": []
          },
          "output": [],
          "channelId": "SMS"
        },
        {
          "flow": [],
          "input": {
            "models": []
          },
          "output": [],
          "channelId": "App"
        },
        {
          "flow": [],
          "input": {
            "models": []
          },
          "output": [],
          "channelId": "rSMS"
        },
        {
          "flow": [],
          "input": {
            "models": []
          },
          "output": [],
          "channelId": "VoIP"
        }
      ]
    },
    "defaultPromptTemplate": {
      "id": "defaultPromptTemplate",
      "label": "DefaultPromptTemplate",
      "hasPre": true,
      "hasPost": true,
      "hasRepair": true,
      "description": "This is the default prompt template.",
      "templateType": "prompt",
      "channelConditions": [
        {
          "flow": [],
          "input": {
            "models": []
          },
          "output": [],
          "channelId": "IVR"
        },
        {
          "flow": [],
          "input": {
            "models": []
          },
          "output": [],
          "channelId": "RWC"
        },
        {
          "flow": [],
          "input": {
            "models": []
          },
          "output": [],
          "channelId": "SMS"
        },
        {
          "flow": [],
          "input": {
            "models": []
          },
          "output": [],
          "channelId": "App"
        },
        {
          "flow": [],
          "input": {
            "models": []
          },
          "output": [],
          "channelId": "rSMS"
        },
        {
          "flow": [],
          "input": {
            "models": []
          },
          "output": [],
          "channelId": "VoIP"
        }
      ]
    }
  },
  "description": "",
  "projectType": "None",
  "destinationPdes": [],
  "outcomesBaseline": [],
  "globalRepairRules": [
    {
      "id": "OOCRule",
      "label": "Out of Context",
      "outcome": "fallback",
      "repairType": "outOfContext",
      "description": "Out of context response are when the NLU is unable to classify the user's input. The user is asked to repeat.",
      "numberOfAttempts": 2
    },
    {
      "id": "NRRule",
      "label": "No Response",
      "outcome": "fallback",
      "repairType": "noResponse",
      "description": "No response is when the user does not provide any input. The system will reprompt the user to provide a response",
      "numberOfAttempts": 2
    },
    {
      "id": "ARRule",
      "label": "Agent Request",
      "outcome": "escalate",
      "repairType": "agentRequest",
      "description": "User requests Agent Transfer will trigger an Escalate flow",
      "numberOfAttempts": 1
    },
    {
      "id": "MRBFrule",
      "label": "Maximum Repair before Fallback",
      "outcome": "fallback",
      "repairType": "maximum",
      "description": "Total number of repairs before triggering a fallback action. Fallback should be offering another channel or escalating to an agent",
      "numberOfAttempts": 3
    }
  ],
  "projectObjectVersion": 1
}
