{
  "type": "project",
  "label": "Project2",
  "outcomes": [
    {
      "id": "6a7867e6-40ae-4173-9e0b-7415709332cf",
      "type": "outcome",
      "color": "#FFBFCB",
      "label": "Abandon",
      "reasons": [],
      "percentage": 33,
      "description": "User exits system without completion point.",
      "outcomeType": "Project",
      "outcomeValue": "Negative"
    },
    {
      "id": "ca30b5e1-acb3-4180-8704-8d5b78123c3c",
      "type": "outcome",
      "color": "#8FBCFF",
      "label": "HITL",
      "reasons": [],
      "percentage": 33,
      "description": "Human in the Loop",
      "outcomeType": "Project",
      "outcomeValue": "Neutral"
    },
    {
      "id": "de505d51-6b03-4ce2-b635-e04a2428e432",
      "type": "outcome",
      "color": "#FFED8F",
      "label": "Contained",
      "reasons": [],
      "percentage": 33,
      "description": "User completes task without Human Assistance, Golden Call.",
      "outcomeType": "Project",
      "outcomeValue": "Positive"
    },
    {
      "id": "escalate",
      "label": "Escalate",
      "description": "User is moved to Global Agent Transfer pattern, passing along flow and context.",
      "destinationPattern": "",
      "outcomeType": "Global",
      "outcomeValue": "Neutral",
      "type": "outcome",
      "color": "#8FBCFF"
    },
    {
      "id": "fallback",
      "label": "Fallback",
      "description": "If user is stuck in n or more repairs on the voice channel. Offer alternate channel if available, or switch to easier input.",
      "destinationPattern": "",
      "outcomeType": "Global",
      "outcomeValue": "Neutral",
      "type": "outcome",
      "color": "#EBBFFF"
    }
  ],
  "patterns": [
    {
      "id": "b7b5eb8d-ece7-4240-8f7b-a8b4aad66532",
      "type": "pattern",
      "label": "Project2Pattern",
      "mapper": [],
      "parent": "Project2",
      "channels": [
        {
          "id": "IVR",
          "type": "channel",
          "label": "IVR",
          "description": "Voice over the phone"
        },
        {
          "id": "RWC",
          "type": "channel",
          "label": "RWC",
          "description": "Rich webchat UI"
        },
        {
          "id": "SMS",
          "type": "channel",
          "label": "SMS",
          "description": "Text messaging"
        }
      ],
      "entities": [],
      "flowData": [
        {
          "id": "729695c2-269c-43ff-8bf4-84e111fae6e7",
          "flow": [
            {
              "id": "72ee4d90-0688-40f2-b74e-0dd7c6b5b230",
              "type": "flowCondition",
              "label": "subflow1",
              "order": 1,
              "toNode": "SubFlow1",
              "description": "This is first SubFlow link description",
              "gotoNodeType": "normal"
            }
          ],
          "type": "node",
          "label": "Start",
          "parent": "Project2/Project2Pattern",
          "nodeType": "startPoint",
          "parentId": "fdbaa204-ec7a-4c64-b6a5-038f77bc9115/b7b5eb8d-ece7-4240-8f7b-a8b4aad66532",
          "description": "Pattern Flow Start",
          "applyInputsToFlow": false,
          "nodeDisplayOption": "description"
        },
        {
          "id": "a411935f-3f60-42f8-8b65-cebc3f3cfb4c",
          "flow": [
            {
              "id": "6b521ace-7e77-42f9-84a0-edb03528fc5a",
              "type": "flowCondition",
              "label": "subflow2",
              "order": 1,
              "toNode": "SubFlow2",
              "linkType": "down",
              "description": "This is second SubFlow link description",
              "gotoNodeType": "normal"
            }
          ],
          "type": "node",
          "label": "SubFlow1",
          "parent": "Project2/Project2Pattern",
          "nodeType": "subFlow",
          "parentId": "fdbaa204-ec7a-4c64-b6a5-038f77bc9115/b7b5eb8d-ece7-4240-8f7b-a8b4aad66532",
          "subflowId": "236a4760-0d69-4260-87a2-348d389fa8db",
          "containsPii": false,
          "description": "This is first SubFlow description",
          "applyInputsToFlow": false,
          "nodeDisplayOption": "description"
        },
        {
          "id": "f968c0e3-8810-45e0-abd6-98e5300ee6fe",
          "flow": [
            {
              "id": "017cec86-cfa4-4e25-9ace-1ad11a800701",
              "type": "flowCondition",
              "label": "routermenu1",
              "order": 1,
              "toNode": "RouterMenu1",
              "linkType": "down",
              "description": "This is first RouterMenu link description",
              "gotoNodeType": "normal"
            },
            {
              "id": "69412b04-0641-4a4f-ae89-997146abbe47",
              "type": "flowCondition",
              "label": "subflow3",
              "order": 2,
              "toNode": "SubFlow3",
              "linkType": "down",
              "description": "This is second SubFlow link description",
              "gotoNodeType": "normal"
            }
          ],
          "type": "node",
          "label": "SubFlow2",
          "parent": "Project2/Project2Pattern",
          "nodeType": "subFlow",
          "parentId": "fdbaa204-ec7a-4c64-b6a5-038f77bc9115/b7b5eb8d-ece7-4240-8f7b-a8b4aad66532",
          "subflowId": "9390dccc-10db-444c-bc18-7430e52d73d3",
          "containsPii": false,
          "description": "This is second SubFlow description",
          "applyInputsToFlow": false,
          "nodeDisplayOption": "description"
        },
        {
          "id": "4687ddf5-3e2d-4250-970e-67541dace76b",
          "flow": [
            {
              "id": "9119fad3-08ff-4698-994b-62e7b529e38d",
              "type": "flowCondition",
              "label": "subflow4",
              "order": 1,
              "toNode": "SubFlow4",
              "linkType": "down",
              "description": "This is fourth SubFlow link description",
              "gotoNodeType": "normal"
            }
          ],
          "type": "node",
          "label": "RouterMenu1",
          "output": [
            {
              "id": "364f82ec-59d4-4d74-896c-fb016914cc8c",
              "type": "outputCondition",
              "label": "default",
              "content": [
                {
                  "id": "0e558141-ad83-4fa8-976c-ee49945c9a0f",
                  "value": "What can I do for you today?"
                }
              ],
              "description": "",
              "conditionType": "primary"
            }
          ],
          "parent": "Project2/Project2Pattern",
          "skills": [],
          "channels": [],
          "nodeType": "routerMenu",
          "parentId": "fdbaa204-ec7a-4c64-b6a5-038f77bc9115/b7b5eb8d-ece7-4240-8f7b-a8b4aad66532",
          "description": "This is first RouterMenu description",
          "applyInputsToFlow": false,
          "nodeDisplayOption": "description"
        },
        {
          "id": "c29e89a0-e3c1-4b69-a656-865b7250ccb7",
          "flow": [
            {
              "id": "bc1e0189-3024-4c30-b64d-93ac68f7bdd9",
              "type": "flowCondition",
              "label": "default",
              "order": 1,
              "toNode": "Abandon",
              "linkType": "down",
              "description": "",
              "gotoNodeType": "outcomePoint"
            },
            {
              "id": "74c3175a-ffbc-478a-b109-2cd0d470428c",
              "type": "flowCondition",
              "label": "subflow5",
              "order": 2,
              "toNode": "SubFlow5",
              "linkType": "down",
              "description": "This is fifth SubFlow link description",
              "gotoNodeType": "normal"
            }
          ],
          "type": "node",
          "label": "SubFlow3",
          "parent": "Project2/Project2Pattern",
          "nodeType": "subFlow",
          "parentId": "fdbaa204-ec7a-4c64-b6a5-038f77bc9115/b7b5eb8d-ece7-4240-8f7b-a8b4aad66532",
          "subflowId": "d7e0c13a-4941-4751-898a-4d8c1ee0db03",
          "containsPii": false,
          "description": "This is third SubFlow description",
          "applyInputsToFlow": false,
          "nodeDisplayOption": "description"
        },
        {
          "id": "392a1037-254b-437d-8e9a-87ae9b6d2a12",
          "flow": [
            {
              "id": "5b0bf656-3834-446d-b651-36e5115e2f0f",
              "type": "flowCondition",
              "label": "default",
              "order": 1,
              "toNode": "RouterMenu1",
              "linkType": "down",
              "description": "",
              "gotoNodeType": "gotoLink"
            },
            {
              "id": "ce6eeb75-7ac4-43a4-a845-2dc3700001c9",
              "type": "flowCondition",
              "label": "No",
              "order": 2,
              "toNode": "Contained",
              "linkType": "down",
              "description": "",
              "gotoNodeType": "outcomePoint"
            }
          ],
          "type": "node",
          "label": "SubFlow4",
          "parent": "Project2/Project2Pattern",
          "nodeType": "subFlow",
          "parentId": "fdbaa204-ec7a-4c64-b6a5-038f77bc9115/b7b5eb8d-ece7-4240-8f7b-a8b4aad66532",
          "subflowId": "3a977f98-4738-4ab4-b57b-c6bb3da0ec3c",
          "containsPii": false,
          "description": "This is fourth SubFlow description",
          "applyInputsToFlow": false,
          "nodeDisplayOption": "description"
        },
        {
          "id": "b097cfe7-1807-4dc6-96a9-04f4d8cf7a59",
          "flow": [
            {
              "id": "8375cdf2-5bf3-43d8-ab86-752e07ea4e20",
              "type": "flowCondition",
              "label": "RegisterUser",
              "order": 1,
              "toNode": "Escalate",
              "linkType": "down",
              "description": "",
              "gotoNodeType": "outcomePoint"
            }
          ],
          "type": "node",
          "label": "SubFlow5",
          "parent": "Project2/Project2Pattern",
          "nodeType": "subFlow",
          "parentId": "fdbaa204-ec7a-4c64-b6a5-038f77bc9115/b7b5eb8d-ece7-4240-8f7b-a8b4aad66532",
          "subflowId": "605812a0-b66d-4931-8351-220cc416d227",
          "containsPii": false,
          "description": "This is fifth SubFlow description",
          "applyInputsToFlow": false,
          "nodeDisplayOption": "description"
        }
      ],
      "nodeType": "pattern",
      "outcomes": [
        {
          "id": "6a7867e6-40ae-4173-9e0b-7415709332cf",
          "type": "outcome",
          "color": "#FFBFCB",
          "label": "Abandon",
          "reasons": [],
          "percentage": 33,
          "description": "User exits system without completion point.",
          "outcomeType": "Project",
          "outcomeValue": "Negative"
        },
        {
          "id": "ca30b5e1-acb3-4180-8704-8d5b78123c3c",
          "type": "outcome",
          "color": "#8FBCFF",
          "label": "HITL",
          "reasons": [],
          "percentage": 33,
          "description": "Human in the Loop",
          "outcomeType": "Project",
          "outcomeValue": "Neutral"
        },
        {
          "id": "de505d51-6b03-4ce2-b635-e04a2428e432",
          "type": "outcome",
          "color": "#FFED8F",
          "label": "Contained",
          "reasons": [],
          "percentage": 33,
          "description": "User completes task without Human Assistance, Golden Call.",
          "outcomeType": "Project",
          "outcomeValue": "Positive"
        }
      ],
      "parentId": "fdbaa204-ec7a-4c64-b6a5-038f77bc9115",
      "subflows": [
        {
          "id": "236a4760-0d69-4260-87a2-348d389fa8db",
          "type": "subFlow",
          "label": "SubFlow1",
          "parent": "Project2/Project2Pattern",
          "parentId": "fdbaa204-ec7a-4c64-b6a5-038f77bc9115/b7b5eb8d-ece7-4240-8f7b-a8b4aad66532",
          "subflows": [],
          "description": "This is first SubFlow description",
          "flowDataSet": [
            {
              "channel": {
                "id": "IVR",
                "type": "channel",
                "label": "IVR",
                "description": "Voice over the phone"
              },
              "flowData": [
                {
                  "id": "cbe5f47a-fef5-4112-a338-35b9fd3f7d47",
                  "flow": [
                    {
                      "id": "302188af-2355-4701-9fde-88dba0ca88d0",
                      "type": "flowCondition",
                      "label": "prompt1",
                      "order": 1,
                      "toNode": "Prompt1",
                      "description": "This is first Prompt link description",
                      "gotoNodeType": "normal"
                    }
                  ],
                  "type": "node",
                  "label": "Start",
                  "parent": "Project2/Project2Pattern/SubFlow1",
                  "nodeType": "startPoint",
                  "parentId": "fdbaa204-ec7a-4c64-b6a5-038f77bc9115/b7b5eb8d-ece7-4240-8f7b-a8b4aad66532/236a4760-0d69-4260-87a2-348d389fa8db",
                  "description": "Pattern Flow Start",
                  "applyInputsToFlow": false,
                  "nodeDisplayOption": "description"
                },
                {
                  "id": "0c2afc7a-4c1f-41cd-bca0-8b2be56de996",
                  "flow": [
                    {
                      "id": "0eefce02-1bd6-4dd2-b233-5a9d9c843bde",
                      "type": "flowCondition",
                      "label": "default",
                      "order": 1,
                      "toNode": "subflow2",
                      "linkType": "down",
                      "description": "",
                      "gotoNodeType": "endPoint"
                    }
                  ],
                  "type": "node",
                  "input": [],
                  "label": "Prompt1",
                  "output": [
                    {
                      "id": "9faaf552-6e09-416a-a5b9-b910417af5cb",
                      "type": "outputCondition",
                      "label": "Default",
                      "edited": true,
                      "content": [
                        {
                          "id": "aedfd3f3-b332-416e-ab70-a78e3db21545",
                          "value": "text",
                          "channel": "IVR",
                          "dynamic": false,
                          "contentType": "Prompt"
                        }
                      ],
                      "template": false,
                      "conditionType": "primary"
                    }
                  ],
                  "parent": "Project2/Project2Pattern/SubFlow1",
                  "nodeType": "prompt",
                  "parentId": "fdbaa204-ec7a-4c64-b6a5-038f77bc9115/b7b5eb8d-ece7-4240-8f7b-a8b4aad66532/236a4760-0d69-4260-87a2-348d389fa8db",
                  "nodeRules": {
                    "id": "05a185e7-187f-44b8-af7b-b6f108a17f1d",
                    "repairRules": [],
                    "useGlobalRepairs": true,
                    "useGlobalEscalate": true,
                    "useGlobalFallback": true
                  },
                  "templateId": "defaultPromptTemplate",
                  "containsPii": false,
                  "description": "This is first Prompt description",
                  "applyInputsToFlow": false,
                  "nodeDisplayOption": "description"
                }
              ]
            },
            {
              "channel": {
                "id": "RWC",
                "type": "channel",
                "label": "RWC",
                "description": "Rich webchat UI"
              },
              "flowData": [
                {
                  "id": "6b4b27f6-b25e-4504-b9c7-4988521ed9d7",
                  "flow": [
                    {
                      "id": "c1b95f33-3ba6-4f6f-8547-5c023fbec9cf",
                      "type": "flowCondition",
                      "label": "default",
                      "order": 1,
                      "toNode": "addPoint",
                      "description": "Start Experience"
                    }
                  ],
                  "type": "node",
                  "label": "Start",
                  "parent": "Project2/Project2Pattern/SubFlow1",
                  "nodeType": "startPoint",
                  "parentId": "fdbaa204-ec7a-4c64-b6a5-038f77bc9115/b7b5eb8d-ece7-4240-8f7b-a8b4aad66532/236a4760-0d69-4260-87a2-348d389fa8db",
                  "description": "Pattern Flow Start",
                  "applyInputsToFlow": false,
                  "nodeDisplayOption": "description"
                }
              ]
            },
            {
              "channel": {
                "id": "SMS",
                "type": "channel",
                "label": "SMS",
                "description": "Text messaging"
              },
              "flowData": [
                {
                  "id": "34a86fe8-4f63-4398-859b-9aae76279bfc",
                  "flow": [
                    {
                      "id": "97c55585-62f8-4509-8186-b27577c62f0b",
                      "type": "flowCondition",
                      "label": "default",
                      "order": 1,
                      "toNode": "addPoint",
                      "description": "Start Experience"
                    }
                  ],
                  "type": "node",
                  "label": "Start",
                  "parent": "Project2/Project2Pattern/SubFlow1",
                  "nodeType": "startPoint",
                  "parentId": "fdbaa204-ec7a-4c64-b6a5-038f77bc9115/b7b5eb8d-ece7-4240-8f7b-a8b4aad66532/236a4760-0d69-4260-87a2-348d389fa8db",
                  "description": "Pattern Flow Start",
                  "applyInputsToFlow": false,
                  "nodeDisplayOption": "description"
                }
              ]
            }
          ]
        },
        {
          "id": "9390dccc-10db-444c-bc18-7430e52d73d3",
          "type": "subFlow",
          "label": "SubFlow2",
          "parent": "Project2/Project2Pattern",
          "parentId": "fdbaa204-ec7a-4c64-b6a5-038f77bc9115/b7b5eb8d-ece7-4240-8f7b-a8b4aad66532",
          "subflows": [],
          "description": "This is second SubFlow description",
          "flowDataSet": [
            {
              "channel": {
                "id": "IVR",
                "type": "channel",
                "label": "IVR",
                "description": "Voice over the phone"
              },
              "flowData": [
                {
                  "id": "c39b6d36-0614-4f95-bd34-6f34084b2149",
                  "flow": [
                    {
                      "id": "e5d89c18-d20a-4121-ba5b-f6d2f82f461c",
                      "type": "flowCondition",
                      "label": "default",
                      "order": 1,
                      "toNode": "addPoint",
                      "description": "Start Experience"
                    }
                  ],
                  "type": "node",
                  "label": "Start",
                  "parent": "Project2/Project2Pattern/SubFlow2",
                  "nodeType": "startPoint",
                  "parentId": "fdbaa204-ec7a-4c64-b6a5-038f77bc9115/b7b5eb8d-ece7-4240-8f7b-a8b4aad66532/9390dccc-10db-444c-bc18-7430e52d73d3",
                  "description": "Pattern Flow Start",
                  "applyInputsToFlow": false,
                  "nodeDisplayOption": "description"
                }
              ]
            },
            {
              "channel": {
                "id": "RWC",
                "type": "channel",
                "label": "RWC",
                "description": "Rich webchat UI"
              },
              "flowData": [
                {
                  "id": "7de49a14-86a9-433e-94a3-1b563c77d673",
                  "flow": [
                    {
                      "id": "9b197c07-5b47-4d0c-ba93-f1cee077ec5a",
                      "type": "flowCondition",
                      "label": "default",
                      "order": 1,
                      "toNode": "addPoint",
                      "description": "Start Experience"
                    }
                  ],
                  "type": "node",
                  "label": "Start",
                  "parent": "Project2/Project2Pattern/SubFlow2",
                  "nodeType": "startPoint",
                  "parentId": "fdbaa204-ec7a-4c64-b6a5-038f77bc9115/b7b5eb8d-ece7-4240-8f7b-a8b4aad66532/9390dccc-10db-444c-bc18-7430e52d73d3",
                  "description": "Pattern Flow Start",
                  "applyInputsToFlow": false,
                  "nodeDisplayOption": "description"
                }
              ]
            },
            {
              "channel": {
                "id": "SMS",
                "type": "channel",
                "label": "SMS",
                "description": "Text messaging"
              },
              "flowData": [
                {
                  "id": "fc6b2937-4960-4792-b4de-480a4c34e882",
                  "flow": [
                    {
                      "id": "3ee9d6c7-59c0-4b10-a08d-4ea7bdf9f51c",
                      "type": "flowCondition",
                      "label": "default",
                      "order": 1,
                      "toNode": "addPoint",
                      "description": "Start Experience"
                    }
                  ],
                  "type": "node",
                  "label": "Start",
                  "parent": "Project2/Project2Pattern/SubFlow2",
                  "nodeType": "startPoint",
                  "parentId": "fdbaa204-ec7a-4c64-b6a5-038f77bc9115/b7b5eb8d-ece7-4240-8f7b-a8b4aad66532/9390dccc-10db-444c-bc18-7430e52d73d3",
                  "description": "Pattern Flow Start",
                  "applyInputsToFlow": false,
                  "nodeDisplayOption": "description"
                }
              ]
            }
          ]
        },
        {
          "id": "d7e0c13a-4941-4751-898a-4d8c1ee0db03",
          "type": "subFlow",
          "label": "SubFlow3",
          "parent": "Project2/Project2Pattern",
          "parentId": "fdbaa204-ec7a-4c64-b6a5-038f77bc9115/b7b5eb8d-ece7-4240-8f7b-a8b4aad66532",
          "subflows": [],
          "description": "This is third SubFlow description",
          "flowDataSet": [
            {
              "channel": {
                "id": "IVR",
                "type": "channel",
                "label": "IVR",
                "description": "Voice over the phone"
              },
              "flowData": [
                {
                  "id": "0498c05d-c0da-4698-bfb6-2b74bc5a5b1a",
                  "flow": [
                    {
                      "id": "8b68a04f-4dec-427d-ace2-4c3ae49acb40",
                      "type": "flowCondition",
                      "label": "default",
                      "order": 1,
                      "toNode": "addPoint",
                      "description": "Start Experience"
                    }
                  ],
                  "type": "node",
                  "label": "Start",
                  "parent": "Project2/Project2Pattern/SubFlow3",
                  "nodeType": "startPoint",
                  "parentId": "fdbaa204-ec7a-4c64-b6a5-038f77bc9115/b7b5eb8d-ece7-4240-8f7b-a8b4aad66532/d7e0c13a-4941-4751-898a-4d8c1ee0db03",
                  "description": "Pattern Flow Start",
                  "applyInputsToFlow": false,
                  "nodeDisplayOption": "description"
                }
              ]
            },
            {
              "channel": {
                "id": "RWC",
                "type": "channel",
                "label": "RWC",
                "description": "Rich webchat UI"
              },
              "flowData": [
                {
                  "id": "7b9b8246-04e1-47bf-8306-23aef8cf4189",
                  "flow": [
                    {
                      "id": "5bf884cb-f8d9-4524-bbfe-dc7a5b041782",
                      "type": "flowCondition",
                      "label": "default",
                      "order": 1,
                      "toNode": "addPoint",
                      "description": "Start Experience"
                    }
                  ],
                  "type": "node",
                  "label": "Start",
                  "parent": "Project2/Project2Pattern/SubFlow3",
                  "nodeType": "startPoint",
                  "parentId": "fdbaa204-ec7a-4c64-b6a5-038f77bc9115/b7b5eb8d-ece7-4240-8f7b-a8b4aad66532/d7e0c13a-4941-4751-898a-4d8c1ee0db03",
                  "description": "Pattern Flow Start",
                  "applyInputsToFlow": false,
                  "nodeDisplayOption": "description"
                }
              ]
            },
            {
              "channel": {
                "id": "SMS",
                "type": "channel",
                "label": "SMS",
                "description": "Text messaging"
              },
              "flowData": [
                {
                  "id": "52e4b283-aecd-468e-bcb7-4b713e780a32",
                  "flow": [
                    {
                      "id": "be2dff02-ba42-43ef-9c61-256ad62bf00c",
                      "type": "flowCondition",
                      "label": "default",
                      "order": 1,
                      "toNode": "addPoint",
                      "description": "Start Experience"
                    }
                  ],
                  "type": "node",
                  "label": "Start",
                  "parent": "Project2/Project2Pattern/SubFlow3",
                  "nodeType": "startPoint",
                  "parentId": "fdbaa204-ec7a-4c64-b6a5-038f77bc9115/b7b5eb8d-ece7-4240-8f7b-a8b4aad66532/d7e0c13a-4941-4751-898a-4d8c1ee0db03",
                  "description": "Pattern Flow Start",
                  "applyInputsToFlow": false,
                  "nodeDisplayOption": "description"
                }
              ]
            }
          ]
        },
        {
          "id": "3a977f98-4738-4ab4-b57b-c6bb3da0ec3c",
          "type": "subFlow",
          "label": "SubFlow4",
          "parent": "Project2/Project2Pattern",
          "parentId": "fdbaa204-ec7a-4c64-b6a5-038f77bc9115/b7b5eb8d-ece7-4240-8f7b-a8b4aad66532",
          "subflows": [],
          "description": "This is fourth SubFlow description",
          "flowDataSet": [
            {
              "channel": {
                "id": "IVR",
                "type": "channel",
                "label": "IVR",
                "description": "Voice over the phone"
              },
              "flowData": [
                {
                  "id": "aa5b81ab-6088-4e3c-8d26-986ab6678f55",
                  "flow": [
                    {
                      "id": "7643b9e6-1d81-46c7-aa45-e8455b6fcbed",
                      "type": "flowCondition",
                      "label": "default",
                      "order": 1,
                      "toNode": "addPoint",
                      "description": "Start Experience"
                    }
                  ],
                  "type": "node",
                  "label": "Start",
                  "parent": "Project2/Project2Pattern/SubFlow4",
                  "nodeType": "startPoint",
                  "parentId": "fdbaa204-ec7a-4c64-b6a5-038f77bc9115/b7b5eb8d-ece7-4240-8f7b-a8b4aad66532/3a977f98-4738-4ab4-b57b-c6bb3da0ec3c",
                  "description": "Pattern Flow Start",
                  "applyInputsToFlow": false,
                  "nodeDisplayOption": "description"
                }
              ]
            },
            {
              "channel": {
                "id": "RWC",
                "type": "channel",
                "label": "RWC",
                "description": "Rich webchat UI"
              },
              "flowData": [
                {
                  "id": "e380a190-c8f5-472f-a6fd-4511dfa73e5b",
                  "flow": [
                    {
                      "id": "8c86364d-6ca0-4474-bf9e-462a3a251fce",
                      "type": "flowCondition",
                      "label": "default",
                      "order": 1,
                      "toNode": "addPoint",
                      "description": "Start Experience"
                    }
                  ],
                  "type": "node",
                  "label": "Start",
                  "parent": "Project2/Project2Pattern/SubFlow4",
                  "nodeType": "startPoint",
                  "parentId": "fdbaa204-ec7a-4c64-b6a5-038f77bc9115/b7b5eb8d-ece7-4240-8f7b-a8b4aad66532/3a977f98-4738-4ab4-b57b-c6bb3da0ec3c",
                  "description": "Pattern Flow Start",
                  "applyInputsToFlow": false,
                  "nodeDisplayOption": "description"
                }
              ]
            },
            {
              "channel": {
                "id": "SMS",
                "type": "channel",
                "label": "SMS",
                "description": "Text messaging"
              },
              "flowData": [
                {
                  "id": "ad04bf1b-5968-4df5-b0b2-d5a2bb36e57d",
                  "flow": [
                    {
                      "id": "787fa052-c935-442d-880b-c957f0e99087",
                      "type": "flowCondition",
                      "label": "default",
                      "order": 1,
                      "toNode": "addPoint",
                      "description": "Start Experience"
                    }
                  ],
                  "type": "node",
                  "label": "Start",
                  "parent": "Project2/Project2Pattern/SubFlow4",
                  "nodeType": "startPoint",
                  "parentId": "fdbaa204-ec7a-4c64-b6a5-038f77bc9115/b7b5eb8d-ece7-4240-8f7b-a8b4aad66532/3a977f98-4738-4ab4-b57b-c6bb3da0ec3c",
                  "description": "Pattern Flow Start",
                  "applyInputsToFlow": false,
                  "nodeDisplayOption": "description"
                }
              ]
            }
          ]
        },
        {
          "id": "605812a0-b66d-4931-8351-220cc416d227",
          "type": "subFlow",
          "label": "SubFlow5",
          "parent": "Project2/Project2Pattern",
          "parentId": "fdbaa204-ec7a-4c64-b6a5-038f77bc9115/b7b5eb8d-ece7-4240-8f7b-a8b4aad66532",
          "subflows": [],
          "description": "This is fifth SubFlow description",
          "flowDataSet": [
            {
              "channel": {
                "id": "IVR",
                "type": "channel",
                "label": "IVR",
                "description": "Voice over the phone"
              },
              "flowData": [
                {
                  "id": "a0155cf5-a885-4e23-959f-0d033c36d69a",
                  "flow": [
                    {
                      "id": "576f83bb-95f2-418e-a515-e9db76de8541",
                      "type": "flowCondition",
                      "label": "default",
                      "order": 1,
                      "toNode": "addPoint",
                      "description": "Start Experience"
                    }
                  ],
                  "type": "node",
                  "label": "Start",
                  "parent": "Project2/Project2Pattern/SubFlow5",
                  "nodeType": "startPoint",
                  "parentId": "fdbaa204-ec7a-4c64-b6a5-038f77bc9115/b7b5eb8d-ece7-4240-8f7b-a8b4aad66532/605812a0-b66d-4931-8351-220cc416d227",
                  "description": "Pattern Flow Start",
                  "applyInputsToFlow": false,
                  "nodeDisplayOption": "description"
                }
              ]
            },
            {
              "channel": {
                "id": "RWC",
                "type": "channel",
                "label": "RWC",
                "description": "Rich webchat UI"
              },
              "flowData": [
                {
                  "id": "5b67d684-eff6-4e39-b813-872e4fd5c6d4",
                  "flow": [
                    {
                      "id": "63e952df-7f08-4bc1-8902-cbc371a46366",
                      "type": "flowCondition",
                      "label": "default",
                      "order": 1,
                      "toNode": "addPoint",
                      "description": "Start Experience"
                    }
                  ],
                  "type": "node",
                  "label": "Start",
                  "parent": "Project2/Project2Pattern/SubFlow5",
                  "nodeType": "startPoint",
                  "parentId": "fdbaa204-ec7a-4c64-b6a5-038f77bc9115/b7b5eb8d-ece7-4240-8f7b-a8b4aad66532/605812a0-b66d-4931-8351-220cc416d227",
                  "description": "Pattern Flow Start",
                  "applyInputsToFlow": false,
                  "nodeDisplayOption": "description"
                }
              ]
            },
            {
              "channel": {
                "id": "SMS",
                "type": "channel",
                "label": "SMS",
                "description": "Text messaging"
              },
              "flowData": [
                {
                  "id": "eab62358-0f45-4b45-b9f4-20f012b91623",
                  "flow": [
                    {
                      "id": "d1868d3c-38c3-4fe8-9ce8-50a2532f0ff6",
                      "type": "flowCondition",
                      "label": "default",
                      "order": 1,
                      "toNode": "addPoint",
                      "description": "Start Experience"
                    }
                  ],
                  "type": "node",
                  "label": "Start",
                  "parent": "Project2/Project2Pattern/SubFlow5",
                  "nodeType": "startPoint",
                  "parentId": "fdbaa204-ec7a-4c64-b6a5-038f77bc9115/b7b5eb8d-ece7-4240-8f7b-a8b4aad66532/605812a0-b66d-4931-8351-220cc416d227",
                  "description": "Pattern Flow Start",
                  "applyInputsToFlow": false,
                  "nodeDisplayOption": "description"
                }
              ]
            }
          ]
        }
      ],
      "description": "",
      "patternType": "Inbound",
      "entityGroups": [
        {
          "id": "4cc4ef0d-b514-4092-bec0-4f60ba6f1ef6",
          "type": "entityGroup",
          "label": "defaultEntityGroup",
          "dependsOn": [],
          "primaryKey": "default",
          "description": "defaultEntityGroup",
          "sharedEndPoint": false
        }
      ]
    }
  ],
  "templates": {
    "defaultOpenTemplate": {
      "id": "defaultOpenTemplate",
      "label": "DefaultOpenTemplate",
      "hasPre": true,
      "hasPost": true,
      "hasRepair": true,
      "description": "This is the default open template.",
      "templateType": "openQuestion",
      "channelConditions": [
        {
          "flow": [],
          "input": {
            "models": []
          },
          "output": [],
          "channelId": "IVR"
        },
        {
          "flow": [],
          "input": {
            "models": []
          },
          "output": [],
          "channelId": "RWC"
        },
        {
          "flow": [],
          "input": {
            "models": []
          },
          "output": [],
          "channelId": "SMS"
        },
        {
          "flow": [],
          "input": {
            "models": []
          },
          "output": [],
          "channelId": "App"
        },
        {
          "flow": [],
          "input": {
            "models": []
          },
          "output": [],
          "channelId": "rSMS"
        },
        {
          "flow": [],
          "input": {
            "models": []
          },
          "output": [],
          "channelId": "VoIP"
        }
      ]
    },
    "defaultClosedTemplate": {
      "id": "defaultClosedTemplate",
      "label": "DefaultClosedTemplate",
      "hasPre": true,
      "hasPost": true,
      "hasRepair": true,
      "description": "This is the default closed template.",
      "templateType": "closedQuestion",
      "channelConditions": [
        {
          "flow": [],
          "input": {
            "models": []
          },
          "output": [],
          "channelId": "IVR"
        },
        {
          "flow": [],
          "input": {
            "models": []
          },
          "output": [],
          "channelId": "RWC"
        },
        {
          "flow": [],
          "input": {
            "models": []
          },
          "output": [],
          "channelId": "SMS"
        },
        {
          "flow": [],
          "input": {
            "models": []
          },
          "output": [],
          "channelId": "App"
        },
        {
          "flow": [],
          "input": {
            "models": []
          },
          "output": [],
          "channelId": "rSMS"
        },
        {
          "flow": [],
          "input": {
            "models": []
          },
          "output": [],
          "channelId": "VoIP"
        }
      ]
    },
    "defaultPromptTemplate": {
      "id": "defaultPromptTemplate",
      "label": "DefaultPromptTemplate",
      "hasPre": true,
      "hasPost": true,
      "hasRepair": true,
      "description": "This is the default prompt template.",
      "templateType": "prompt",
      "channelConditions": [
        {
          "flow": [],
          "input": {
            "models": []
          },
          "output": [],
          "channelId": "IVR"
        },
        {
          "flow": [],
          "input": {
            "models": []
          },
          "output": [],
          "channelId": "RWC"
        },
        {
          "flow": [],
          "input": {
            "models": []
          },
          "output": [],
          "channelId": "SMS"
        },
        {
          "flow": [],
          "input": {
            "models": []
          },
          "output": [],
          "channelId": "App"
        },
        {
          "flow": [],
          "input": {
            "models": []
          },
          "output": [],
          "channelId": "rSMS"
        },
        {
          "flow": [],
          "input": {
            "models": []
          },
          "output": [],
          "channelId": "VoIP"
        }
      ]
    },
    "YesNoTemplateId": {
      "label": "YesNoQuestion",
      "description": "This is the default ClosedQuestion template",
      "templateType": "closedQuestion",
      "id": "YesNoTemplateId",
      "channelConditions": [
        {
          "channelId": "IVR",
          "output": [],
          "input": {
            "models": [
              {
                "label": "Yes",
                "type": "inputCondition",
                "containsPii": false,
                "id": "a4ae0af9-e862-4b00-a089-07c35e8b94c6",
                "description": "positive user response",
                "inputType": "Matcher",
                "parser": "yes, yeah, yah"
              },
              {
                "label": "No",
                "type": "inputCondition",
                "containsPii": false,
                "id": "20473d23-ffb5-45c9-bab2-aa727e1fd0da",
                "description": "negative user response",
                "inputType": "Matcher",
                "parser": "no, nope, nah"
              }
            ]
          },
          "flow": []
        },
        {
          "channelId": "RWC",
          "output": [],
          "input": {
            "models": [
              {
                "label": "Yes",
                "type": "inputCondition",
                "containsPii": false,
                "id": "a0638095-6f34-4c8a-9e74-6ea5c5a39c55",
                "description": "positive user response",
                "inputType": "Matcher",
                "parser": "yes, yeah, yah"
              },
              {
                "label": "No",
                "type": "inputCondition",
                "containsPii": false,
                "id": "ee713097-0513-47b4-978e-62553c1c097d",
                "description": "negative user response",
                "inputType": "Matcher",
                "parser": "no, nope, nah"
              }
            ]
          },
          "flow": []
        },
        {
          "channelId": "SMS",
          "output": [],
          "input": {
            "models": [
              {
                "label": "Yes",
                "type": "inputCondition",
                "containsPii": false,
                "id": "b75a50ff-c36e-4080-a83b-e35b8dede8f9",
                "description": "positive user response",
                "inputType": "Matcher",
                "parser": "yes, yeah, yah"
              },
              {
                "label": "No",
                "type": "inputCondition",
                "containsPii": false,
                "id": "ad67d7a7-f9b4-4b2f-81df-520737b37bb7",
                "description": "negative user response",
                "inputType": "Matcher",
                "parser": "no, nope, nah"
              }
            ]
          },
          "flow": []
        },
        {
          "channelId": "App",
          "output": [],
          "input": {
            "models": []
          },
          "flow": []
        },
        {
          "channelId": "rSMS",
          "output": [],
          "input": {
            "models": [
              {
                "label": "Yes",
                "type": "inputCondition",
                "containsPii": false,
                "id": "6cb861cd-f68c-4288-bc02-d6865eabec4a",
                "description": "positive user response",
                "inputType": "Matcher",
                "parser": "yes, yeah, yah"
              },
              {
                "label": "No",
                "type": "inputCondition",
                "containsPii": false,
                "id": "1a20884d-3ee2-4a36-b1b6-0d2f62a7a60e",
                "description": "negative user response",
                "inputType": "Matcher",
                "parser": "no, nope, nah"
              }
            ]
          },
          "flow": []
        },
        {
          "channelId": "VoIP",
          "output": [],
          "input": {
            "models": [
              {
                "label": "Yes",
                "type": "inputCondition",
                "containsPii": false,
                "id": "1c3aef78-b5c4-4286-a6b1-c7cb43ce09d1",
                "description": "positive user response",
                "inputType": "Matcher",
                "parser": "yes, yeah, yah"
              },
              {
                "label": "No",
                "type": "inputCondition",
                "containsPii": false,
                "id": "21ff624e-c669-42ef-89a2-b9893293942b",
                "description": "negative user response",
                "inputType": "Matcher",
                "parser": "no, nope, nah"
              }
            ]
          },
          "flow": []
        }
      ]
    }
  },
  "description": "",
  "projectType": "None",
  "outcomesBaseline": [],
  "projectObjectVersion": 1,
  "parent": "",
  "parentId": "",
  "destinationPdes": [],
  "cards": {},
  "globalRepairRules": [
    {
      "label": "Out of Context",
      "description": "Out of context response are when the NLU is unable to classify the user's input. The user is asked to repeat.",
      "id": "OOCRule",
      "repairType": "outOfContext",
      "numberOfAttempts": 2,
      "outcome": "fallback"
    },
    {
      "label": "No Response",
      "description": "No response is when the user does not provide any input. The system will reprompt the user to provide a response",
      "id": "NRRule",
      "repairType": "noResponse",
      "numberOfAttempts": 2,
      "outcome": "fallback"
    },
    {
      "label": "Agent Request",
      "id": "ARRule",
      "description": "User requests Agent Transfer will trigger an Escalate flow",
      "repairType": "agentRequest",
      "numberOfAttempts": 1,
      "outcome": "escalate"
    },
    {
      "label": "Maximum Repair before Fallback",
      "id": "MRBFrule",
      "description": "Total number of repairs before triggering a fallback action. Fallback should be offering another channel or escalating to an agent",
      "repairType": "maximum",
      "numberOfAttempts": 3,
      "outcome": "fallback"
    }
  ]
}
