{
    "id": "eeacecf7-28f9-492f-86b6-d895a86485a8",
    "type": "project",
    "cards": {},
    "label": "revert-layout-created-by-e2e",
    "parent": "",
    "outcomes": [
        {
            "id": "63a600c7-d407-4234-9160-2c518d8708ab",
            "type": "outcome",
            "color": "#8FBCFF",
            "label": "HITL",
            "reasons": [],
            "percentage": 33,
            "description": "Human in the Loop",
            "outcomeType": "Project",
            "outcomeValue": "Neutral"
        },
        {
            "id": "1fa0dca1-7483-4794-a86f-9c0cae83590a",
            "type": "outcome",
            "color": "#FFBFCB",
            "label": "Abandon",
            "reasons": [],
            "percentage": 33,
            "description": "User exits system without completion point.",
            "outcomeType": "Project",
            "outcomeValue": "Negative"
        },
        {
            "id": "77cc08a6-1140-46f0-800d-a5c76c098004",
            "type": "outcome",
            "color": "#FFED8F",
            "label": "Contained",
            "reasons": [],
            "percentage": 33,
            "description": "User completes task without Human Assistance, Golden Call.",
            "outcomeType": "Project",
            "outcomeValue": "Positive"
        },
        {
            "id": "escalate",
            "type": "outcome",
            "color": "#8FBCFF",
            "label": "Escalate",
            "description": "User is moved to Global Agent Transfer pattern, passing along flow and context.",
            "outcomeType": "Global",
            "outcomeValue": "Neutral",
            "destinationPattern": ""
        },
        {
            "id": "fallback",
            "type": "outcome",
            "color": "#EBBFFF",
            "label": "Fallback",
            "description": "If user is stuck in n or more repairs on the voice channel. Offer alternate channel if available, or switch to easier input.",
            "outcomeType": "Global",
            "outcomeValue": "Neutral",
            "destinationPattern": ""
        }
    ],
    "parentId": "",
    "patterns": [
        {
            "id": "7a6cac9f-cfb9-4c6e-ac83-cb5df1ee5095",
            "type": "pattern",
            "label": "general",
            "mapper": [
                {
                    "id": "cd547461-0685-402e-a9cf-10218c6fd6b4",
                    "tag": "S_TestPatternName_StartBot",
                    "goto": "First",
                    "oiType": false,
                    "parent": "testproject/TestPatternName",
                    "payload": "BOT START: test-project | GOTO: First",
                    "project": "test-project",
                    "subFlow": "testproject/TestPatternName",
                    "mapBotID": "",
                    "nodeType": "startPoint",
                    "condition": "StartBot",
                    "elementID": "03f67d37-8f97-43cb-ba91-6a85c7ce9097",
                    "flowLabel": "",
                    "mapFlowID": "",
                    "mapStepID": "",
                    "nodeLabel": "Start",
                    "containsPii": false,
                    "description": "Start Flow: TestPatternNametestproject/TestPatternName",
                    "elementType": "startPoint",
                    "implemented": false,
                    "loggedCount": 0
                },
                {
                    "id": "63a88722-edc9-4bc6-a1f7-0728f8b566a4",
                    "tag": "F_First_default",
                    "goto": "SkillRouter",
                    "oiType": false,
                    "parent": "testproject/TestPatternName",
                    "payload": "GOTO: SkillRouter",
                    "project": "test-project",
                    "subFlow": "TestPatternName",
                    "mapBotID": "",
                    "nodeType": "subFlow",
                    "condition": "default",
                    "elementID": "0e1d4298-13b9-4dd6-9a92-e5cebc634bbc",
                    "flowLabel": "",
                    "mapFlowID": "",
                    "mapStepID": "",
                    "nodeLabel": "First",
                    "containsPii": false,
                    "description": " ",
                    "elementType": "flowCondition",
                    "implemented": false,
                    "loggedCount": 0
                },
                {
                    "id": "008fb3c3-e132-48f6-a02d-47c88ca7b5ff",
                    "tag": "F_First_UserAbandonment",
                    "goto": "UserAbandonment",
                    "oiType": false,
                    "parent": "testproject/TestPatternName",
                    "payload": "GOTO: UserAbandonment",
                    "project": "test-project",
                    "subFlow": "TestPatternName",
                    "mapBotID": "",
                    "nodeType": "subFlow",
                    "condition": "UserAbandonment",
                    "elementID": "b3385937-d4a4-41b9-b135-f7fb191f35a1",
                    "flowLabel": "",
                    "mapFlowID": "",
                    "mapStepID": "",
                    "nodeLabel": "First",
                    "containsPii": false,
                    "elementType": "flowCondition",
                    "implemented": false,
                    "loggedCount": 0
                },
                {
                    "id": "2570b5e9-e07d-4d30-981e-5fcbdd192266",
                    "tag": "G_UserAbandonment_First",
                    "oiType": false,
                    "parent": "testproject/TestPatternName",
                    "payload": "Outcome: UserAbandonment type=outcomePoint fromNode=First condition=UserAbandonment",
                    "project": "test-project",
                    "subFlow": "TestPatternName",
                    "mapBotID": "",
                    "nodeType": "outcomePoint",
                    "condition": "UserAbandonment",
                    "elementID": "UserAbandonment",
                    "flowLabel": "",
                    "mapFlowID": "",
                    "mapStepID": "",
                    "nodeLabel": "UserAbandonment",
                    "containsPii": false,
                    "description": "Global User Abandonment",
                    "elementType": "outcomePoint",
                    "implemented": false,
                    "loggedCount": 0
                },
                {
                    "id": "8311d6e5-bf58-43f7-b01c-4230a3a9b952",
                    "tag": "F_First_Escalate",
                    "goto": "Escalate",
                    "oiType": false,
                    "parent": "testproject/TestPatternName",
                    "payload": "GOTO: Escalate",
                    "project": "test-project",
                    "subFlow": "TestPatternName",
                    "mapBotID": "",
                    "nodeType": "subFlow",
                    "condition": "Escalate",
                    "elementID": "be617d14-9490-447a-bf8d-abfaca22ce88",
                    "flowLabel": "",
                    "mapFlowID": "",
                    "mapStepID": "",
                    "nodeLabel": "First",
                    "containsPii": false,
                    "elementType": "flowCondition",
                    "implemented": false,
                    "loggedCount": 0
                },
                {
                    "id": "4845e753-b032-4318-a809-f6d279ad7267",
                    "tag": "F_First_Fallback",
                    "goto": "Fallback",
                    "oiType": false,
                    "parent": "testproject/TestPatternName",
                    "payload": "GOTO: Fallback",
                    "project": "test-project",
                    "subFlow": "TestPatternName",
                    "mapBotID": "",
                    "nodeType": "subFlow",
                    "condition": "Fallback",
                    "elementID": "a996a5a9-0303-4982-aae8-734f7ee2cf17",
                    "flowLabel": "",
                    "mapFlowID": "",
                    "mapStepID": "",
                    "nodeLabel": "First",
                    "containsPii": false,
                    "elementType": "flowCondition",
                    "implemented": false,
                    "loggedCount": 0
                },
                {
                    "id": "ce03c358-bb13-4c9b-91a8-9e471ce2b324",
                    "tag": "S_First_StartSubFlow",
                    "goto": "Subflow2",
                    "oiType": false,
                    "parent": "testproject/TestPatternName/First",
                    "channel": "RWC",
                    "payload": "START Flow: testproject/TestPatternName/First | GOTO: Subflow2",
                    "project": "test-project",
                    "subFlow": "testproject/TestPatternName/First",
                    "mapBotID": "",
                    "nodeType": "startPoint",
                    "condition": "StartSubFlow",
                    "elementID": "e00ddc18-e56b-4f11-8c0a-9b0a70131f40",
                    "flowLabel": "",
                    "mapFlowID": "",
                    "mapStepID": "",
                    "nodeLabel": "Start",
                    "containsPii": false,
                    "description": "Start Flow: TestPatternNametestproject/TestPatternName/First",
                    "elementType": "startPoint",
                    "implemented": false,
                    "loggedCount": 0
                },
                {
                    "id": "16bc8f57-ae04-4e47-86bf-c306ce69b885",
                    "tag": "F_Subflow2_default",
                    "goto": "Tag2",
                    "oiType": false,
                    "parent": "testproject/TestPatternName/First",
                    "channel": "RWC",
                    "payload": "GOTO: Tag2",
                    "project": "test-project",
                    "subFlow": "TestPatternName",
                    "mapBotID": "",
                    "nodeType": "subFlow",
                    "condition": "default",
                    "elementID": "59c3d803-2465-4da4-805b-965838769640",
                    "flowLabel": "",
                    "mapFlowID": "",
                    "mapStepID": "",
                    "nodeLabel": "Subflow2",
                    "containsPii": false,
                    "description": " ",
                    "elementType": "flowCondition",
                    "implemented": false,
                    "loggedCount": 0
                },
                {
                    "id": "5c07f8b9-7177-458b-a1c2-777d3f95fdb7",
                    "tag": "F_Subflow2_UserAbandonment",
                    "goto": "UserAbandonment",
                    "oiType": false,
                    "parent": "testproject/TestPatternName/First",
                    "channel": "RWC",
                    "payload": "GOTO: UserAbandonment",
                    "project": "test-project",
                    "subFlow": "TestPatternName",
                    "mapBotID": "",
                    "nodeType": "subFlow",
                    "condition": "UserAbandonment",
                    "elementID": "994ea53f-d640-44e5-8f70-3e8d7f2818e7",
                    "flowLabel": "",
                    "mapFlowID": "",
                    "mapStepID": "",
                    "nodeLabel": "Subflow2",
                    "containsPii": false,
                    "elementType": "flowCondition",
                    "implemented": false,
                    "loggedCount": 0
                },
                {
                    "id": "5f0ac4ff-81e5-4f5b-8c2f-05facc940570",
                    "tag": "E_UserAbandonment_Subflow2",
                    "oiType": false,
                    "parent": "testproject/TestPatternName/First",
                    "channel": "RWC",
                    "payload": "Endpoint: UserAbandonment fromNode=Subflow2 condition=UserAbandonment",
                    "project": "test-project",
                    "subFlow": "TestPatternName",
                    "mapBotID": "",
                    "nodeType": "endPoint",
                    "condition": "UserAbandonment",
                    "flowLabel": "",
                    "mapFlowID": "",
                    "mapStepID": "",
                    "nodeLabel": "UserAbandonment",
                    "containsPii": false,
                    "elementType": "endPoint",
                    "implemented": false,
                    "loggedCount": 0
                },
                {
                    "id": "5991347c-15b8-42ac-a6b7-d848e3c71d59",
                    "tag": "F_Subflow2_Escalate",
                    "goto": "Escalate",
                    "oiType": false,
                    "parent": "testproject/TestPatternName/First",
                    "channel": "RWC",
                    "payload": "GOTO: Escalate",
                    "project": "test-project",
                    "subFlow": "TestPatternName",
                    "mapBotID": "",
                    "nodeType": "subFlow",
                    "condition": "Escalate",
                    "elementID": "e057930b-2b49-4314-bddb-967eba17ebed",
                    "flowLabel": "",
                    "mapFlowID": "",
                    "mapStepID": "",
                    "nodeLabel": "Subflow2",
                    "containsPii": false,
                    "elementType": "flowCondition",
                    "implemented": false,
                    "loggedCount": 0
                },
                {
                    "id": "6fd0b103-d63b-4e31-a212-81f82cf17432",
                    "tag": "F_Subflow2_Fallback",
                    "goto": "Fallback",
                    "oiType": false,
                    "parent": "testproject/TestPatternName/First",
                    "channel": "RWC",
                    "payload": "GOTO: Fallback",
                    "project": "test-project",
                    "subFlow": "TestPatternName",
                    "mapBotID": "",
                    "nodeType": "subFlow",
                    "condition": "Fallback",
                    "elementID": "c4beca80-23b7-4d7a-8cba-aee1ccd1d974",
                    "flowLabel": "",
                    "mapFlowID": "",
                    "mapStepID": "",
                    "nodeLabel": "Subflow2",
                    "containsPii": false,
                    "elementType": "flowCondition",
                    "implemented": false,
                    "loggedCount": 0
                },
                {
                    "id": "08804968-b027-4a18-a554-b4c7f0f5d7c3",
                    "tag": "S_Subflow2_StartSubFlow",
                    "goto": "addPoint",
                    "oiType": false,
                    "parent": "testproject/TestPatternName/First/Subflow2",
                    "channel": "RWC",
                    "payload": "START Flow: testproject/TestPatternName/First/Subflow2 | GOTO: addPoint",
                    "project": "test-project",
                    "subFlow": "testproject/TestPatternName/First/Subflow2",
                    "mapBotID": "",
                    "nodeType": "startPoint",
                    "condition": "StartSubFlow",
                    "elementID": "2affaa96-f50f-4bd6-bd4f-c34049f3660b",
                    "flowLabel": "",
                    "mapFlowID": "",
                    "mapStepID": "",
                    "nodeLabel": "Start",
                    "containsPii": false,
                    "description": "Start Flow: TestPatternNametestproject/TestPatternName/First/Subflow2",
                    "elementType": "startPoint",
                    "implemented": false,
                    "loggedCount": 0
                },
                {
                    "id": "a6697e06-ed03-4631-9bda-93f7a48bc97f",
                    "tag": "F_Tag2_default",
                    "goto": "Prompt",
                    "oiType": false,
                    "parent": "testproject/TestPatternName/First",
                    "channel": "RWC",
                    "payload": "GOTO: Prompt",
                    "project": "test-project",
                    "subFlow": "TestPatternName",
                    "mapBotID": "",
                    "nodeType": "tagNode",
                    "condition": "default",
                    "elementID": "6b1d362d-ee52-48b4-b85c-da06caec654d",
                    "flowLabel": "",
                    "mapFlowID": "",
                    "mapStepID": "",
                    "nodeLabel": "Tag2",
                    "containsPii": false,
                    "description": "link descr",
                    "elementType": "flowCondition",
                    "implemented": false,
                    "loggedCount": 0
                },
                {
                    "id": "c4922e08-b54e-41a0-911c-11cd009beb0e",
                    "tag": "F_Tag2_UserAbandonment",
                    "goto": "UserAbandonment",
                    "oiType": false,
                    "parent": "testproject/TestPatternName/First",
                    "channel": "RWC",
                    "payload": "GOTO: UserAbandonment",
                    "project": "test-project",
                    "subFlow": "TestPatternName",
                    "mapBotID": "",
                    "nodeType": "tagNode",
                    "condition": "UserAbandonment",
                    "elementID": "994ea53f-d640-44e5-8f70-3e8d7f2818e7",
                    "flowLabel": "",
                    "mapFlowID": "",
                    "mapStepID": "",
                    "nodeLabel": "Tag2",
                    "containsPii": false,
                    "elementType": "flowCondition",
                    "implemented": false,
                    "loggedCount": 0
                },
                {
                    "id": "d99fd309-7feb-4a80-b702-790932c1173a",
                    "tag": "E_UserAbandonment_Tag2",
                    "oiType": false,
                    "parent": "testproject/TestPatternName/First",
                    "channel": "RWC",
                    "payload": "Endpoint: UserAbandonment fromNode=Tag2 condition=UserAbandonment",
                    "project": "test-project",
                    "subFlow": "TestPatternName",
                    "mapBotID": "",
                    "nodeType": "endPoint",
                    "condition": "UserAbandonment",
                    "flowLabel": "",
                    "mapFlowID": "",
                    "mapStepID": "",
                    "nodeLabel": "UserAbandonment",
                    "containsPii": false,
                    "elementType": "endPoint",
                    "implemented": false,
                    "loggedCount": 0
                },
                {
                    "id": "f3c6ec7a-c6f5-43a9-b318-6cdf88c0dc2e",
                    "tag": "F_Tag2_Escalate",
                    "goto": "Escalate",
                    "oiType": false,
                    "parent": "testproject/TestPatternName/First",
                    "channel": "RWC",
                    "payload": "GOTO: Escalate",
                    "project": "test-project",
                    "subFlow": "TestPatternName",
                    "mapBotID": "",
                    "nodeType": "tagNode",
                    "condition": "Escalate",
                    "elementID": "e057930b-2b49-4314-bddb-967eba17ebed",
                    "flowLabel": "",
                    "mapFlowID": "",
                    "mapStepID": "",
                    "nodeLabel": "Tag2",
                    "containsPii": false,
                    "elementType": "flowCondition",
                    "implemented": false,
                    "loggedCount": 0
                },
                {
                    "id": "81cd6ba1-48e9-43e0-9e9e-27e257523b6a",
                    "tag": "F_Tag2_Fallback",
                    "goto": "Fallback",
                    "oiType": false,
                    "parent": "testproject/TestPatternName/First",
                    "channel": "RWC",
                    "payload": "GOTO: Fallback",
                    "project": "test-project",
                    "subFlow": "TestPatternName",
                    "mapBotID": "",
                    "nodeType": "tagNode",
                    "condition": "Fallback",
                    "elementID": "c4beca80-23b7-4d7a-8cba-aee1ccd1d974",
                    "flowLabel": "",
                    "mapFlowID": "",
                    "mapStepID": "",
                    "nodeLabel": "Tag2",
                    "containsPii": false,
                    "elementType": "flowCondition",
                    "implemented": false,
                    "loggedCount": 0
                },
                {
                    "id": "ab2da94c-d67e-449c-b4c7-f89e1d6aa27a",
                    "tag": "O_Prompt_Default",
                    "oiType": false,
                    "parent": "testproject/TestPatternName/First",
                    "channel": "RWC",
                    "payload": "text",
                    "project": "test-project",
                    "subFlow": "TestPatternName",
                    "mapBotID": "",
                    "nodeType": "prompt",
                    "condition": "Default",
                    "elementID": "087f2ec1-16f2-4e71-940e-18ba4e4d5691",
                    "flowLabel": "",
                    "mapFlowID": "",
                    "mapStepID": "",
                    "nodeLabel": "Prompt",
                    "containsPii": null,
                    "elementType": "outputCondition",
                    "implemented": false,
                    "loggedCount": 0
                },
                {
                    "id": "dbc2e650-8679-4556-bad1-639fc4378d50",
                    "tag": "F_Prompt_default",
                    "goto": "OpenQuestion",
                    "oiType": false,
                    "parent": "testproject/TestPatternName/First",
                    "channel": "RWC",
                    "payload": "GOTO: OpenQuestion",
                    "project": "test-project",
                    "subFlow": "TestPatternName",
                    "mapBotID": "",
                    "nodeType": "prompt",
                    "condition": "default",
                    "elementID": "6d684461-cc71-41b1-b71f-14e0038230eb",
                    "flowLabel": "",
                    "mapFlowID": "",
                    "mapStepID": "",
                    "nodeLabel": "Prompt",
                    "containsPii": false,
                    "description": "link descr",
                    "elementType": "flowCondition",
                    "implemented": false,
                    "loggedCount": 0
                },
                {
                    "id": "15743ce4-9b47-4fb5-8d68-1d343bb69d41",
                    "tag": "F_Prompt_UserAbandonment",
                    "goto": "UserAbandonment",
                    "oiType": false,
                    "parent": "testproject/TestPatternName/First",
                    "channel": "RWC",
                    "payload": "GOTO: UserAbandonment",
                    "project": "test-project",
                    "subFlow": "TestPatternName",
                    "mapBotID": "",
                    "nodeType": "prompt",
                    "condition": "UserAbandonment",
                    "elementID": "994ea53f-d640-44e5-8f70-3e8d7f2818e7",
                    "flowLabel": "",
                    "mapFlowID": "",
                    "mapStepID": "",
                    "nodeLabel": "Prompt",
                    "containsPii": false,
                    "elementType": "flowCondition",
                    "implemented": false,
                    "loggedCount": 0
                },
                {
                    "id": "774410ca-cc77-4697-8a2d-50760e4341bf",
                    "tag": "E_UserAbandonment_Prompt",
                    "oiType": false,
                    "parent": "testproject/TestPatternName/First",
                    "channel": "RWC",
                    "payload": "Endpoint: UserAbandonment fromNode=Prompt condition=UserAbandonment",
                    "project": "test-project",
                    "subFlow": "TestPatternName",
                    "mapBotID": "",
                    "nodeType": "endPoint",
                    "condition": "UserAbandonment",
                    "flowLabel": "",
                    "mapFlowID": "",
                    "mapStepID": "",
                    "nodeLabel": "UserAbandonment",
                    "containsPii": false,
                    "elementType": "endPoint",
                    "implemented": false,
                    "loggedCount": 0
                },
                {
                    "id": "e55b4a7c-889b-4c99-8f9f-676747ce8607",
                    "tag": "F_Prompt_Escalate",
                    "goto": "Escalate",
                    "oiType": false,
                    "parent": "testproject/TestPatternName/First",
                    "channel": "RWC",
                    "payload": "GOTO: Escalate",
                    "project": "test-project",
                    "subFlow": "TestPatternName",
                    "mapBotID": "",
                    "nodeType": "prompt",
                    "condition": "Escalate",
                    "elementID": "e057930b-2b49-4314-bddb-967eba17ebed",
                    "flowLabel": "",
                    "mapFlowID": "",
                    "mapStepID": "",
                    "nodeLabel": "Prompt",
                    "containsPii": false,
                    "elementType": "flowCondition",
                    "implemented": false,
                    "loggedCount": 0
                },
                {
                    "id": "dc80f514-8049-4189-8c0f-7c5958fa5f60",
                    "tag": "F_Prompt_Fallback",
                    "goto": "Fallback",
                    "oiType": false,
                    "parent": "testproject/TestPatternName/First",
                    "channel": "RWC",
                    "payload": "GOTO: Fallback",
                    "project": "test-project",
                    "subFlow": "TestPatternName",
                    "mapBotID": "",
                    "nodeType": "prompt",
                    "condition": "Fallback",
                    "elementID": "c4beca80-23b7-4d7a-8cba-aee1ccd1d974",
                    "flowLabel": "",
                    "mapFlowID": "",
                    "mapStepID": "",
                    "nodeLabel": "Prompt",
                    "containsPii": false,
                    "elementType": "flowCondition",
                    "implemented": false,
                    "loggedCount": 0
                },
                {
                    "id": "beb4a676-f8e3-4f4f-8145-58eb73bc49ca",
                    "tag": "O_OpenQuestion_Default",
                    "oiType": false,
                    "parent": "testproject/TestPatternName/First",
                    "channel": "RWC",
                    "payload": "prompt",
                    "project": "test-project",
                    "subFlow": "TestPatternName",
                    "mapBotID": "",
                    "nodeType": "openQuestion",
                    "condition": "Default",
                    "elementID": "80391562-a79c-4f40-bffd-28c22ebc7c3d",
                    "flowLabel": "",
                    "mapFlowID": "",
                    "mapStepID": "",
                    "nodeLabel": "OpenQuestion",
                    "containsPii": null,
                    "elementType": "outputCondition",
                    "implemented": false,
                    "loggedCount": 0
                },
                {
                    "id": "b53f0a5a-877d-41f0-8e62-9b6b4a29d643",
                    "tag": "F_OpenQuestion_default",
                    "goto": "ClosedQuestion",
                    "oiType": false,
                    "parent": "testproject/TestPatternName/First",
                    "channel": "RWC",
                    "payload": "GOTO: ClosedQuestion",
                    "project": "test-project",
                    "subFlow": "TestPatternName",
                    "mapBotID": "",
                    "nodeType": "openQuestion",
                    "condition": "default",
                    "elementID": "6c6b4e21-efa7-4925-8687-f963bf3db2e8",
                    "flowLabel": "",
                    "mapFlowID": "",
                    "mapStepID": "",
                    "nodeLabel": "OpenQuestion",
                    "containsPii": false,
                    "description": "closedq link descr",
                    "elementType": "flowCondition",
                    "implemented": false,
                    "loggedCount": 0
                },
                {
                    "id": "e8c46dfc-3a29-4738-b713-088c0aca628f",
                    "tag": "F_OpenQuestion_Repair",
                    "goto": "OpenQuestion",
                    "oiType": false,
                    "parent": "testproject/TestPatternName/First",
                    "channel": "RWC",
                    "payload": "GOTO: OpenQuestion",
                    "project": "test-project",
                    "subFlow": "TestPatternName",
                    "mapBotID": "",
                    "nodeType": "openQuestion",
                    "condition": "Repair",
                    "elementID": "743f8cc1-b666-4056-b117-3dff7e2fbc5f",
                    "flowLabel": "",
                    "mapFlowID": "",
                    "mapStepID": "",
                    "nodeLabel": "OpenQuestion",
                    "containsPii": false,
                    "elementType": "flowCondition",
                    "implemented": false,
                    "loggedCount": 0
                },
                {
                    "id": "439fe976-d5f5-43fb-b048-465f4b4cde8b",
                    "tag": "F_OpenQuestion_UserAbandonment",
                    "goto": "UserAbandonment",
                    "oiType": false,
                    "parent": "testproject/TestPatternName/First",
                    "channel": "RWC",
                    "payload": "GOTO: UserAbandonment",
                    "project": "test-project",
                    "subFlow": "TestPatternName",
                    "mapBotID": "",
                    "nodeType": "openQuestion",
                    "condition": "UserAbandonment",
                    "elementID": "994ea53f-d640-44e5-8f70-3e8d7f2818e7",
                    "flowLabel": "",
                    "mapFlowID": "",
                    "mapStepID": "",
                    "nodeLabel": "OpenQuestion",
                    "containsPii": false,
                    "elementType": "flowCondition",
                    "implemented": false,
                    "loggedCount": 0
                },
                {
                    "id": "d8644baf-c442-4b73-9c38-58d90d916504",
                    "tag": "E_UserAbandonment_OpenQuestion",
                    "oiType": false,
                    "parent": "testproject/TestPatternName/First",
                    "channel": "RWC",
                    "payload": "Endpoint: UserAbandonment fromNode=OpenQuestion condition=UserAbandonment",
                    "project": "test-project",
                    "subFlow": "TestPatternName",
                    "mapBotID": "",
                    "nodeType": "endPoint",
                    "condition": "UserAbandonment",
                    "flowLabel": "",
                    "mapFlowID": "",
                    "mapStepID": "",
                    "nodeLabel": "UserAbandonment",
                    "containsPii": false,
                    "elementType": "endPoint",
                    "implemented": false,
                    "loggedCount": 0
                },
                {
                    "id": "5136506d-3388-4624-9f2a-2726a677facf",
                    "tag": "F_OpenQuestion_Escalate",
                    "goto": "Escalate",
                    "oiType": false,
                    "parent": "testproject/TestPatternName/First",
                    "channel": "RWC",
                    "payload": "GOTO: Escalate",
                    "project": "test-project",
                    "subFlow": "TestPatternName",
                    "mapBotID": "",
                    "nodeType": "openQuestion",
                    "condition": "Escalate",
                    "elementID": "e057930b-2b49-4314-bddb-967eba17ebed",
                    "flowLabel": "",
                    "mapFlowID": "",
                    "mapStepID": "",
                    "nodeLabel": "OpenQuestion",
                    "containsPii": false,
                    "elementType": "flowCondition",
                    "implemented": false,
                    "loggedCount": 0
                },
                {
                    "id": "8292e389-c48d-4b82-b56c-c857d1c19394",
                    "tag": "F_OpenQuestion_Fallback",
                    "goto": "Fallback",
                    "oiType": false,
                    "parent": "testproject/TestPatternName/First",
                    "channel": "RWC",
                    "payload": "GOTO: Fallback",
                    "project": "test-project",
                    "subFlow": "TestPatternName",
                    "mapBotID": "",
                    "nodeType": "openQuestion",
                    "condition": "Fallback",
                    "elementID": "c4beca80-23b7-4d7a-8cba-aee1ccd1d974",
                    "flowLabel": "",
                    "mapFlowID": "",
                    "mapStepID": "",
                    "nodeLabel": "OpenQuestion",
                    "containsPii": false,
                    "elementType": "flowCondition",
                    "implemented": false,
                    "loggedCount": 0
                },
                {
                    "id": "8c394fb8-cfc1-41ec-af0d-a5561564dcc1",
                    "tag": "O_ClosedQuestion_Default",
                    "oiType": false,
                    "parent": "testproject/TestPatternName/First",
                    "channel": "RWC",
                    "payload": "text",
                    "project": "test-project",
                    "subFlow": "TestPatternName",
                    "mapBotID": "",
                    "nodeType": "closedQuestion",
                    "condition": "Default",
                    "elementID": "730d188f-9e03-497d-aa4c-6439bc4bbd80",
                    "flowLabel": "",
                    "mapFlowID": "",
                    "mapStepID": "",
                    "nodeLabel": "ClosedQuestion",
                    "containsPii": null,
                    "elementType": "outputCondition",
                    "implemented": false,
                    "loggedCount": 0
                },
                {
                    "id": "bacfe592-fa50-4c6d-a768-2a9223e61991",
                    "tag": "I_ClosedQuestion_OfferParser",
                    "oiType": false,
                    "parent": "testproject/TestPatternName/First",
                    "channel": "RWC",
                    "payload": "Parser: OfferParser NLUModel",
                    "project": "test-project",
                    "subFlow": "TestPatternName",
                    "mapBotID": "",
                    "nodeType": "closedQuestion",
                    "condition": "OfferParser",
                    "elementID": "605c6653-76bc-4c95-bb0d-fbfa0ba90a64",
                    "flowLabel": "",
                    "mapFlowID": "",
                    "mapStepID": "",
                    "nodeLabel": "ClosedQuestion",
                    "containsPii": false,
                    "elementType": "inputParser",
                    "implemented": false,
                    "loggedCount": 0
                },
                {
                    "id": "a5212353-47d3-41fe-a008-0322b4e6d7e7",
                    "tag": "F_ClosedQuestion_default",
                    "goto": "addPoint",
                    "oiType": false,
                    "parent": "testproject/TestPatternName/First",
                    "channel": "RWC",
                    "payload": "GOTO: addPoint",
                    "project": "test-project",
                    "subFlow": "TestPatternName",
                    "mapBotID": "",
                    "nodeType": "closedQuestion",
                    "condition": "default",
                    "elementID": "a952b88a-0442-470e-9fd7-354dafa8cee9",
                    "flowLabel": "",
                    "mapFlowID": "",
                    "mapStepID": "",
                    "nodeLabel": "ClosedQuestion",
                    "containsPii": false,
                    "elementType": "flowCondition",
                    "implemented": false,
                    "loggedCount": 0
                },
                {
                    "id": "69aa1427-8af8-4f8c-987d-86f60035c919",
                    "tag": "F_ClosedQuestion_Repair",
                    "goto": "ClosedQuestion",
                    "oiType": false,
                    "parent": "testproject/TestPatternName/First",
                    "channel": "RWC",
                    "payload": "GOTO: ClosedQuestion",
                    "project": "test-project",
                    "subFlow": "TestPatternName",
                    "mapBotID": "",
                    "nodeType": "closedQuestion",
                    "condition": "Repair",
                    "elementID": "d8efcefd-a062-4b52-81be-afa8cd590760",
                    "flowLabel": "",
                    "mapFlowID": "",
                    "mapStepID": "",
                    "nodeLabel": "ClosedQuestion",
                    "containsPii": false,
                    "elementType": "flowCondition",
                    "implemented": false,
                    "loggedCount": 0
                },
                {
                    "id": "2a37c7e1-2e92-44ed-a563-8b3daf571532",
                    "tag": "F_ClosedQuestion_UserAbandonment",
                    "goto": "UserAbandonment",
                    "oiType": false,
                    "parent": "testproject/TestPatternName/First",
                    "channel": "RWC",
                    "payload": "GOTO: UserAbandonment",
                    "project": "test-project",
                    "subFlow": "TestPatternName",
                    "mapBotID": "",
                    "nodeType": "closedQuestion",
                    "condition": "UserAbandonment",
                    "elementID": "994ea53f-d640-44e5-8f70-3e8d7f2818e7",
                    "flowLabel": "",
                    "mapFlowID": "",
                    "mapStepID": "",
                    "nodeLabel": "ClosedQuestion",
                    "containsPii": false,
                    "elementType": "flowCondition",
                    "implemented": false,
                    "loggedCount": 0
                },
                {
                    "id": "c9730c2f-90da-4d2c-8c54-a17d30784bc8",
                    "tag": "E_UserAbandonment_ClosedQuestion",
                    "oiType": false,
                    "parent": "testproject/TestPatternName/First",
                    "channel": "RWC",
                    "payload": "Endpoint: UserAbandonment fromNode=ClosedQuestion condition=UserAbandonment",
                    "project": "test-project",
                    "subFlow": "TestPatternName",
                    "mapBotID": "",
                    "nodeType": "endPoint",
                    "condition": "UserAbandonment",
                    "flowLabel": "",
                    "mapFlowID": "",
                    "mapStepID": "",
                    "nodeLabel": "UserAbandonment",
                    "containsPii": false,
                    "elementType": "endPoint",
                    "implemented": false,
                    "loggedCount": 0
                },
                {
                    "id": "b01eb916-c38d-43a3-86b5-121f3d1d4a5d",
                    "tag": "F_ClosedQuestion_Escalate",
                    "goto": "Escalate",
                    "oiType": false,
                    "parent": "testproject/TestPatternName/First",
                    "channel": "RWC",
                    "payload": "GOTO: Escalate",
                    "project": "test-project",
                    "subFlow": "TestPatternName",
                    "mapBotID": "",
                    "nodeType": "closedQuestion",
                    "condition": "Escalate",
                    "elementID": "e057930b-2b49-4314-bddb-967eba17ebed",
                    "flowLabel": "",
                    "mapFlowID": "",
                    "mapStepID": "",
                    "nodeLabel": "ClosedQuestion",
                    "containsPii": false,
                    "elementType": "flowCondition",
                    "implemented": false,
                    "loggedCount": 0
                },
                {
                    "id": "c0fbbcb0-5482-421c-bba9-7c405a7b5f5f",
                    "tag": "F_ClosedQuestion_Fallback",
                    "goto": "Fallback",
                    "oiType": false,
                    "parent": "testproject/TestPatternName/First",
                    "channel": "RWC",
                    "payload": "GOTO: Fallback",
                    "project": "test-project",
                    "subFlow": "TestPatternName",
                    "mapBotID": "",
                    "nodeType": "closedQuestion",
                    "condition": "Fallback",
                    "elementID": "c4beca80-23b7-4d7a-8cba-aee1ccd1d974",
                    "flowLabel": "",
                    "mapFlowID": "",
                    "mapStepID": "",
                    "nodeLabel": "ClosedQuestion",
                    "containsPii": false,
                    "elementType": "flowCondition",
                    "implemented": false,
                    "loggedCount": 0
                },
                {
                    "id": "7e9e5f29-71fa-49a5-bb9a-ed80fa17cde4",
                    "tag": "O_SkillRouter_default",
                    "oiType": false,
                    "parent": "testproject/TestPatternName",
                    "payload": "What can I do for you today?",
                    "project": "test-project",
                    "subFlow": "TestPatternName",
                    "mapBotID": "",
                    "nodeType": "routerMenu",
                    "condition": "default",
                    "elementID": "3626d16d-938c-4e3c-9c7f-28e66f128db3",
                    "flowLabel": "",
                    "mapFlowID": "",
                    "mapStepID": "",
                    "nodeLabel": "SkillRouter",
                    "containsPii": null,
                    "description": "",
                    "elementType": "outputCondition",
                    "implemented": false,
                    "loggedCount": 0
                },
                {
                    "id": "7893d97d-f966-4581-ab67-bf9b811288ca",
                    "tag": "F_SkillRouter_default",
                    "goto": "Tag",
                    "oiType": false,
                    "parent": "testproject/TestPatternName",
                    "payload": "GOTO: Tag",
                    "project": "test-project",
                    "subFlow": "TestPatternName",
                    "mapBotID": "",
                    "nodeType": "routerMenu",
                    "condition": "default",
                    "elementID": "6c7e8a34-a4dd-46d9-bbd3-c2c52d36a411",
                    "flowLabel": "",
                    "mapFlowID": "",
                    "mapStepID": "",
                    "nodeLabel": "SkillRouter",
                    "containsPii": false,
                    "description": " ",
                    "elementType": "flowCondition",
                    "implemented": false,
                    "loggedCount": 0
                },
                {
                    "id": "4e3e0ba2-5b0b-485d-880b-96d9037dd72d",
                    "tag": "F_SkillRouter_UserAbandonment",
                    "goto": "UserAbandonment",
                    "oiType": false,
                    "parent": "testproject/TestPatternName",
                    "payload": "GOTO: UserAbandonment",
                    "project": "test-project",
                    "subFlow": "TestPatternName",
                    "mapBotID": "",
                    "nodeType": "routerMenu",
                    "condition": "UserAbandonment",
                    "elementID": "b3385937-d4a4-41b9-b135-f7fb191f35a1",
                    "flowLabel": "",
                    "mapFlowID": "",
                    "mapStepID": "",
                    "nodeLabel": "SkillRouter",
                    "containsPii": false,
                    "elementType": "flowCondition",
                    "implemented": false,
                    "loggedCount": 0
                },
                {
                    "id": "962b97b4-e632-40ab-965b-75c941ed758c",
                    "tag": "G_UserAbandonment_SkillRouter",
                    "oiType": false,
                    "parent": "testproject/TestPatternName",
                    "payload": "Outcome: UserAbandonment type=outcomePoint fromNode=SkillRouter condition=UserAbandonment",
                    "project": "test-project",
                    "subFlow": "TestPatternName",
                    "mapBotID": "",
                    "nodeType": "outcomePoint",
                    "condition": "UserAbandonment",
                    "elementID": "UserAbandonment",
                    "flowLabel": "",
                    "mapFlowID": "",
                    "mapStepID": "",
                    "nodeLabel": "UserAbandonment",
                    "containsPii": false,
                    "description": "Global User Abandonment",
                    "elementType": "outcomePoint",
                    "implemented": false,
                    "loggedCount": 0
                },
                {
                    "id": "742289f9-cc2f-4bcf-9fc3-047425effcb3",
                    "tag": "F_SkillRouter_Escalate",
                    "goto": "Escalate",
                    "oiType": false,
                    "parent": "testproject/TestPatternName",
                    "payload": "GOTO: Escalate",
                    "project": "test-project",
                    "subFlow": "TestPatternName",
                    "mapBotID": "",
                    "nodeType": "routerMenu",
                    "condition": "Escalate",
                    "elementID": "be617d14-9490-447a-bf8d-abfaca22ce88",
                    "flowLabel": "",
                    "mapFlowID": "",
                    "mapStepID": "",
                    "nodeLabel": "SkillRouter",
                    "containsPii": false,
                    "elementType": "flowCondition",
                    "implemented": false,
                    "loggedCount": 0
                },
                {
                    "id": "7e3da2a9-9c01-4073-9616-0c2de2b319c4",
                    "tag": "F_SkillRouter_Fallback",
                    "goto": "Fallback",
                    "oiType": false,
                    "parent": "testproject/TestPatternName",
                    "payload": "GOTO: Fallback",
                    "project": "test-project",
                    "subFlow": "TestPatternName",
                    "mapBotID": "",
                    "nodeType": "routerMenu",
                    "condition": "Fallback",
                    "elementID": "a996a5a9-0303-4982-aae8-734f7ee2cf17",
                    "flowLabel": "",
                    "mapFlowID": "",
                    "mapStepID": "",
                    "nodeLabel": "SkillRouter",
                    "containsPii": false,
                    "elementType": "flowCondition",
                    "implemented": false,
                    "loggedCount": 0
                },
                {
                    "id": "400927a1-e382-4b03-9139-589d58852fc4",
                    "tag": "F_Tag_UserAbandonment",
                    "goto": "UserAbandonment",
                    "oiType": false,
                    "parent": "testproject/TestPatternName",
                    "payload": "GOTO: UserAbandonment",
                    "project": "test-project",
                    "subFlow": "TestPatternName",
                    "mapBotID": "",
                    "nodeType": "tagNode",
                    "condition": "UserAbandonment",
                    "elementID": "b3385937-d4a4-41b9-b135-f7fb191f35a1",
                    "flowLabel": "",
                    "mapFlowID": "",
                    "mapStepID": "",
                    "nodeLabel": "Tag",
                    "containsPii": false,
                    "elementType": "flowCondition",
                    "implemented": false,
                    "loggedCount": 0
                },
                {
                    "id": "d7427b17-1ed2-409f-86b4-780295509b1d",
                    "tag": "G_UserAbandonment_Tag",
                    "oiType": false,
                    "parent": "testproject/TestPatternName",
                    "payload": "Outcome: UserAbandonment type=outcomePoint fromNode=Tag condition=UserAbandonment",
                    "project": "test-project",
                    "subFlow": "TestPatternName",
                    "mapBotID": "",
                    "nodeType": "outcomePoint",
                    "condition": "UserAbandonment",
                    "elementID": "UserAbandonment",
                    "flowLabel": "",
                    "mapFlowID": "",
                    "mapStepID": "",
                    "nodeLabel": "UserAbandonment",
                    "containsPii": false,
                    "description": "Global User Abandonment",
                    "elementType": "outcomePoint",
                    "implemented": false,
                    "loggedCount": 0
                },
                {
                    "id": "5486571e-ae47-4149-be17-ae48f17027f4",
                    "tag": "F_Tag_Escalate",
                    "goto": "Escalate",
                    "oiType": false,
                    "parent": "testproject/TestPatternName",
                    "payload": "GOTO: Escalate",
                    "project": "test-project",
                    "subFlow": "TestPatternName",
                    "mapBotID": "",
                    "nodeType": "tagNode",
                    "condition": "Escalate",
                    "elementID": "be617d14-9490-447a-bf8d-abfaca22ce88",
                    "flowLabel": "",
                    "mapFlowID": "",
                    "mapStepID": "",
                    "nodeLabel": "Tag",
                    "containsPii": false,
                    "elementType": "flowCondition",
                    "implemented": false,
                    "loggedCount": 0
                },
                {
                    "id": "5e2dc916-d3ee-424f-a0a0-3c9f85e199a9",
                    "tag": "F_Tag_Fallback",
                    "goto": "Fallback",
                    "oiType": false,
                    "parent": "testproject/TestPatternName",
                    "payload": "GOTO: Fallback",
                    "project": "test-project",
                    "subFlow": "TestPatternName",
                    "mapBotID": "",
                    "nodeType": "tagNode",
                    "condition": "Fallback",
                    "elementID": "a996a5a9-0303-4982-aae8-734f7ee2cf17",
                    "flowLabel": "",
                    "mapFlowID": "",
                    "mapStepID": "",
                    "nodeLabel": "Tag",
                    "containsPii": false,
                    "elementType": "flowCondition",
                    "implemented": false,
                    "loggedCount": 0
                }
            ],
            "parent": "projectcreatedbye2e_1662739461911",
            "channels": [
                {
                    "id": "RWC",
                    "type": "channel",
                    "label": "RWC",
                    "description": "Rich webchat UI"
                },
                {
                    "id": "IVR",
                    "type": "channel",
                    "label": "IVR",
                    "description": "Voice over the phone"
                }
            ],
            "entities": [],
            "flowData": [
                {
                    "id": "03f67d37-8f97-43cb-ba91-6a85c7ce9097",
                    "flow": [
                        {
                            "id": "93f40984-d834-4282-9fc2-9e2cbe05dc31",
                            "type": "flowCondition",
                            "label": "default",
                            "order": 1,
                            "toNode": "First",
                            "description": " ",
                            "gotoNodeType": "normal"
                        }
                    ],
                    "type": "node",
                    "label": "Start",
                    "parent": "projectcreatedbye2e_1662739461911/general",
                    "nodeType": "startPoint",
                    "parentId": "6f5cee28-8c92-4675-8782-e89f9cd32205/7a6cac9f-cfb9-4c6e-ac83-cb5df1ee5095",
                    "diagramLoc": "48 0",
                    "description": "Pattern Flow Start",
                    "applyInputsToFlow": false,
                    "nodeDisplayOption": "description"
                },
                {
                    "id": "0be7b27b-4d50-44b3-a473-58ba4f620516",
                    "flow": [
                        {
                            "id": "0e1d4298-13b9-4dd6-9a92-e5cebc634bbc",
                            "type": "flowCondition",
                            "label": "default",
                            "order": 1,
                            "toNode": "SkillRouter",
                            "linkType": "down",
                            "description": " ",
                            "gotoNodeType": "normal"
                        }
                    ],
                    "type": "node",
                    "label": "First",
                    "parent": "projectcreatedbye2e_1662739461911/general",
                    "nodeType": "subFlow",
                    "parentId": "6f5cee28-8c92-4675-8782-e89f9cd32205/7a6cac9f-cfb9-4c6e-ac83-cb5df1ee5095",
                    "subflowId": "7cb8f8e4-6444-4a6e-a710-1bf55f1a7f80",
                    "diagramLoc": "-280 180",
                    "containsPii": false,
                    "description": "RWC channel only",
                    "applyInputsToFlow": false,
                    "nodeDisplayOption": "description"
                },
                {
                    "id": "b014897b-f1fb-4b78-80a2-3a02534c02b9",
                    "flow": [
                        {
                            "id": "6c7e8a34-a4dd-46d9-bbd3-c2c52d36a411",
                            "type": "flowCondition",
                            "label": "default",
                            "order": 1,
                            "toNode": "Tag",
                            "linkType": "down",
                            "description": " ",
                            "gotoNodeType": "normal"
                        }
                    ],
                    "type": "node",
                    "label": "SkillRouter",
                    "output": [
                        {
                            "id": "3626d16d-938c-4e3c-9c7f-28e66f128db3",
                            "type": "outputCondition",
                            "label": "default",
                            "content": [
                                {
                                    "id": "ae577a0c-f97b-461d-afa7-1c8330be74a8",
                                    "value": "What can I do for you today?"
                                }
                            ],
                            "description": ""
                        }
                    ],
                    "parent": "projectcreatedbye2e_1662739461911/general",
                    "skills": [],
                    "channels": [],
                    "nodeType": "routerMenu",
                    "parentId": "6f5cee28-8c92-4675-8782-e89f9cd32205/7a6cac9f-cfb9-4c6e-ac83-cb5df1ee5095",
                    "diagramLoc": "240 370",
                    "description": "routerMenu descr",
                    "applyInputsToFlow": false,
                    "nodeDisplayOption": "description"
                },
                {
                    "id": "0da55354-0138-4dde-b70d-f3fb29a041c9",
                    "flow": [],
                    "type": "node",
                    "label": "Tag",
                    "parent": "projectcreatedbye2e_1662739461911/general",
                    "nodeType": "tagNode",
                    "parentId": "6f5cee28-8c92-4675-8782-e89f9cd32205/7a6cac9f-cfb9-4c6e-ac83-cb5df1ee5095",
                    "diagramLoc": "-340 520",
                    "containsPii": false,
                    "description": "tag descr",
                    "applyInputsToFlow": false,
                    "nodeDisplayOption": "description"
                }
            ],
            "nodeType": "pattern",
            "outcomes": [
                {
                    "id": "63a600c7-d407-4234-9160-2c518d8708ab",
                    "type": "outcome",
                    "color": "#8FBCFF",
                    "label": "HITL",
                    "reasons": [],
                    "percentage": 33,
                    "description": "Human in the Loop",
                    "outcomeType": "Project",
                    "outcomeValue": "Neutral"
                },
                {
                    "id": "1fa0dca1-7483-4794-a86f-9c0cae83590a",
                    "type": "outcome",
                    "color": "#FFBFCB",
                    "label": "Abandon",
                    "reasons": [],
                    "percentage": 33,
                    "description": "User exits system without completion point.",
                    "outcomeType": "Project",
                    "outcomeValue": "Negative"
                }
            ],
            "parentId": "6f5cee28-8c92-4675-8782-e89f9cd32205",
            "subflows": [
                {
                    "id": "7cb8f8e4-6444-4a6e-a710-1bf55f1a7f80",
                    "type": "subFlow",
                    "label": "First",
                    "parent": "projectcreatedbye2e_1662739461911/general",
                    "parentId": "6f5cee28-8c92-4675-8782-e89f9cd32205/7a6cac9f-cfb9-4c6e-ac83-cb5df1ee5095",
                    "subflows": [
                        {
                            "id": "6cc13fcd-0cea-40c5-bb8b-f3ab7a82dbda",
                            "type": "subFlow",
                            "label": "Subflow2",
                            "parent": "projectcreatedbye2e_1662739461911/general/First",
                            "parentId": "6f5cee28-8c92-4675-8782-e89f9cd32205/7a6cac9f-cfb9-4c6e-ac83-cb5df1ee5095/7cb8f8e4-6444-4a6e-a710-1bf55f1a7f80",
                            "subflows": [],
                            "description": "descr",
                            "flowDataSet": [
                                {
                                    "channel": {
                                        "id": "RWC",
                                        "type": "channel",
                                        "label": "RWC",
                                        "description": "Rich webchat UI"
                                    },
                                    "flowData": [
                                        {
                                            "id": "2affaa96-f50f-4bd6-bd4f-c34049f3660b",
                                            "flow": [
                                                {
                                                    "id": "02e471b2-d8db-4ccf-a3e7-a9c865c3be6c",
                                                    "type": "flowCondition",
                                                    "label": "default",
                                                    "order": 1,
                                                    "toNode": "addPoint",
                                                    "description": "Start Experience"
                                                }
                                            ],
                                            "type": "node",
                                            "label": "Start",
                                            "parent": "projectcreatedbye2e_1662739461911/general/First/Subflow2",
                                            "nodeType": "startPoint",
                                            "parentId": "6f5cee28-8c92-4675-8782-e89f9cd32205/7a6cac9f-cfb9-4c6e-ac83-cb5df1ee5095/7cb8f8e4-6444-4a6e-a710-1bf55f1a7f80/6cc13fcd-0cea-40c5-bb8b-f3ab7a82dbda",
                                            "description": "Pattern Flow Start",
                                            "applyInputsToFlow": false,
                                            "nodeDisplayOption": "description"
                                        }
                                    ]
                                }
                            ]
                        }
                    ],
                    "description": "RWC channel only",
                    "flowDataSet": [
                        {
                            "channel": {
                                "id": "RWC",
                                "type": "channel",
                                "label": "RWC",
                                "description": "Rich webchat UI"
                            },
                            "flowData": [
                                {
                                    "id": "e00ddc18-e56b-4f11-8c0a-9b0a70131f40",
                                    "flow": [
                                        {
                                            "id": "b34b2912-b8f4-41d7-9f2c-959194cf0159",
                                            "type": "flowCondition",
                                            "label": "default",
                                            "order": 1,
                                            "toNode": "Subflow2",
                                            "description": " ",
                                            "gotoNodeType": "normal"
                                        }
                                    ],
                                    "type": "node",
                                    "label": "Start",
                                    "parent": "projectcreatedbye2e_1662739461911/general/First",
                                    "nodeType": "startPoint",
                                    "parentId": "6f5cee28-8c92-4675-8782-e89f9cd32205/7a6cac9f-cfb9-4c6e-ac83-cb5df1ee5095/7cb8f8e4-6444-4a6e-a710-1bf55f1a7f80",
                                    "description": "Pattern Flow Start",
                                    "applyInputsToFlow": false,
                                    "nodeDisplayOption": "description"
                                },
                                {
                                    "id": "52d9f472-af2b-4a30-aab5-c5f6a9cd12e3",
                                    "flow": [
                                        {
                                            "id": "59c3d803-2465-4da4-805b-965838769640",
                                            "type": "flowCondition",
                                            "label": "default",
                                            "order": 1,
                                            "toNode": "Tag2",
                                            "linkType": "down",
                                            "description": " ",
                                            "gotoNodeType": "normal"
                                        }
                                    ],
                                    "type": "node",
                                    "label": "Subflow2",
                                    "parent": "projectcreatedbye2e_1662739461911/general/First",
                                    "nodeType": "subFlow",
                                    "parentId": "6f5cee28-8c92-4675-8782-e89f9cd32205/7a6cac9f-cfb9-4c6e-ac83-cb5df1ee5095/7cb8f8e4-6444-4a6e-a710-1bf55f1a7f80",
                                    "subflowId": "6cc13fcd-0cea-40c5-bb8b-f3ab7a82dbda",
                                    "containsPii": false,
                                    "description": "descr",
                                    "applyInputsToFlow": false,
                                    "nodeDisplayOption": "description"
                                },
                                {
                                    "id": "28c3742d-6ce5-47b2-a316-b48ace43adaf",
                                    "flow": [
                                        {
                                            "id": "6b1d362d-ee52-48b4-b85c-da06caec654d",
                                            "type": "flowCondition",
                                            "label": "default",
                                            "order": 1,
                                            "toNode": "Prompt",
                                            "linkType": "down",
                                            "description": "link descr",
                                            "gotoNodeType": "normal"
                                        }
                                    ],
                                    "type": "node",
                                    "label": "Tag2",
                                    "parent": "projectcreatedbye2e_1662739461911/general/First",
                                    "nodeType": "tagNode",
                                    "parentId": "6f5cee28-8c92-4675-8782-e89f9cd32205/7a6cac9f-cfb9-4c6e-ac83-cb5df1ee5095/7cb8f8e4-6444-4a6e-a710-1bf55f1a7f80",
                                    "containsPii": false,
                                    "description": "tag descr",
                                    "applyInputsToFlow": false,
                                    "nodeDisplayOption": "description"
                                },
                                {
                                    "id": "e357acbe-770a-48c1-bc4e-b3b471475075",
                                    "flow": [
                                        {
                                            "id": "6d684461-cc71-41b1-b71f-14e0038230eb",
                                            "type": "flowCondition",
                                            "label": "default",
                                            "order": 1,
                                            "toNode": "OpenQuestion",
                                            "linkType": "down",
                                            "description": "link descr",
                                            "gotoNodeType": "normal"
                                        }
                                    ],
                                    "type": "node",
                                    "input": [],
                                    "label": "Prompt",
                                    "output": [
                                        {
                                            "id": "087f2ec1-16f2-4e71-940e-18ba4e4d5691",
                                            "type": "outputCondition",
                                            "label": "Default",
                                            "edited": true,
                                            "content": [
                                                {
                                                    "id": "2432122e-4537-4d69-8079-2fe66adf7fb0",
                                                    "value": "text",
                                                    "channel": "RWC",
                                                    "dynamic": false,
                                                    "contentType": "Prompt"
                                                }
                                            ],
                                            "template": false
                                        }
                                    ],
                                    "parent": "projectcreatedbye2e_1662739461911/general/First",
                                    "nodeType": "prompt",
                                    "parentId": "6f5cee28-8c92-4675-8782-e89f9cd32205/7a6cac9f-cfb9-4c6e-ac83-cb5df1ee5095/7cb8f8e4-6444-4a6e-a710-1bf55f1a7f80",
                                    "nodeRules": {
                                        "id": "3d16bc7e-3b0f-46d9-a946-a551d0ee20f0",
                                        "repairRules": [],
                                        "useGlobalRepairs": true,
                                        "useGlobalEscalate": true,
                                        "useGlobalFallback": true
                                    },
                                    "templateId": "defaultPromptTemplate",
                                    "containsPii": false,
                                    "description": "prompt descr",
                                    "applyInputsToFlow": false,
                                    "nodeDisplayOption": "description"
                                },
                                {
                                    "id": "54969173-4526-437a-a022-c5d2a3affc95",
                                    "flow": [
                                        {
                                            "id": "6c6b4e21-efa7-4925-8687-f963bf3db2e8",
                                            "type": "flowCondition",
                                            "label": "default",
                                            "order": 1,
                                            "toNode": "ClosedQuestion",
                                            "linkType": "down",
                                            "description": "closedq link descr",
                                            "gotoNodeType": "normal"
                                        },
                                        {
                                            "id": "743f8cc1-b666-4056-b117-3dff7e2fbc5f",
                                            "type": "flowCondition",
                                            "label": "Repair",
                                            "order": 2,
                                            "toNode": "OpenQuestion",
                                            "linkType": "loop"
                                        }
                                    ],
                                    "type": "node",
                                    "input": [],
                                    "label": "OpenQuestion",
                                    "output": [
                                        {
                                            "id": "80391562-a79c-4f40-bffd-28c22ebc7c3d",
                                            "type": "outputCondition",
                                            "label": "Default",
                                            "edited": true,
                                            "content": [
                                                {
                                                    "id": "81315c6f-f8d6-4693-84b7-363c7b7f169a",
                                                    "value": "prompt",
                                                    "channel": "RWC",
                                                    "dynamic": false,
                                                    "contentType": "Prompt"
                                                }
                                            ],
                                            "template": false
                                        }
                                    ],
                                    "parent": "projectcreatedbye2e_1662739461911/general/First",
                                    "nodeType": "openQuestion",
                                    "parentId": "6f5cee28-8c92-4675-8782-e89f9cd32205/7a6cac9f-cfb9-4c6e-ac83-cb5df1ee5095/7cb8f8e4-6444-4a6e-a710-1bf55f1a7f80",
                                    "nodeRules": {
                                        "repairRules": [],
                                        "useGlobalRepairs": true,
                                        "useGlobalEscalate": true,
                                        "useGlobalFallback": true
                                    },
                                    "templateId": "defaultOpenTemplate",
                                    "containsPii": false,
                                    "description": "openq descr",
                                    "channelSettings": {
                                        "acceptTextInput": true,
                                        "openInputButtonLabel": "",
                                        "useOpenInputControls": false,
                                        "closedInputButtonType": "Carousel",
                                        "openInputPlaceholderText": ""
                                    },
                                    "applyInputsToFlow": false,
                                    "nodeDisplayOption": "description"
                                },
                                {
                                    "id": "7e3d57d4-fd69-4647-9c80-5b6491505103",
                                    "flow": [
                                        {
                                            "id": "a952b88a-0442-470e-9fd7-354dafa8cee9",
                                            "type": "flowCondition",
                                            "label": "default",
                                            "order": 1,
                                            "toNode": "addPoint",
                                            "linkType": "down"
                                        },
                                        {
                                            "id": "d8efcefd-a062-4b52-81be-afa8cd590760",
                                            "type": "flowCondition",
                                            "label": "Repair",
                                            "order": 2,
                                            "toNode": "ClosedQuestion",
                                            "linkType": "loop"
                                        }
                                    ],
                                    "type": "node",
                                    "input": [
                                        {
                                            "id": "605c6653-76bc-4c95-bb0d-fbfa0ba90a64",
                                            "type": "inputCondition",
                                            "label": "OfferParser",
                                            "order": 1,
                                            "parser": "HelloModel",
                                            "inputType": "NLUModel"
                                        }
                                    ],
                                    "label": "ClosedQuestion",
                                    "output": [
                                        {
                                            "id": "730d188f-9e03-497d-aa4c-6439bc4bbd80",
                                            "type": "outputCondition",
                                            "label": "Default",
                                            "edited": true,
                                            "content": [
                                                {
                                                    "id": "c27c7794-493a-4671-84a7-49e9bab5fe88",
                                                    "value": "text",
                                                    "channel": "RWC",
                                                    "dynamic": false,
                                                    "contentType": "Prompt"
                                                }
                                            ],
                                            "template": false
                                        }
                                    ],
                                    "parent": "projectcreatedbye2e_1662739461911/general/First",
                                    "nodeType": "closedQuestion",
                                    "parentId": "6f5cee28-8c92-4675-8782-e89f9cd32205/7a6cac9f-cfb9-4c6e-ac83-cb5df1ee5095/7cb8f8e4-6444-4a6e-a710-1bf55f1a7f80",
                                    "nodeRules": {
                                        "repairRules": [],
                                        "useGlobalRepairs": true,
                                        "useGlobalEscalate": true,
                                        "useGlobalFallback": true
                                    },
                                    "templateId": "defaultClosedTemplate",
                                    "containsPii": false,
                                    "description": "closedq descr",
                                    "channelSettings": {
                                        "acceptTextInput": true,
                                        "openInputButtonLabel": "",
                                        "useOpenInputControls": false,
                                        "closedInputButtonType": "Carousel",
                                        "openInputPlaceholderText": ""
                                    },
                                    "applyInputsToFlow": false,
                                    "nodeDisplayOption": "description"
                                }
                            ]
                        }
                    ]
                }
            ],
            "description": "Test Description",
            "patternType": "Agent",
            "entityGroups": [
                {
                    "id": "3edd65f8-aeaa-4b1f-b790-df98682542b6",
                    "type": "entityGroup",
                    "label": "defaultEntityGroup",
                    "dependsOn": [],
                    "primaryKey": "default",
                    "description": "defaultEntityGroup",
                    "sharedEndPoint": false
                }
            ]
        }
    ],
    "templates": {
        "YesNoTemplateId": {
            "id": "YesNoTemplateId",
            "label": "YesNoQuestion",
            "hasPre": true,
            "hasPost": true,
            "hasRepair": true,
            "description": "This is the default ClosedQuestion template",
            "templateType": "closedQuestion",
            "channelConditions": [
                {
                    "flow": [],
                    "input": {
                        "models": [
                            {
                                "id": "0dbacff5-1a0a-484b-891e-64414bc28f1d",
                                "type": "inputCondition",
                                "label": "Yes",
                                "parser": "yes, yeah, yah",
                                "inputType": "Matcher",
                                "containsPii": false,
                                "description": "positive user response"
                            },
                            {
                                "id": "048d5821-34b3-40d4-b663-b0cb0217e192",
                                "type": "inputCondition",
                                "label": "No",
                                "parser": "no, nope, nah",
                                "inputType": "Matcher",
                                "containsPii": false,
                                "description": "negative user response"
                            }
                        ]
                    },
                    "output": [],
                    "channelId": "IVR"
                },
                {
                    "flow": [],
                    "input": {
                        "models": [
                            {
                                "id": "659f5043-ee3c-49a7-a756-92dd8511746e",
                                "type": "inputCondition",
                                "label": "Yes",
                                "parser": "yes, yeah, yah",
                                "inputType": "Matcher",
                                "containsPii": false,
                                "description": "positive user response"
                            },
                            {
                                "id": "9267c713-c3b9-4067-b00c-920b9d8bb8b6",
                                "type": "inputCondition",
                                "label": "No",
                                "parser": "no, nope, nah",
                                "inputType": "Matcher",
                                "containsPii": false,
                                "description": "negative user response"
                            }
                        ]
                    },
                    "output": [],
                    "channelId": "RWC"
                },
                {
                    "flow": [],
                    "input": {
                        "models": [
                            {
                                "id": "22a30bbc-2956-4242-b08b-24eee49984b4",
                                "type": "inputCondition",
                                "label": "Yes",
                                "parser": "yes, yeah, yah",
                                "inputType": "Matcher",
                                "containsPii": false,
                                "description": "positive user response"
                            },
                            {
                                "id": "16068b9c-2ab0-4108-9075-baa24fcb51bc",
                                "type": "inputCondition",
                                "label": "No",
                                "parser": "no, nope, nah",
                                "inputType": "Matcher",
                                "containsPii": false,
                                "description": "negative user response"
                            }
                        ]
                    },
                    "output": [],
                    "channelId": "SMS"
                },
                {
                    "flow": [],
                    "input": {
                        "models": []
                    },
                    "output": [],
                    "channelId": "App"
                },
                {
                    "flow": [],
                    "input": {
                        "models": [
                            {
                                "id": "f6143384-e2a1-486c-97a8-68086af67456",
                                "type": "inputCondition",
                                "label": "Yes",
                                "parser": "yes, yeah, yah",
                                "inputType": "Matcher",
                                "containsPii": false,
                                "description": "positive user response"
                            },
                            {
                                "id": "ea758e6b-1aa3-445a-bba8-09b001e61791",
                                "type": "inputCondition",
                                "label": "No",
                                "parser": "no, nope, nah",
                                "inputType": "Matcher",
                                "containsPii": false,
                                "description": "negative user response"
                            }
                        ]
                    },
                    "output": [],
                    "channelId": "rSMS"
                },
                {
                    "flow": [],
                    "input": {
                        "models": [
                            {
                                "id": "a62ad6db-1e82-4040-b6c8-6f8d45c78ad5",
                                "type": "inputCondition",
                                "label": "Yes",
                                "parser": "yes, yeah, yah",
                                "inputType": "Matcher",
                                "containsPii": false,
                                "description": "positive user response"
                            },
                            {
                                "id": "0a3badd4-7df7-4210-a531-c60b737442b5",
                                "type": "inputCondition",
                                "label": "No",
                                "parser": "no, nope, nah",
                                "inputType": "Matcher",
                                "containsPii": false,
                                "description": "negative user response"
                            }
                        ]
                    },
                    "output": [],
                    "channelId": "VoIP"
                }
            ]
        },
        "defaultOpenTemplate": {
            "id": "defaultOpenTemplate",
            "label": "DefaultOpenTemplate",
            "hasPre": true,
            "hasPost": true,
            "hasRepair": true,
            "description": "This is the default open template.",
            "templateType": "openQuestion",
            "channelConditions": [
                {
                    "flow": [],
                    "input": {
                        "models": []
                    },
                    "output": [],
                    "channelId": "IVR"
                },
                {
                    "flow": [],
                    "input": {
                        "models": []
                    },
                    "output": [],
                    "channelId": "RWC"
                },
                {
                    "flow": [],
                    "input": {
                        "models": []
                    },
                    "output": [],
                    "channelId": "SMS"
                },
                {
                    "flow": [],
                    "input": {
                        "models": []
                    },
                    "output": [],
                    "channelId": "App"
                },
                {
                    "flow": [],
                    "input": {
                        "models": []
                    },
                    "output": [],
                    "channelId": "rSMS"
                },
                {
                    "flow": [],
                    "input": {
                        "models": []
                    },
                    "output": [],
                    "channelId": "VoIP"
                }
            ]
        },
        "defaultClosedTemplate": {
            "id": "defaultClosedTemplate",
            "label": "DefaultClosedTemplate",
            "hasPre": true,
            "hasPost": true,
            "hasRepair": true,
            "description": "This is the default closed template.",
            "templateType": "closedQuestion",
            "channelConditions": [
                {
                    "flow": [],
                    "input": {
                        "models": []
                    },
                    "output": [],
                    "channelId": "IVR"
                },
                {
                    "flow": [],
                    "input": {
                        "models": []
                    },
                    "output": [],
                    "channelId": "RWC"
                },
                {
                    "flow": [],
                    "input": {
                        "models": []
                    },
                    "output": [],
                    "channelId": "SMS"
                },
                {
                    "flow": [],
                    "input": {
                        "models": []
                    },
                    "output": [],
                    "channelId": "App"
                },
                {
                    "flow": [],
                    "input": {
                        "models": []
                    },
                    "output": [],
                    "channelId": "rSMS"
                },
                {
                    "flow": [],
                    "input": {
                        "models": []
                    },
                    "output": [],
                    "channelId": "VoIP"
                }
            ]
        },
        "defaultPromptTemplate": {
            "id": "defaultPromptTemplate",
            "label": "DefaultPromptTemplate",
            "hasPre": true,
            "hasPost": true,
            "hasRepair": true,
            "description": "This is the default prompt template.",
            "templateType": "prompt",
            "channelConditions": [
                {
                    "flow": [],
                    "input": {
                        "models": []
                    },
                    "output": [],
                    "channelId": "IVR"
                },
                {
                    "flow": [],
                    "input": {
                        "models": []
                    },
                    "output": [],
                    "channelId": "RWC"
                },
                {
                    "flow": [],
                    "input": {
                        "models": []
                    },
                    "output": [],
                    "channelId": "SMS"
                },
                {
                    "flow": [],
                    "input": {
                        "models": []
                    },
                    "output": [],
                    "channelId": "App"
                },
                {
                    "flow": [],
                    "input": {
                        "models": []
                    },
                    "output": [],
                    "channelId": "rSMS"
                },
                {
                    "flow": [],
                    "input": {
                        "models": []
                    },
                    "output": [],
                    "channelId": "VoIP"
                }
            ]
        }
    },
    "description": "",
    "projectType": "None",
    "destinationPdes": [],
    "outcomesBaseline": [],
    "globalRepairRules": [
        {
            "id": "OOCRule",
            "label": "Out of Context",
            "outcome": "fallback",
            "repairType": "outOfContext",
            "description": "Out of context response are when the NLU is unable to classify the user's input. The user is asked to repeat.",
            "numberOfAttempts": 2
        },
        {
            "id": "NRRule",
            "label": "No Response",
            "outcome": "fallback",
            "repairType": "noResponse",
            "description": "No response is when the user does not provide any input. The system will reprompt the user to provide a response",
            "numberOfAttempts": 2
        },
        {
            "id": "ARRule",
            "label": "Agent Request",
            "outcome": "escalate",
            "repairType": "agentRequest",
            "description": "User requests Agent Transfer will trigger an Escalate flow",
            "numberOfAttempts": 1
        },
        {
            "id": "MRBFrule",
            "label": "Maximum Repair before Fallback",
            "outcome": "fallback",
            "repairType": "maximum",
            "description": "Total number of repairs before triggering a fallback action. Fallback should be offering another channel or escalating to an agent",
            "numberOfAttempts": 3
        }
    ],
    "projectObjectVersion": 1
}