{
    "type": "project",
    "cards": {},
    "label": "Automation Project",
    "parent": "",
    "outcomes": [
      {
        "id": "escalate",
        "type": "outcome",
        "color": "#8FBCFF",
        "label": "Escalate",
        "description": "User is moved to Global Agent Transfer pattern, passing along flow and context.",
        "outcomeType": "Global",
        "outcomeValue": "Neutral",
        "destinationPattern": ""
      },
      {
        "id": "fallback",
        "type": "outcome",
        "color": "#EBBFFF",
        "label": "Fallback",
        "description": "If user is stuck in n or more repairs on the voice channel. Offer alternate channel if available, or switch to easier input.",
        "outcomeType": "Global",
        "outcomeValue": "Neutral",
        "destinationPattern": ""
      },
      {
        "id": "0b618a6b-f6fe-45f3-afcc-fe4f87052147",
        "type": "outcome",
        "color": "#FFBFCB",
        "label": "Abandon",
        "reasons": [],
        "percentage": 33,
        "description": "User exits system without completion point.",
        "outcomeType": "Project",
        "outcomeValue": "Negative"
      },
      {
        "id": "36eece74-b55b-4afa-ba5c-61b1c93bc1f6",
        "type": "outcome",
        "color": "#8FBCFF",
        "label": "HITL",
        "reasons": [],
        "percentage": 33,
        "description": "Human in the Loop",
        "outcomeType": "Project",
        "outcomeValue": "Neutral"
      },
      {
        "id": "e47820be-d01f-40bc-bc77-a84eabc6a3d9",
        "type": "outcome",
        "color": "#FFED8F",
        "label": "Contained",
        "reasons": [],
        "percentage": 33,
        "description": "User completes task without Human Assistance, Golden Call.",
        "outcomeType": "Project",
        "outcomeValue": "Positive"
      }
    ],
    "parentId": "",
    "patterns": [
      {
        "id": "579276a2-af20-489c-a1e7-ec1fb9255fe3",
        "type": "pattern",
        "label": "Pattern to Edit",
        "mapper": [],
        "parent": "AutomationProject_1676727800162",
        "channels": [
          {
            "id": "IVR",
            "type": "channel",
            "label": "IVR",
            "description": "Voice over the phone"
          },
          {
            "id": "RWC",
            "type": "channel",
            "label": "RWC",
            "description": "Rich webchat UI"
          },
          {
            "id": "SMS",
            "type": "channel",
            "label": "SMS",
            "description": "Text messaging"
          },
          {
            "id": "App",
            "type": "channel",
            "label": "App",
            "description": "Mobile app"
          },
          {
            "id": "VoIP",
            "type": "channel",
            "label": "VoIP",
            "description": "Voice over Internet Protocol in browser"
          }
        ],
        "entities": [],
        "flowData": [
          {
            "id": "4d24cb84-a94c-402d-aa9d-7f7209dd6ab9",
            "flow": [
              {
                "id": "7333ffe3-5168-4e30-a8cb-ba23d69f329f",
                "type": "flowCondition",
                "label": "default",
                "order": 1,
                "toNode": "addPoint",
                "description": "Start Experience"
              }
            ],
            "type": "node",
            "label": "Start",
            "parent": "AutomationProject_1676727800162/PatterntoEdit",
            "nodeType": "startPoint",
            "parentId": "96a19446-25e4-42da-ba73-6990e30ed9c6/114e7225-c076-46c9-99b4-c937de00186f",
            "description": "Pattern Flow Start",
            "applyInputsToFlow": false,
            "nodeDisplayOption": "description"
          }
        ],
        "nodeType": "pattern",
        "outcomes": [
          {
            "id": "36eece74-b55b-4afa-ba5c-61b1c93bc1f6",
            "type": "outcome",
            "color": "#8FBCFF",
            "label": "HITL",
            "reasons": [],
            "percentage": 33,
            "description": "Human in the Loop",
            "outcomeType": "Project",
            "outcomeValue": "Neutral"
          },
          {
            "id": "0b618a6b-f6fe-45f3-afcc-fe4f87052147",
            "type": "outcome",
            "color": "#FFBFCB",
            "label": "Abandon",
            "reasons": [],
            "percentage": 33,
            "description": "User exits system without completion point.",
            "outcomeType": "Project",
            "outcomeValue": "Negative"
          },
          {
            "id": "e47820be-d01f-40bc-bc77-a84eabc6a3d9",
            "type": "outcome",
            "color": "#FFED8F",
            "label": "Contained",
            "reasons": [],
            "percentage": 33,
            "description": "User completes task without Human Assistance, Golden Call.",
            "outcomeType": "Project",
            "outcomeValue": "Positive"
          },
          {
            "id": "escalate",
            "type": "outcome",
            "color": "#8FBCFF",
            "label": "Escalate",
            "description": "User is moved to Global Agent Transfer pattern, passing along flow and context.",
            "outcomeType": "Global",
            "outcomeValue": "Neutral",
            "destinationPattern": ""
          },
          {
            "id": "fallback",
            "type": "outcome",
            "color": "#EBBFFF",
            "label": "Fallback",
            "description": "If user is stuck in n or more repairs on the voice channel. Offer alternate channel if available, or switch to easier input.",
            "outcomeType": "Global",
            "outcomeValue": "Neutral",
            "destinationPattern": ""
          }
        ],
        "parentId": "96a19446-25e4-42da-ba73-6990e30ed9c6",
        "subflows": [],
        "description": "",
        "patternType": "Inbound",
        "entityGroups": [
          {
            "id": "06cb9489-429b-485a-a7ca-8b58c1837b43",
            "type": "entityGroup",
            "label": "defaultEntityGroup",
            "dependsOn": [],
            "primaryKey": "default",
            "description": "defaultEntityGroup",
            "sharedEndPoint": false
          }
        ]
      },
      {
        "id": "d9c45423-fe0b-49c8-a15e-48be5acce1b3",
        "type": "pattern",
        "label": "GlobalPatternToSkillPattern",
        "mapper": [],
        "parent": "AutomationProject_1676727800162",
        "channels": [
          {
            "id": "IVR",
            "label": "IVR",
            "description": "Voice over the phone",
            "type": "channel"
          },
          {
            "id": "RWC",
            "label": "RWC",
            "description": "Rich webchat UI",
            "type": "channel"
          }
        ],
        "entities": [],
        "flowData": [
          {
            "id": "4d24cb84-a94c-402d-aa9d-7f7209dd6ab9",
            "flow": [
              {
                "id": "7333ffe3-5168-4e30-a8cb-ba23d69f329f",
                "type": "flowCondition",
                "label": "default",
                "order": 1,
                "toNode": "addPoint",
                "description": "Start Experience"
              }
            ],
            "type": "node",
            "label": "Start",
            "parent": "AutomationProject_1676727800162/PatterntoDelete",
            "nodeType": "startPoint",
            "parentId": "96a19446-25e4-42da-ba73-6990e30ed9c6/114e7225-c076-46c9-99b4-c937de00186f",
            "description": "Pattern Flow Start",
            "applyInputsToFlow": false,
            "nodeDisplayOption": "description"
          }
        ],
        "nodeType": "pattern",
        "outcomes": [
          {
            "id": "36eece74-b55b-4afa-ba5c-61b1c93bc1f6",
            "type": "outcome",
            "color": "#8FBCFF",
            "label": "HITL",
            "reasons": [],
            "percentage": 33,
            "description": "Human in the Loop",
            "outcomeType": "Project",
            "outcomeValue": "Neutral"
          },
          {
            "id": "0b618a6b-f6fe-45f3-afcc-fe4f87052147",
            "type": "outcome",
            "color": "#FFBFCB",
            "label": "Abandon",
            "reasons": [],
            "percentage": 33,
            "description": "User exits system without completion point.",
            "outcomeType": "Project",
            "outcomeValue": "Negative"
          }
        ],
        "parentId": "96a19446-25e4-42da-ba73-6990e30ed9c6",
        "subflows": [],
        "description": "",
        "patternType": "Inbound",
        "entityGroups": [
          {
            "id": "06cb9489-429b-485a-a7ca-8b58c1837b43",
            "type": "entityGroup",
            "label": "defaultEntityGroup",
            "dependsOn": [],
            "primaryKey": "default",
            "description": "defaultEntityGroup",
            "sharedEndPoint": false
          }
        ]
      },
      {
        "id": "e835a38c-320a-44ce-a006-4674ceea273e",
        "type": "pattern",
        "label": "TestUniquePattern",
        "mapper": [],
        "parent": "AutomationProject_1676727800162",
        "channels": [
          {
            "id": "IVR",
            "type": "channel",
            "label": "IVR",
            "description": "Voice over the phone"
          },
          {
            "id": "RWC",
            "type": "channel",
            "label": "RWC",
            "description": "Rich webchat UI"
          }
        ],
        "entities": [],
        "flowData": [
          {
            "id": "4d24cb84-a94c-402d-aa9d-7f7209dd6ab9",
            "flow": [
              {
                "id": "7333ffe3-5168-4e30-a8cb-ba23d69f329f",
                "type": "flowCondition",
                "label": "default",
                "order": 1,
                "toNode": "addPoint",
                "description": "Start Experience"
              }
            ],
            "type": "node",
            "label": "Start",
            "parent": "AutomationProject_1676727800162/TestUniquePattern",
            "nodeType": "startPoint",
            "parentId": "96a19446-25e4-42da-ba73-6990e30ed9c6/114e7225-c076-46c9-99b4-c937de00186f",
            "description": "Pattern Flow Start",
            "applyInputsToFlow": false,
            "nodeDisplayOption": "description"
          }
        ],
        "nodeType": "pattern",
        "outcomes": [
          {
            "id": "36eece74-b55b-4afa-ba5c-61b1c93bc1f6",
            "type": "outcome",
            "color": "#8FBCFF",
            "label": "HITL",
            "reasons": [],
            "percentage": 33,
            "description": "Human in the Loop",
            "outcomeType": "Project",
            "outcomeValue": "Neutral"
          },
          {
            "id": "0b618a6b-f6fe-45f3-afcc-fe4f87052147",
            "type": "outcome",
            "color": "#FFBFCB",
            "label": "Abandon",
            "reasons": [],
            "percentage": 33,
            "description": "User exits system without completion point.",
            "outcomeType": "Project",
            "outcomeValue": "Negative"
          }
        ],
        "parentId": "96a19446-25e4-42da-ba73-6990e30ed9c6",
        "subflows": [],
        "description": "",
        "patternType": "Inbound",
        "entityGroups": [
          {
            "id": "06cb9489-429b-485a-a7ca-8b58c1837b43",
            "type": "entityGroup",
            "label": "defaultEntityGroup",
            "dependsOn": [],
            "primaryKey": "default",
            "description": "defaultEntityGroup",
            "sharedEndPoint": false
          }
        ]
      },
      {
        "id": "e6432dbc-3656-4568-acc0-433b9f5b716f",
        "type": "pattern",
        "label": "TestPattern EntityEditor",
        "mapper": [],
        "parent": "AutomationProject_1676727800162",
        "channels": [
          {
            "id": "IVR",
            "type": "channel",
            "label": "IVR",
            "description": "Voice over the phone"
          },
          {
            "id": "RWC",
            "type": "channel",
            "label": "RWC",
            "description": "Rich webchat UI"
          }
        ],
        "entities": [],
        "flowData": [
          {
            "id": "4d24cb84-a94c-402d-aa9d-7f7209dd6ab9",
            "flow": [
              {
                "id": "7333ffe3-5168-4e30-a8cb-ba23d69f329f",
                "type": "flowCondition",
                "label": "default",
                "order": 1,
                "toNode": "addPoint",
                "description": "Start Experience"
              }
            ],
            "type": "node",
            "label": "Start",
            "parent": "AutomationProject_1676727800162/TestPatternEntityEditor",
            "nodeType": "startPoint",
            "parentId": "96a19446-25e4-42da-ba73-6990e30ed9c6/114e7225-c076-46c9-99b4-c937de00186f",
            "description": "Pattern Flow Start",
            "applyInputsToFlow": false,
            "nodeDisplayOption": "description"
          }
        ],
        "nodeType": "pattern",
        "outcomes": [
          {
            "id": "36eece74-b55b-4afa-ba5c-61b1c93bc1f6",
            "type": "outcome",
            "color": "#8FBCFF",
            "label": "HITL",
            "reasons": [],
            "percentage": 33,
            "description": "Human in the Loop",
            "outcomeType": "Project",
            "outcomeValue": "Neutral"
          },
          {
            "id": "0b618a6b-f6fe-45f3-afcc-fe4f87052147",
            "type": "outcome",
            "color": "#FFBFCB",
            "label": "Abandon",
            "reasons": [],
            "percentage": 33,
            "description": "User exits system without completion point.",
            "outcomeType": "Project",
            "outcomeValue": "Negative"
          }
        ],
        "parentId": "96a19446-25e4-42da-ba73-6990e30ed9c6",
        "subflows": [],
        "description": "",
        "patternType": "Inbound",
        "entityGroups": [
          {
            "id": "06cb9489-429b-485a-a7ca-8b58c1837b43",
            "type": "entityGroup",
            "label": "defaultEntityGroup",
            "dependsOn": [],
            "primaryKey": "default",
            "description": "defaultEntityGroup",
            "sharedEndPoint": false
          }
        ]
      },
      {
        "id": "ab2ed415-0374-48b4-848f-11b798833fc6",
        "type": "pattern",
        "label": "TestPattern9522",
        "mapper": [],
        "parent": "AutomationProject_1676727800162",
        "channels": [
          {
            "id": "IVR",
            "type": "channel",
            "label": "IVR",
            "description": "Voice over the phone"
          },
          {
            "id": "RWC",
            "type": "channel",
            "label": "RWC",
            "description": "Rich webchat UI"
          }
        ],
        "entities": [],
        "flowData": [
          {
            "id": "4d24cb84-a94c-402d-aa9d-7f7209dd6ab9",
            "flow": [
              {
                "id": "7333ffe3-5168-4e30-a8cb-ba23d69f329f",
                "type": "flowCondition",
                "label": "default",
                "order": 1,
                "toNode": "addPoint",
                "description": "Start Experience"
              }
            ],
            "type": "node",
            "label": "Start",
            "parent": "AutomationProject_1676727800162/TestPattern9522",
            "nodeType": "startPoint",
            "parentId": "96a19446-25e4-42da-ba73-6990e30ed9c6/114e7225-c076-46c9-99b4-c937de00186f",
            "description": "Pattern Flow Start",
            "applyInputsToFlow": false,
            "nodeDisplayOption": "description"
          }
        ],
        "nodeType": "pattern",
        "outcomes": [
          {
            "id": "36eece74-b55b-4afa-ba5c-61b1c93bc1f6",
            "type": "outcome",
            "color": "#8FBCFF",
            "label": "HITL",
            "reasons": [],
            "percentage": 33,
            "description": "Human in the Loop",
            "outcomeType": "Project",
            "outcomeValue": "Neutral"
          },
          {
            "id": "0b618a6b-f6fe-45f3-afcc-fe4f87052147",
            "type": "outcome",
            "color": "#FFBFCB",
            "label": "Abandon",
            "reasons": [],
            "percentage": 33,
            "description": "User exits system without completion point.",
            "outcomeType": "Project",
            "outcomeValue": "Negative"
          }
        ],
        "parentId": "96a19446-25e4-42da-ba73-6990e30ed9c6",
        "subflows": [],
        "description": "",
        "patternType": "Inbound",
        "entityGroups": [
          {
            "id": "06cb9489-429b-485a-a7ca-8b58c1837b43",
            "type": "entityGroup",
            "label": "defaultEntityGroup",
            "dependsOn": [],
            "primaryKey": "default",
            "description": "defaultEntityGroup",
            "sharedEndPoint": false
          }
        ]
      },
      {
        "id": "b8f97380-748e-464d-ac9a-75cd404dd922",
        "type": "pattern",
        "label": "Pattern to Delete",
        "mapper": [],
        "parent": "AutomationProject_1676727800162",
        "channels": [
          {
            "id": "IVR",
            "type": "channel",
            "label": "IVR",
            "description": "Voice over the phone"
          },
          {
            "id": "RWC",
            "type": "channel",
            "label": "RWC",
            "description": "Rich webchat UI"
          }
        ],
        "entities": [],
        "flowData": [
          {
            "id": "4d24cb84-a94c-402d-aa9d-7f7209dd6ab9",
            "flow": [
              {
                "id": "7333ffe3-5168-4e30-a8cb-ba23d69f329f",
                "type": "flowCondition",
                "label": "default",
                "order": 1,
                "toNode": "addPoint",
                "description": "Start Experience"
              }
            ],
            "type": "node",
            "label": "Start",
            "parent": "AutomationProject_1676727800162/PatterntoDelete",
            "nodeType": "startPoint",
            "parentId": "96a19446-25e4-42da-ba73-6990e30ed9c6/114e7225-c076-46c9-99b4-c937de00186f",
            "description": "Pattern Flow Start",
            "applyInputsToFlow": false,
            "nodeDisplayOption": "description"
          }
        ],
        "nodeType": "pattern",
        "outcomes": [
          {
            "id": "36eece74-b55b-4afa-ba5c-61b1c93bc1f6",
            "type": "outcome",
            "color": "#8FBCFF",
            "label": "HITL",
            "reasons": [],
            "percentage": 33,
            "description": "Human in the Loop",
            "outcomeType": "Project",
            "outcomeValue": "Neutral"
          },
          {
            "id": "0b618a6b-f6fe-45f3-afcc-fe4f87052147",
            "type": "outcome",
            "color": "#FFBFCB",
            "label": "Abandon",
            "reasons": [],
            "percentage": 33,
            "description": "User exits system without completion point.",
            "outcomeType": "Project",
            "outcomeValue": "Negative"
          }
        ],
        "parentId": "96a19446-25e4-42da-ba73-6990e30ed9c6",
        "subflows": [],
        "description": "",
        "patternType": "Inbound",
        "entityGroups": [
          {
            "id": "06cb9489-429b-485a-a7ca-8b58c1837b43",
            "type": "entityGroup",
            "label": "defaultEntityGroup",
            "dependsOn": [],
            "primaryKey": "default",
            "description": "defaultEntityGroup",
            "sharedEndPoint": false
          }
        ]
      },
      {
        "label": "GlobalPatternToFallback",
        "id": "e17f2f4f-574e-44ed-a207-1b683d612867",
        "parent": "AutomationProject_1676727800162",
        "parentId": "7f8d3c13-ad15-491c-9eb3-98b42a301d16",
        "patternType": "Inbound",
        "nodeType": "pattern",
        "type": "pattern",
        "channels": [
          {
            "id": "IVR",
            "label": "IVR",
            "description": "Voice over the phone",
            "type": "channel"
          }
        ],
        "flowData": [
          {
            "type": "node",
            "id": "a7f9aa8c-119c-4960-8a95-4162fe2985d9",
            "label": "Start",
            "nodeType": "startPoint",
            "description": "Pattern Flow Start",
            "flow": [
              {
                "id": "4af7470b-f9f7-4493-a47a-5602e125d7a4",
                "label": "default",
                "order": 1,
                "description": "Start Experience",
                "toNode": "addPoint"
              }
            ]
          }
        ],
        "entities": [],
        "entityGroups": [
          {
            "id": "3e57818b-fbd5-4474-9bb9-925c65a6f66c",
            "type": "entityGroup",
            "label": "defaultEntityGroup",
            "description": "defaultEntityGroup",
            "primaryKey": "default",
            "dependsOn": [],
            "sharedEndPoint": false
          }
        ],
        "outcomes": [
          {
            "id": "36eece74-b55b-4afa-ba5c-61b1c93bc1f6",
            "type": "outcome",
            "color": "#8FBCFF",
            "label": "HITL",
            "reasons": [],
            "percentage": 33,
            "description": "Human in the Loop",
            "outcomeType": "Project",
            "outcomeValue": "Neutral"
          }
        ],
        "subflows": [],
        "mapper": [],
        "description": ""
      },
      {
        "label": "GlobalPatternToEscalate",
        "id": "44d68b8e-e41e-4239-920f-5929df2da08b",
        "parent": "AutomationProject_1676727800162",
        "parentId": "7f8d3c13-ad15-491c-9eb3-98b42a301d16",
        "patternType": "Inbound",
        "nodeType": "pattern",
        "type": "pattern",
        "channels": [
          {
            "id": "IVR",
            "label": "IVR",
            "description": "Voice over the phone",
            "type": "channel"
          }
        ],
        "flowData": [
          {
            "type": "node",
            "id": "749a6df4-14a2-49ff-870d-993578f2ec15",
            "label": "Start",
            "nodeType": "startPoint",
            "description": "Pattern Flow Start",
            "flow": [
              {
                "id": "3530e6b7-bc04-44f7-b23d-8b4298550702",
                "label": "default",
                "order": 1,
                "description": "Start Experience",
                "toNode": "addPoint"
              }
            ]
          }
        ],
        "entities": [],
        "entityGroups": [
          {
            "id": "245ac7fc-556a-4b62-bc84-c2577ed7641a",
            "type": "entityGroup",
            "label": "defaultEntityGroup",
            "description": "defaultEntityGroup",
            "primaryKey": "default",
            "dependsOn": [],
            "sharedEndPoint": false
          }
        ],
        "outcomes": [
          {
            "id": "36eece74-b55b-4afa-ba5c-61b1c93bc1f6",
            "type": "outcome",
            "color": "#8FBCFF",
            "label": "HITL",
            "reasons": [],
            "percentage": 33,
            "description": "Human in the Loop",
            "outcomeType": "Project",
            "outcomeValue": "Neutral"
          }
        ],
        "subflows": [],
        "mapper": [],
        "description": ""
      },
      {
        "label": "EscalateToGlobalPattern",
        "id": "ab1cca05-f993-44ae-b386-243d466858d4",
        "parent": "AutomationProject_1676727800162",
        "parentId": "7f8d3c13-ad15-491c-9eb3-98b42a301d16",
        "patternType": "Escalate",
        "nodeType": "pattern",
        "type": "pattern",
        "channels": [
          {
            "id": "IVR",
            "label": "IVR",
            "description": "Voice over the phone",
            "type": "channel"
          }
        ],
        "flowData": [
          {
            "type": "node",
            "id": "a8b67e09-48bd-4fe9-a6d8-baf90a0e9dd5",
            "label": "Start",
            "nodeType": "startPoint",
            "description": "Pattern Flow Start",
            "flow": [
              {
                "id": "c00f7a5e-bc55-4be5-a0fe-73dd38a93c9b",
                "label": "default",
                "order": 1,
                "description": "Start Experience",
                "toNode": "addPoint"
              }
            ]
          }
        ],
        "entities": [],
        "entityGroups": [
          {
            "id": "03ef60e7-0da2-4d98-9d93-c63c9e352d07",
            "type": "entityGroup",
            "label": "defaultEntityGroup",
            "description": "defaultEntityGroup",
            "primaryKey": "default",
            "dependsOn": [],
            "sharedEndPoint": false
          }
        ],
        "outcomes": [
          {
            "id": "36eece74-b55b-4afa-ba5c-61b1c93bc1f6",
            "type": "outcome",
            "color": "#8FBCFF",
            "label": "HITL",
            "reasons": [],
            "percentage": 33,
            "description": "Human in the Loop",
            "outcomeType": "Project",
            "outcomeValue": "Neutral"
          }
        ],
        "subflows": [],
        "mapper": [],
        "description": ""
      },
      {
        "label": "FallbackToGlobalPattern",
        "id": "3efe3398-bc69-4500-bf22-5600ffc307c8",
        "parent": "AutomationProject_1676727800162",
        "parentId": "7f8d3c13-ad15-491c-9eb3-98b42a301d16",
        "patternType": "Fallback",
        "nodeType": "pattern",
        "type": "pattern",
        "channels": [
          {
            "id": "IVR",
            "label": "IVR",
            "description": "Voice over the phone",
            "type": "channel"
          }
        ],
        "flowData": [
          {
            "type": "node",
            "id": "f0a46bb7-603e-4b53-8e08-fa1b9f74965f",
            "label": "Start",
            "nodeType": "startPoint",
            "description": "Pattern Flow Start",
            "flow": [
              {
                "id": "58c1c209-5264-43f3-84d3-c4a36f8ada1a",
                "label": "default",
                "order": 1,
                "description": "Start Experience",
                "toNode": "addPoint"
              }
            ]
          }
        ],
        "entities": [],
        "entityGroups": [
          {
            "id": "1bed3bd0-2360-4e36-bc15-9b3922e34f0f",
            "type": "entityGroup",
            "label": "defaultEntityGroup",
            "description": "defaultEntityGroup",
            "primaryKey": "default",
            "dependsOn": [],
            "sharedEndPoint": false
          }
        ],
        "outcomes": [
          {
            "id": "36eece74-b55b-4afa-ba5c-61b1c93bc1f6",
            "type": "outcome",
            "color": "#8FBCFF",
            "label": "HITL",
            "reasons": [],
            "percentage": 33,
            "description": "Human in the Loop",
            "outcomeType": "Project",
            "outcomeValue": "Neutral"
          }
        ],
        "subflows": [],
        "mapper": [],
        "description": ""
      }
    ],
    "templates": {
      "YesNoTemplateId": {
        "id": "YesNoTemplateId",
        "label": "YesNoQuestion",
        "hasPre": true,
        "hasPost": true,
        "hasRepair": true,
        "description": "This is the default ClosedQuestion template",
        "templateType": "closedQuestion",
        "channelConditions": [
          {
            "flow": [],
            "input": {
              "models": [
                {
                  "id": "d5dd7b43-f75a-4012-b264-1d300bbb6bb2",
                  "type": "inputCondition",
                  "label": "Yes",
                  "parser": "yes, yeah, yah",
                  "inputType": "Matcher",
                  "containsPii": false,
                  "description": "positive user response"
                },
                {
                  "id": "2a3dc036-f431-400a-a644-63046080bd8a",
                  "type": "inputCondition",
                  "label": "No",
                  "parser": "no, nope, nah",
                  "inputType": "Matcher",
                  "containsPii": false,
                  "description": "negative user response"
                }
              ]
            },
            "output": [],
            "channelId": "IVR"
          },
          {
            "flow": [],
            "input": {
              "models": [
                {
                  "id": "3793b994-f4de-4d24-b42f-6bb712ee73a8",
                  "type": "inputCondition",
                  "label": "Yes",
                  "parser": "yes, yeah, yah",
                  "inputType": "Matcher",
                  "containsPii": false,
                  "description": "positive user response"
                },
                {
                  "id": "d1acb3b9-a027-44c9-b86e-c0875e986e76",
                  "type": "inputCondition",
                  "label": "No",
                  "parser": "no, nope, nah",
                  "inputType": "Matcher",
                  "containsPii": false,
                  "description": "negative user response"
                }
              ]
            },
            "output": [],
            "channelId": "RWC"
          },
          {
            "flow": [],
            "input": {
              "models": [
                {
                  "id": "0a6ce375-3025-444d-8185-6d82cc91d900",
                  "type": "inputCondition",
                  "label": "Yes",
                  "parser": "yes, yeah, yah",
                  "inputType": "Matcher",
                  "containsPii": false,
                  "description": "positive user response"
                },
                {
                  "id": "f7b6b163-5f9f-49bb-a2d9-9c4cad95c89a",
                  "type": "inputCondition",
                  "label": "No",
                  "parser": "no, nope, nah",
                  "inputType": "Matcher",
                  "containsPii": false,
                  "description": "negative user response"
                }
              ]
            },
            "output": [],
            "channelId": "SMS"
          },
          {
            "flow": [],
            "input": {
              "models": []
            },
            "output": [],
            "channelId": "App"
          },
          {
            "flow": [],
            "input": {
              "models": [
                {
                  "id": "61b3d91c-82e0-470e-8630-edf230daac13",
                  "type": "inputCondition",
                  "label": "Yes",
                  "parser": "yes, yeah, yah",
                  "inputType": "Matcher",
                  "containsPii": false,
                  "description": "positive user response"
                },
                {
                  "id": "2d5a1a6c-9999-48ea-a7e3-d8ce45caacca",
                  "type": "inputCondition",
                  "label": "No",
                  "parser": "no, nope, nah",
                  "inputType": "Matcher",
                  "containsPii": false,
                  "description": "negative user response"
                }
              ]
            },
            "output": [],
            "channelId": "rSMS"
          },
          {
            "flow": [],
            "input": {
              "models": [
                {
                  "id": "3e5742e6-c602-478c-b9d4-e1456f384904",
                  "type": "inputCondition",
                  "label": "Yes",
                  "parser": "yes, yeah, yah",
                  "inputType": "Matcher",
                  "containsPii": false,
                  "description": "positive user response"
                },
                {
                  "id": "3e813fbf-b041-464d-892e-fcaad01c1692",
                  "type": "inputCondition",
                  "label": "No",
                  "parser": "no, nope, nah",
                  "inputType": "Matcher",
                  "containsPii": false,
                  "description": "negative user response"
                }
              ]
            },
            "output": [],
            "channelId": "VoIP"
          }
        ]
      },
      "defaultOpenTemplate": {
        "id": "defaultOpenTemplate",
        "label": "DefaultOpenTemplate",
        "hasPre": true,
        "hasPost": true,
        "hasRepair": true,
        "description": "This is the default open template.",
        "templateType": "openQuestion",
        "channelConditions": [
          {
            "flow": [],
            "input": {
              "models": []
            },
            "output": [],
            "channelId": "IVR"
          },
          {
            "flow": [],
            "input": {
              "models": []
            },
            "output": [],
            "channelId": "RWC"
          },
          {
            "flow": [],
            "input": {
              "models": []
            },
            "output": [],
            "channelId": "SMS"
          },
          {
            "flow": [],
            "input": {
              "models": []
            },
            "output": [],
            "channelId": "App"
          },
          {
            "flow": [],
            "input": {
              "models": []
            },
            "output": [],
            "channelId": "rSMS"
          },
          {
            "flow": [],
            "input": {
              "models": []
            },
            "output": [],
            "channelId": "VoIP"
          }
        ]
      },
      "defaultClosedTemplate": {
        "id": "defaultClosedTemplate",
        "label": "DefaultClosedTemplate",
        "hasPre": true,
        "hasPost": true,
        "hasRepair": true,
        "description": "This is the default closed template.",
        "templateType": "closedQuestion",
        "channelConditions": [
          {
            "flow": [],
            "input": {
              "models": []
            },
            "output": [],
            "channelId": "IVR"
          },
          {
            "flow": [],
            "input": {
              "models": []
            },
            "output": [],
            "channelId": "RWC"
          },
          {
            "flow": [],
            "input": {
              "models": []
            },
            "output": [],
            "channelId": "SMS"
          },
          {
            "flow": [],
            "input": {
              "models": []
            },
            "output": [],
            "channelId": "App"
          },
          {
            "flow": [],
            "input": {
              "models": []
            },
            "output": [],
            "channelId": "rSMS"
          },
          {
            "flow": [],
            "input": {
              "models": []
            },
            "output": [],
            "channelId": "VoIP"
          }
        ]
      },
      "defaultPromptTemplate": {
        "id": "defaultPromptTemplate",
        "label": "DefaultPromptTemplate",
        "hasPre": true,
        "hasPost": true,
        "hasRepair": true,
        "description": "This is the default prompt template.",
        "templateType": "prompt",
        "channelConditions": [
          {
            "flow": [],
            "input": {
              "models": []
            },
            "output": [],
            "channelId": "IVR"
          },
          {
            "flow": [],
            "input": {
              "models": []
            },
            "output": [],
            "channelId": "RWC"
          },
          {
            "flow": [],
            "input": {
              "models": []
            },
            "output": [],
            "channelId": "SMS"
          },
          {
            "flow": [],
            "input": {
              "models": []
            },
            "output": [],
            "channelId": "App"
          },
          {
            "flow": [],
            "input": {
              "models": []
            },
            "output": [],
            "channelId": "rSMS"
          },
          {
            "flow": [],
            "input": {
              "models": []
            },
            "output": [],
            "channelId": "VoIP"
          }
        ]
      }
    },
    "description": "Test Automation Project",
    "projectType": "None",
    "destinationPdes": [],
    "outcomesBaseline": [],
    "globalRepairRules": [
      {
        "id": "OOCRule",
        "label": "Out of Context",
        "outcome": "fallback",
        "repairType": "outOfContext",
        "description": "Out of context response are when the NLU is unable to classify the user's input. The user is asked to repeat.",
        "numberOfAttempts": 2
      },
      {
        "id": "NRRule",
        "label": "No Response",
        "outcome": "fallback",
        "repairType": "noResponse",
        "description": "No response is when the user does not provide any input. The system will reprompt the user to provide a response",
        "numberOfAttempts": 2
      },
      {
        "id": "ARRule",
        "label": "Agent Request",
        "outcome": "escalate",
        "repairType": "agentRequest",
        "description": "User requests Agent Transfer will trigger an Escalate flow",
        "numberOfAttempts": 1
      },
      {
        "id": "MRBFrule",
        "label": "Maximum Repair before Fallback",
        "outcome": "fallback",
        "repairType": "maximum",
        "description": "Total number of repairs before triggering a fallback action. Fallback should be offering another channel or escalating to an agent",
        "numberOfAttempts": 3
      }
    ],
    "projectObjectVersion": 1
  }
